pipelinecpu/build/test.vcd
$date
	Mon May  6 02:05:51 2024
$end
$version
	Icarus Verilog
$end
$timescale
	1ns
$end
$scope module CPU_tb $end
$var wire 32 ! pc [31:0] $end
$var reg 1 " clk $end
$var reg 1 # reset $end
$var integer 32 $ counter [31:0] $end
$scope module cpu $end
$var wire 1 " clk $end
$var wire 1 # reset $end
$var wire 1 % pcWriteEnable $end
$var wire 32 & pcWriteData [31:0] $end
$var wire 32 ' instr [31:0] $end
$var wire 1 ( hazard $end
$var wire 1 ) flush $end
$var reg 32 * PC [31:0] $end
$scope module ID $end
$var wire 32 + PC [31:0] $end
$var wire 1 " clk $end
$var wire 32 , instr [31:0] $end
$var wire 1 # reset $end
$var wire 5 - testr1 [4:0] $end
$var wire 1 % pcWriteEnable $end
$var wire 32 . pcWriteData [31:0] $end
$var wire 1 ( hazard $end
$var wire 1 ) flush $end
$scope module EX $end
$var wire 32 / PC [31:0] $end
$var wire 1 " clk $end
$var wire 3 0 func3 [2:0] $end
$var wire 7 1 func7 [6:0] $end
$var wire 32 2 imm [31:0] $end
$var wire 7 3 opcode [6:0] $end
$var wire 5 4 regNum0 [4:0] $end
$var wire 5 5 regNum1 [4:0] $end
$var wire 5 6 regWriteNum [4:0] $end
$var wire 1 # reset $end
$var wire 1 7 regWriteEnable $end
$var wire 32 8 regWriteData [31:0] $end
$var wire 32 9 regReadData1 [31:0] $end
$var wire 32 : regReadData0 [31:0] $end
$var wire 1 % pcWriteEnable $end
$var wire 32 ; pcWriteData [31:0] $end
$var wire 2 < forwardB [1:0] $end
$var wire 2 = forwardA [1:0] $end
$var wire 1 ) flush $end
$var wire 32 > data [31:0] $end
$var wire 32 ? aluO [31:0] $end
$var reg 4 @ aluOp [3:0] $end
$var reg 32 A aluX [31:0] $end
$var reg 32 B aluY [31:0] $end
$var reg 1 ( hazard $end
$var reg 1 C waithazard $end
$scope module Forwarding $end
$var wire 1 " clk $end
$var wire 5 D regReadNum0 [4:0] $end
$var wire 5 E regReadNum1 [4:0] $end
$var wire 5 F regWriteNum [4:0] $end
$var wire 1 ) flush $end
$var reg 2 G forwardA [1:0] $end
$var reg 2 H forwardB [1:0] $end
$upscope $end
$scope module RF $end
$var wire 32 I PC [31:0] $end
$var wire 1 " clk $end
$var wire 5 J regNum0 [4:0] $end
$var wire 5 K regNum1 [4:0] $end
$var wire 32 L regWriteData [31:0] $end
$var wire 1 M regWriteEnable $end
$var wire 5 N regWriteNum [4:0] $end
$var wire 1 # reset $end
$var wire 32 O regReadData1 [31:0] $end
$var wire 32 P regReadData0 [31:0] $end
$var integer 32 Q i [31:0] $end
$upscope $end
$scope module alu $end
$var wire 4 R aluOp [3:0] $end
$var wire 32 S aluX [31:0] $end
$var wire 32 T aluY [31:0] $end
$var reg 32 U aluO [31:0] $end
$upscope $end
$scope module control $end
$var wire 32 V PC [31:0] $end
$var wire 32 W aluO [31:0] $end
$var wire 1 " clk $end
$var wire 2 X forwordB [1:0] $end
$var wire 3 Y func3 [2:0] $end
$var wire 32 Z imm [31:0] $end
$var wire 32 [ regReadData1 [31:0] $end
$var wire 1 # reset $end
$var wire 3 \ state [2:0] $end
$var wire 32 ] memReadData [31:0] $end
$var reg 32 ^ data [31:0] $end
$var reg 32 _ data1 [31:0] $end
$var reg 32 ` data2 [31:0] $end
$var reg 32 a memAddr [31:0] $end
$var reg 32 b memWriteData [31:0] $end
$var reg 1 c memWriteEnable $end
$var reg 32 d pcWriteData [31:0] $end
$var reg 1 % pcWriteEnable $end
$var reg 32 e regWriteData [31:0] $end
$var reg 1 7 regWriteEnable $end
$scope module mem $end
$var wire 32 f PC [31:0] $end
$var wire 1 " clk $end
$var wire 3 g func3 [2:0] $end
$var wire 32 h memAddr [31:0] $end
$var wire 32 i memWriteData [31:0] $end
$var wire 1 c memWriteEnable $end
$var reg 32 j memReadData [31:0] $end
$upscope $end
$upscope $end
$upscope $end
$upscope $end
$scope module flushing $end
$var wire 1 " clk $end
$var wire 1 % pcWriteEnable $end
$var wire 1 ) flush $end
$var integer 32 k i [31:0] $end
$upscope $end
$scope module instrMem $end
$var wire 32 l instrAddr [31:0] $end
$var wire 32 m instrData [31:0] $end
$upscope $end
$upscope $end
$upscope $end
$enddefinitions $end
$comment Show the parameter values. $end
$dumpall
$end
#0
$dumpvars
bx m
b11111111111111111111111111111100 l
b0 k
bx j
bx i
bx h
bx g
b11111111111111111111111111111100 f
bx e
b0 d
xc
bx b
bx a
bx `
bx _
bx ^
bx ]
bx \
bx [
bx Z
bx Y
b0 X
bx W
b11111111111111111111111111111100 V
bx U
bx T
bx S
bx R
b100000 Q
bx P
bx O
bx N
xM
bx L
bx K
bx J
b11111111111111111111111111111100 I
b0 H
b0 G
bx F
bx E
bx D
0C
bx B
bx A
bx @
bx ?
bx >
b0 =
b0 <
b0 ;
bx :
bx 9
bx 8
x7
bx 6
bx 5
bx 4
bx 3
bx 2
bx 1
bx 0
b11111111111111111111111111111100 /
b0 .
bx -
bx ,
b11111111111111111111111111111100 +
bx *
0)
0(
bx '
b0 &
0%
b0 $
x#
0"
bx !
$end
#300
b0 b
b0 i
0c
07
b0 8
b0 e
b10100000000001010010011 '
b10100000000001010010011 m
b0 \
b0 +
b0 /
b0 I
b0 V
b0 f
b0 l
b1 $
1"
#600
0"
#900
b10100000010000000100011 '
b10100000010000000100011 m
b101 -
b100 +
b100 /
b100 I
b100 V
b100 f
b100 l
b10100000000001010010011 ,
0M
b0 L
b10 $
1"
#1200
0"
#1500
b101 ?
b101 U
b0 A
b0 S
b0 9
b0 O
b0 :
b0 P
b10001100000011 '
b10001100000011 m
b101 B
b101 T
b0 @
b0 R
b0 -
b101 2
b101 5
b101 E
b101 K
b0 4
b0 D
b0 J
b101 6
b101 F
b0 1
b0 0
b10011 3
b1000 +
b1000 /
b1000 I
b1000 V
b1000 f
b1000 l
b10100000010000000100011 ,
b11 $
1"
#1800
0"
#2100
b0 ?
b0 U
b1000110000001110010011 '
b1000110000001110010011 m
b11111111111111111111111111111100 !
b11111111111111111111111111111100 *
b110 -
b0 B
b0 T
b10 <
b10 H
b10 X
b101 >
b101 ^
17
b101 8
b101 e
b1100 +
b1100 /
b1100 I
b1100 V
b1100 f
b1100 l
b10001100000011 ,
b0 2
b0 6
b0 F
b10 0
b100011 3
b101 W
b0 [
b0 Y
b0 g
b101 Z
b1 \
b100 $
1"
#2400
0"
#2700
b101 ]
b101 j
b0 <
b0 H
b0 X
07
b0 8
b0 e
1c
b101 b
b101 i
b0 a
b0 h
b11100000000010000010011 '
b11100000000010000010011 m
b0 !
b0 *
b111 -
b101 `
b101 _
b101 N
1M
b101 L
b0 W
b101 [
b10 Y
b10 g
b0 Z
b11 \
b0 5
b0 E
b0 K
b110 6
b110 F
b11 3
b10000 +
b10000 /
b10000 I
b10000 V
b10000 f
b10000 l
b1000110000001110010011 ,
b101 $
1"
#3000
0"
#3300
b111 ?
b111 U
b100000111000111001100011 '
b100000111000111001100011 m
b100 !
b100 *
b1000 -
b10 B
b10 T
b101 A
b101 S
b10 =
b10 G
b0 b
b0 i
0c
17
b101 8
b101 e
b10100 +
b10100 /
b10100 I
b10100 V
b10100 f
b10100 l
b11100000000010000010011 ,
b10 2
b10 5
b10 E
b10 K
b110 4
b110 D
b110 J
b111 6
b111 F
b0 0
b10011 3
b0 N
0M
b0 L
b0 [
b10 \
b110 $
1"
#3600
0"
#3900
b0 A
b0 S
b111 ?
b111 U
b10 <
b10 H
b10 X
b0 =
b0 G
b111 >
b111 ^
b111 8
b111 e
b101000000000010100010011 '
b101000000000010100010011 m
b111 B
b111 T
b1000 !
b1000 *
b11100 -
b0 `
b110 N
1M
b101 L
b111 W
b0 Y
b0 g
b10 Z
b1 \
b111 2
b111 5
b111 E
b111 K
b0 4
b0 D
b0 J
b1000 6
b1000 F
b11000 +
b11000 /
b11000 I
b11000 V
b11000 f
b11000 l
b100000111000111001100011 ,
b111 $
1"
#4200
0"
#4500
b1 ?
b1 U
b10001110000011 '
b10001110000011 m
b1100 !
b1100 *
b1010 -
b111 A
b111 S
b1101 @
b1101 R
b1 =
b1 G
b11100 +
b11100 /
b11100 I
b11100 V
b11100 f
b11100 l
b101000000000010100010011 ,
b11100 2
b1000 5
b1000 E
b1000 K
b111 4
b111 D
b111 J
b11100 6
b11100 F
b1100011 3
b111 N
b111 L
b111 [
b111 Z
b111 `
b111 _
b1000 $
1"
#4800
b111 :
b111 P
0"
#5100
b0 A
b0 S
1)
b11 k
b0 ?
b0 U
b0 :
b0 P
b0 <
b0 H
b0 X
b0 =
b0 G
07
b0 8
b0 e
b110000 &
b110000 .
b110000 ;
b110000 d
1%
b11100101000110001100011 '
b11100101000110001100011 m
b0 B
b0 T
b0 @
b0 R
b10000 !
b10000 *
b111 -
b1000 N
b1 W
b11100 Z
b100 \
b1010 2
b1010 5
b1010 E
b1010 K
b0 4
b0 D
b0 J
b1010 6
b1010 F
b10011 3
b100000 +
b100000 /
b100000 I
b100000 V
b100000 f
b100000 l
b10001110000011 ,
b1001 $
1"
#5400
0"
#5700
b1110000000000010110010011 '
b1110000000000010110010011 m
b10100 !
b10100 *
b11000 -
0%
b110000 +
b110000 /
b110000 I
b110000 V
b110000 f
b110000 l
b11100101000110001100011 ,
b0 2
b0 5
b0 E
b0 K
b111 6
b111 F
b10 0
b11 3
b11100 N
0M
b0 L
b0 W
b0 [
b1010 Z
b0 \
b101 _
b10 k
b1010 $
1"
#6000
0"
#6300
b111 9
b111 O
b101 :
b101 P
b1011000000001100111 '
b1011000000001100111 m
b11000 !
b11000 *
b1011 -
b0 `
b1010 N
b10 Y
b10 g
b0 Z
b11000 2
b111 5
b111 E
b111 K
b101 4
b101 D
b101 J
b11000 6
b11000 F
b0 0
b1100011 3
b110100 +
b110100 /
b110100 I
b110100 V
b110100 f
b110100 l
b1110000000000010110010011 ,
b1 k
b1011 $
1"
#6600
0"
#6900
b11100 ?
b11100 U
b10100000000000011000010011 '
b10100000000000011000010011 m
b11100 !
b11100 *
b0 -
b0 9
b0 O
b0 :
b0 P
b111000 +
b111000 /
b111000 I
b111000 V
b111000 f
b111000 l
b1011000000001100111 ,
b11100 2
b11100 5
b11100 E
b11100 K
b0 4
b0 D
b0 J
b1011 6
b1011 F
b10011 3
b111 N
b111 [
b0 Y
b0 g
b11000 Z
b11100 B
b11100 T
b0 A
b0 S
b0 @
b0 R
0)
b0 k
b1100 $
1"
#7200
0"
#7500
b11100 A
b11100 S
b11100 ?
b11100 U
b10 =
b10 G
b11100 >
b11100 ^
17
b11100 8
b11100 e
b110000000010010000100011 '
b110000000010010000100011 m
b0 B
b0 T
b100000 !
b100000 *
b1100 -
b111 `
b11000 N
b11100 W
b0 [
b11100 Z
b1 \
b0 2
b0 5
b0 E
b0 K
b1011 4
b1011 D
b1011 J
b0 6
b0 F
b1100111 3
b111100 +
b111100 /
b111100 I
b111100 V
b111100 f
b111100 l
b10100000000000011000010011 ,
b1101 $
1"
#7800
0"
#8100
b0 ?
b0 U
1)
b11 k
b100000000010011010000011 '
b100000000010011010000011 m
b110000 !
b110000 *
b1000 -
b111 9
b111 O
b0 B
b0 T
b0 A
b0 S
b0 =
b0 G
b111000 >
b111000 ^
b111000 8
b111000 e
b11100 &
b11100 .
b11100 ;
b11100 d
1%
b1000000 +
b1000000 /
b1000000 I
b1000000 V
b1000000 f
b1000000 l
b110000000010010000100011 ,
b101000 2
b1000 5
b1000 E
b1000 K
b0 4
b0 D
b0 J
b1100 6
b1100 F
b1 1
b10011 3
b1011 N
1M
b11100 L
b0 Z
b101 \
b0 `
b1110 $
1"
#8400
0"
#8700
b0 9
b0 O
0%
07
b0 8
b0 e
b10001110000011 '
b10001110000011 m
b110100 !
b110100 *
b1101 -
b0 N
b111000 L
b0 W
b111 [
b101000 Z
b0 \
b1000 2
b1100 5
b1100 E
b1100 K
b1000 6
b1000 F
b0 1
b10 0
b100011 3
b11100 +
b11100 /
b11100 I
b11100 V
b11100 f
b11100 l
b100000000010011010000011 ,
b10 k
b1111 $
1"
#9000
0"
#9300
b11100101000110001100011 '
b11100101000110001100011 m
b111000 !
b111000 *
b111 -
b111 9
b111 O
b100000 +
b100000 /
b100000 I
b100000 V
b100000 f
b100000 l
b10001110000011 ,
b1000 5
b1000 E
b1000 K
b1101 6
b1101 F
b11 3
b1100 N
0M
b0 L
b0 [
b10 Y
b10 g
b1000 Z
b111 `
b1 k
b10000 $
1"
#9600
0"
#9900
b0 9
b0 O
b101000000000010100010011 '
b101000000000010100010011 m
b111100 !
b111100 *
b11000 -
b0 `
b1000 N
b111 [
b0 2
b0 5
b0 E
b0 K
b111 6
b111 F
b100100 +
b100100 /
b100100 I
b100100 V
b100100 f
b100100 l
b11100101000110001100011 ,
b0 ?
b0 U
b0 B
b0 T
0)
b0 k
b10001 $
1"
#10200
0"
#10500
b1 ?
b1 U
b101 A
b101 S
b100000000011100010011 '
b100000000011100010011 m
b1000000 !
b1000000 *
b1010 -
b111 9
b111 O
b101 :
b101 P
b101 B
b101 T
b1101 @
b1101 R
b10 <
b10 H
b10 X
b101 >
b101 ^
17
b101 8
b101 e
b101000 +
b101000 /
b101000 I
b101000 V
b101000 f
b101000 l
b101000000000010100010011 ,
b11000 2
b111 5
b111 E
b111 K
b101 4
b101 D
b101 J
b11000 6
b11000 F
b0 0
b1100011 3
b1101 N
b0 [
b0 Z
b10 \
b111 `
b10010 $
1"
#10800
0"
#11100
b0 A
b0 S
1)
b11 k
b0 ?
b0 U
b0 9
b0 O
b0 :
b0 P
b0 <
b0 H
b0 X
07
b0 8
b0 e
b111000 &
b111000 .
b111000 ;
b111000 d
1%
b1110000000000000001101111 '
b1110000000000000001101111 m
b0 B
b0 T
b0 @
b0 R
b11100 !
b11100 *
b1110 -
b101 `
b111 N
1M
b101 L
b1 W
b101 [
b0 Y
b0 g
b11000 Z
b100 \
b1010 2
b1010 5
b1010 E
b1010 K
b0 4
b0 D
b0 J
b1010 6
b1010 F
b10011 3
b101100 +
b101100 /
b101100 I
b101100 V
b101100 f
b101100 l
b100000000011100010011 ,
b10011 $
1"
#11400
0"
#11700
b10100000000000011000010011 '
b10100000000000011000010011 m
b100000 !
b100000 *
b0 -
0%
b111000 +
b111000 /
b111000 I
b111000 V
b111000 f
b111000 l
b1110000000000000001101111 ,
b1 2
b1 5
b1 E
b1 K
b1110 6
b1110 F
b11000 N
0M
b0 L
b0 W
b0 [
b1010 Z
b0 \
b10 k
b10100 $
1"
#12000
0"
#12300
b110000000010010000100011 '
b110000000010010000100011 m
b100100 !
b100100 *
b1100 -
b0 `
b1010 N
b1 Z
b11100 2
b11100 5
b11100 E
b11100 K
b0 6
b0 F
b1101111 3
b111100 +
b111100 /
b111100 I
b111100 V
b111100 f
b111100 l
b10100000000000011000010011 ,
b1 k
b10101 $
1"
#12600
0"
#12900
b100000000010011010000011 '
b100000000010011010000011 m
b101000 !
b101000 *
b1000 -
b111 9
b111 O
b1000000 +
b1000000 /
b1000000 I
b1000000 V
b1000000 f
b1000000 l
b110000000010010000100011 ,
b101000 2
b1000 5
b1000 E
b1000 K
b1100 6
b1100 F
b1 1
b10011 3
b1110 N
b11100 Z
b101000 ?
b101000 U
b101000 B
b101000 T
b0 A
b0 S
0)
b0 k
b10110 $
1"
#13200
0"
#13500
b1000 ?
b1000 U
b0 9
b0 O
b10 <
b10 H
b10 X
b101000 >
b101000 ^
17
b101000 8
b101000 e
b1101000000001100111 '
b1101000000001100111 m
b1000 B
b1000 T
b101100 !
b101100 *
b1101 -
b0 N
b101000 W
b111 [
b101000 Z
b1 \
b1000 2
b1100 5
b1100 E
b1100 K
b1000 6
b1000 F
b0 1
b10 0
b100011 3
b1000100 +
b1000100 /
b1000100 I
b1000100 V
b1000100 f
b1000100 l
b100000000010011010000011 ,
b10111 $
1"
#13800
0"
#14100
b10000000000101000001010010011 '
b10000000000101000001010010011 m
b111000 !
b111000 *
b0 -
b111 9
b111 O
b101000 ]
b101000 j
07
b0 8
b0 e
1c
b101000 b
b101000 i
b1000 a
b1000 h
b1001000 +
b1001000 /
b1001000 I
b1001000 V
b1001000 f
b1001000 l
b1101000000001100111 ,
b1000 5
b1000 E
b1000 K
b1101 6
b1101 F
b11 3
b1100 N
1M
b101000 L
b1000 W
b101000 [
b10 Y
b10 g
b1000 Z
b11 \
b101000 `
b101000 _
b11000 $
1"
#14400
0"
#14700
b101000 A
b101000 S
b101000 ?
b101000 U
b0 9
b0 O
b0 <
b0 H
b0 X
b10 =
b10 G
b0 b
b0 i
0c
17
b101000 8
b101000 e
bx '
bx m
b0 B
b0 T
b111100 !
b111100 *
b101 -
b1000 N
0M
b0 L
b10 \
b0 2
b0 5
b0 E
b0 K
b1101 4
b1101 D
b1101 J
b0 6
b0 F
b0 0
b1100111 3
b1001100 +
b1001100 /
b1001100 I
b1001100 V
b1001100 f
b1001100 l
b10000000000101000001010010011 ,
b11001 $
1"
#15000
0"
#15300
b0 ?
b0 U
1)
b11 k
b1000000 !
b1000000 *
bx -
b101 :
b101 P
b0 B
b0 T
b0 A
b0 S
b0 =
b0 G
b1001000 >
b1001000 ^
b1001000 8
b1001000 e
b101000 &
b101000 .
b101000 ;
b101000 d
1%
b1010000 +
b1010000 /
b1010000 I
b1010000 V
b1010000 f
b1010000 l
bx ,
b100000000 2
b101 4
b101 D
b101 J
b101 6
b101 F
b1000 1
b10011 3
b1101 N
1M
b101000 L
b101000 W
b0 [
b0 Y
b0 g
b0 Z
b101 \
b11010 $
1"
#15600
0"
#15900
bx 9
bx O
bx :
bx P
0%
07
b0 8
b0 e
b100000000011100010011 '
b100000000011100010011 m
b1000100 !
b1000100 *
b0 `
b0 N
b1001000 L
b0 W
b100000000 Z
b0 \
bz 2
bx 5
bx E
bx K
bx 4
bx D
bx J
bx 6
bx F
bx 1
bx 0
bx 3
b101000 +
b101000 /
b101000 I
b101000 V
b101000 f
b101000 l
b10 k
b11011 $
1"
#16200
0"
#16500
b1110000000000000001101111 '
b1110000000000000001101111 m
b1001000 !
b1001000 *
b1110 -
b101100 +
b101100 /
b101100 I
b101100 V
b101100 f
b101100 l
b100000000011100010011 ,
b101 N
0M
b0 L
bx [
bx Y
bx g
bz Z
b1 k
b11100 $
1"
#16800
0"
#17100
b1 ?
b1 U
b0 9
b0 O
b0 :
b0 P
b1110000000000010110010011 '
b1110000000000010110010011 m
b1 B
b1 T
b0 A
b0 S
b1001100 !
b1001100 *
b0 -
bx `
bx N
b1 2
b1 5
b1 E
b1 K
b0 4
b0 D
b0 J
b1110 6
b1110 F
b0 1
b0 0
b10011 3
b110000 +
b110000 /
b110000 I
b110000 V
b110000 f
b110000 l
b1110000000000000001101111 ,
0)
b0 k
b11101 $
1"
#17400
0"
#17700
b1001000 ?
b1001000 U
b1011000000001100111 '
b1011000000001100111 m
b1010000 !
b1010000 *
b1011 -
b11100 B
b11100 T
b101100 A
b101100 S
b1 >
b1 ^
17
b1 8
b1 e
b110100 +
b110100 /
b110100 I
b110100 V
b110100 f
b110100 l
b1110000000000010110010011 ,
b11100 2
b11100 5
b11100 E
b11100 K
b0 6
b0 F
b1101111 3
b1 W
b0 [
b0 Y
b0 g
b1 Z
b1 \
b11110 $
1"
#18000
0"
#18300
b0 B
b0 T
1)
b11 k
b0 ?
b0 U
b110000 >
b110000 ^
b110000 8
b110000 e
b1001000 &
b1001000 .
b1001000 ;
b1001000 d
1%
b10100000000000011000010011 '
b10100000000000011000010011 m
b0 A
b0 S
b101000 !
b101000 *
b0 -
b0 `
b1110 N
1M
b1 L
b1001000 W
b11100 Z
b101 \
b1011 6
b1011 F
b10011 3
b111000 +
b111000 /
b111000 I
b111000 V
b111000 f
b111000 l
b1011000000001100111 ,
b11111 $
1"
#18600
0"
#18900
b10000000000101000001010010011 '
b10000000000101000001010010011 m
b101100 !
b101100 *
b1100 -
b11100 :
b11100 P
0%
07
b0 8
b0 e
b1001000 +
b1001000 /
b1001000 I
b1001000 V
b1001000 f
b1001000 l
b10100000000000011000010011 ,
b0 2
b0 5
b0 E
b0 K
b1011 4
b1011 D
b1011 J
b0 6
b0 F
b1100111 3
b0 N
b110000 L
b0 W
b0 \
b10 k
b100000 $
1"
#19200
0"
#19500
b111 9
b111 O
b0 :
b0 P
bx '
bx m
b110000 !
b110000 *
b101 -
b1011 N
0M
b0 L
b0 Z
b101000 2
b1000 5
b1000 E
b1000 K
b0 4
b0 D
b0 J
b1100 6
b1100 F
b1 1
b10011 3
b1001100 +
b1001100 /
b1001100 I
b1001100 V
b1001100 f
b1001100 l
b10000000000101000001010010011 ,
b1 k
b100001 $
1"
#19800
0"
#20100
b101 A
b101 S
b110100 !
b110100 *
bx -
b0 9
b0 O
b101 :
b101 P
b1010000 +
b1010000 /
b1010000 I
b1010000 V
b1010000 f
b1010000 l
bx ,
b100000000 2
b0 5
b0 E
b0 K
b101 4
b101 D
b101 J
b101 6
b101 F
b1000 1
b0 N
b111 [
b101000 Z
b100000101 ?
b100000101 U
b100000000 B
b100000000 T
0)
b0 k
b100010 $
1"
#20400
0"
#20700
bx 9
bx O
bx :
bx P
b100000101 >
b100000101 ^
17
b100000101 8
b100000101 e
b111000 !
b111000 *
b111 `
b1100 N
b100000101 W
b0 [
b100000000 Z
b1 \
bz 2
bx 5
bx E
bx K
bx 4
bx D
bx J
bx 6
bx F
bx 1
bx 0
bx 3
b1010100 +
b1010100 /
b1010100 I
b1010100 V
b1010100 f
b1010100 l
b100011 $
1"
#21000
0"
#21300
b1001000 !
b1001000 *
07
b0 8
b0 e
b1011000 +
b1011000 /
b1011000 I
b1011000 V
b1011000 f
b1011000 l
b101 N
1M
b100000101 L
bx [
bx Y
bx g
bz Z
b0 \
b0 `
b100100 $
1"
#21600
0"
#21900
b1001100 !
b1001100 *
bx `
bx N
0M
b0 L
b1011100 +
b1011100 /
b1011100 I
b1011100 V
b1011100 f
b1011100 l
b100101 $
1"
#22200
0"
#22500
b1010000 !
b1010000 *
b1100000 +
b1100000 /
b1100000 I
b1100000 V
b1100000 f
b1100000 l
b100110 $
1"
#22800
0"
#23100
b1010100 !
b1010100 *
b1100100 +
b1100100 /
b1100100 I
b1100100 V
b1100100 f
b1100100 l
b100111 $
1"
#23400
0"
#23700
b1011000 !
b1011000 *
b1101000 +
b1101000 /
b1101000 I
b1101000 V
b1101000 f
b1101000 l
b101000 $
1"
#24000
0"
#24300
b1011100 !
b1011100 *
b1101100 +
b1101100 /
b1101100 I
b1101100 V
b1101100 f
b1101100 l
b101001 $
1"
#24600
0"
#24900
b1100000 !
b1100000 *
b1110000 +
b1110000 /
b1110000 I
b1110000 V
b1110000 f
b1110000 l
b101010 $
1"
#25200
0"
#25500
b1100100 !
b1100100 *
b1110100 +
b1110100 /
b1110100 I
b1110100 V
b1110100 f
b1110100 l
b101011 $
1"
#25800
0"
#26100
b1101000 !
b1101000 *
b1111000 +
b1111000 /
b1111000 I
b1111000 V
b1111000 f
b1111000 l
b101100 $
1"
#26400
0"
#26700
b1101100 !
b1101100 *
b1111100 +
b1111100 /
b1111100 I
b1111100 V
b1111100 f
b1111100 l
b101101 $
1"
#27000
0"
#27300
b1110000 !
b1110000 *
b10000000 +
b10000000 /
b10000000 I
b10000000 V
b10000000 f
b10000000 l
b101110 $
1"
#27600
0"
#27900
b1110100 !
b1110100 *
b10000100 +
b10000100 /
b10000100 I
b10000100 V
b10000100 f
b10000100 l
b101111 $
1"
#28200
0"
#28500
b1111000 !
b1111000 *
b10001000 +
b10001000 /
b10001000 I
b10001000 V
b10001000 f
b10001000 l
b110000 $
1"
#28800
0"
#29100
b1111100 !
b1111100 *
b10001100 +
b10001100 /
b10001100 I
b10001100 V
b10001100 f
b10001100 l
b110001 $
1"
#29400
0"
#29700
b10000000 !
b10000000 *
b10010000 +
b10010000 /
b10010000 I
b10010000 V
b10010000 f
b10010000 l
b110010 $
1"
#30000
0"
#30300
b10000100 !
b10000100 *
b10010100 +
b10010100 /
b10010100 I
b10010100 V
b10010100 f
b10010100 l
b110011 $
1"
#30600
0"
#30900
b10001000 !
b10001000 *
b10011000 +
b10011000 /
b10011000 I
b10011000 V
b10011000 f
b10011000 l
b110100 $
1"
#31200
0"
#31500
b10001100 !
b10001100 *
b10011100 +
b10011100 /
b10011100 I
b10011100 V
b10011100 f
b10011100 l
b110101 $
1"
#31800
0"
#32100
b10010000 !
b10010000 *
b10100000 +
b10100000 /
b10100000 I
b10100000 V
b10100000 f
b10100000 l
b110110 $
1"
#32400
0"
#32700
b10010100 !
b10010100 *
b10100100 +
b10100100 /
b10100100 I
b10100100 V
b10100100 f
b10100100 l
b110111 $
1"
#33000
0"
#33300
b10011000 !
b10011000 *
b10101000 +
b10101000 /
b10101000 I
b10101000 V
b10101000 f
b10101000 l
b111000 $
1"
#33600
0"
#33900
b10011100 !
b10011100 *
b10101100 +
b10101100 /
b10101100 I
b10101100 V
b10101100 f
b10101100 l
b111001 $
1"
#34200
0"
#34500
b10100000 !
b10100000 *
b10110000 +
b10110000 /
b10110000 I
b10110000 V
b10110000 f
b10110000 l
b111010 $
1"
#34800
0"
#35100
b10100100 !
b10100100 *
b10110100 +
b10110100 /
b10110100 I
b10110100 V
b10110100 f
b10110100 l
b111011 $
1"
#35400
0"
#35700
b10101000 !
b10101000 *
b10111000 +
b10111000 /
b10111000 I
b10111000 V
b10111000 f
b10111000 l
b111100 $
1"
#36000
0"
#36300
b10101100 !
b10101100 *
b10111100 +
b10111100 /
b10111100 I
b10111100 V
b10111100 f
b10111100 l
b111101 $
1"
#36600
0"
#36900
b10110000 !
b10110000 *
b11000000 +
b11000000 /
b11000000 I
b11000000 V
b11000000 f
b11000000 l
b111110 $
1"
#37200
0"
#37500
b10110100 !
b10110100 *
b11000100 +
b11000100 /
b11000100 I
b11000100 V
b11000100 f
b11000100 l
b111111 $
1"
#37800
0"
#38100
b10111000 !
b10111000 *
b11001000 +
b11001000 /
b11001000 I
b11001000 V
b11001000 f
b11001000 l
b1000000 $
1"
#38400
0"
#38700
b10111100 !
b10111100 *
b11001100 +
b11001100 /
b11001100 I
b11001100 V
b11001100 f
b11001100 l
b1000001 $
1"
#39000
0"
#39300
b11000000 !
b11000000 *
b11010000 +
b11010000 /
b11010000 I
b11010000 V
b11010000 f
b11010000 l
b1000010 $
1"
#39600
0"
#39900
b11000100 !
b11000100 *
b11010100 +
b11010100 /
b11010100 I
b11010100 V
b11010100 f
b11010100 l
b1000011 $
1"
#40200
0"
#40500
b11001000 !
b11001000 *
b11011000 +
b11011000 /
b11011000 I
b11011000 V
b11011000 f
b11011000 l
b1000100 $
1"
#40800
0"
#41100
b11001100 !
b11001100 *
b11011100 +
b11011100 /
b11011100 I
b11011100 V
b11011100 f
b11011100 l
b1000101 $
1"
#41400
0"
#41700
b11010000 !
b11010000 *
b11100000 +
b11100000 /
b11100000 I
b11100000 V
b11100000 f
b11100000 l
b1000110 $
1"
#42000
0"
#42300
b11010100 !
b11010100 *
b11100100 +
b11100100 /
b11100100 I
b11100100 V
b11100100 f
b11100100 l
b1000111 $
1"
#42600
0"
#42900
b11011000 !
b11011000 *
b11101000 +
b11101000 /
b11101000 I
b11101000 V
b11101000 f
b11101000 l
b1001000 $
1"
#43200
0"
#43500
b11011100 !
b11011100 *
b11101100 +
b11101100 /
b11101100 I
b11101100 V
b11101100 f
b11101100 l
b1001001 $
1"
#43800
0"
#44100
b11100000 !
b11100000 *
b11110000 +
b11110000 /
b11110000 I
b11110000 V
b11110000 f
b11110000 l
b1001010 $
1"
#44400
0"
#44700
b11100100 !
b11100100 *
b11110100 +
b11110100 /
b11110100 I
b11110100 V
b11110100 f
b11110100 l
b1001011 $
1"
#45000
0"
#45300
b11101000 !
b11101000 *
b11111000 +
b11111000 /
b11111000 I
b11111000 V
b11111000 f
b11111000 l
b1001100 $
1"
#45600
0"
#45900
b11101100 !
b11101100 *
b11111100 +
b11111100 /
b11111100 I
b11111100 V
b11111100 f
b11111100 l
b1001101 $
1"
#46200
0"
#46500
b11110000 !
b11110000 *
b100000000 +
b100000000 /
b100000000 I
b100000000 V
b100000000 f
b100000000 l
b1001110 $
1"
#46800
0"
#47100
b11110100 !
b11110100 *
b100000100 +
b100000100 /
b100000100 I
b100000100 V
b100000100 f
b100000100 l
b1001111 $
1"
#47400
0"
#47700
b11111000 !
b11111000 *
b100001000 +
b100001000 /
b100001000 I
b100001000 V
b100001000 f
b100001000 l
b1010000 $
1"
#48000
0"
#48300
b11111100 !
b11111100 *
b100001100 +
b100001100 /
b100001100 I
b100001100 V
b100001100 f
b100001100 l
b1010001 $
1"
#48600
0"
#48900
b100000000 !
b100000000 *
b100010000 +
b100010000 /
b100010000 I
b100010000 V
b100010000 f
b100010000 l
b1010010 $
1"
#49200
0"
#49500
b100000100 !
b100000100 *
b100010100 +
b100010100 /
b100010100 I
b100010100 V
b100010100 f
b100010100 l
b1010011 $
1"
#49800
0"
#50100
b100001000 !
b100001000 *
b100011000 +
b100011000 /
b100011000 I
b100011000 V
b100011000 f
b100011000 l
b1010100 $
1"
#50400
0"
#50700
b100001100 !
b100001100 *
b100011100 +
b100011100 /
b100011100 I
b100011100 V
b100011100 f
b100011100 l
b1010101 $
1"
#51000
0"
#51300
b100010000 !
b100010000 *
b100100000 +
b100100000 /
b100100000 I
b100100000 V
b100100000 f
b100100000 l
b1010110 $
1"
#51600
0"
#51900
b100010100 !
b100010100 *
b100100100 +
b100100100 /
b100100100 I
b100100100 V
b100100100 f
b100100100 l
b1010111 $
1"
#52200
0"
#52500
b100011000 !
b100011000 *
b100101000 +
b100101000 /
b100101000 I
b100101000 V
b100101000 f
b100101000 l
b1011000 $
1"
#52800
0"
