pipelinecpu/build/test.vcd
$date
	Sat May 11 19:01:46 2024
$end
$version
	Icarus Verilog
$end
$timescale
	1ns
$end
$scope module CPU_tb $end
$var wire 32 ! pc [31:0] $end
$var reg 1 " clk $end
$var reg 1 # reset $end
$var integer 32 $ counter [31:0] $end
$scope module cpu $end
$var wire 1 " clk $end
$var wire 1 # reset $end
$var wire 1 % pcWriteEnable $end
$var wire 32 & pcWriteData [31:0] $end
$var wire 32 ' instr [31:0] $end
$var wire 1 ( hazard $end
$var wire 1 ) flush $end
$var reg 32 * PC [31:0] $end
$scope module Flushing $end
$var wire 1 " clk $end
$var wire 1 # reset $end
$var wire 1 % pcWriteEnable $end
$var wire 1 ) flush $end
$var integer 32 + i [31:0] $end
$upscope $end
$scope module ID $end
$var wire 32 , PC [31:0] $end
$var wire 1 " clk $end
$var wire 1 ) flush $end
$var wire 32 - instr [31:0] $end
$var wire 1 # reset $end
$var wire 1 % pcWriteEnable $end
$var wire 32 . pcWriteData [31:0] $end
$var wire 1 / memReadEnable $end
$var wire 1 ( hazard $end
$scope module EX $end
$var wire 32 0 PC [31:0] $end
$var wire 1 " clk $end
$var wire 1 ) flush $end
$var wire 3 1 func3 [2:0] $end
$var wire 7 2 func7 [6:0] $end
$var wire 32 3 imm [31:0] $end
$var wire 7 4 opcode [6:0] $end
$var wire 5 5 regNum0 [4:0] $end
$var wire 5 6 regNum1 [4:0] $end
$var wire 5 7 regWriteNum [4:0] $end
$var wire 1 # reset $end
$var wire 1 8 regWriteEnable $end
$var wire 32 9 regWriteData [31:0] $end
$var wire 32 : regReadData1 [31:0] $end
$var wire 32 ; regReadData0 [31:0] $end
$var wire 1 % pcWriteEnable $end
$var wire 32 < pcWriteData [31:0] $end
$var wire 1 ( hazard $end
$var wire 2 = forwardB [1:0] $end
$var wire 2 > forwardA [1:0] $end
$var wire 32 ? data [31:0] $end
$var wire 32 @ aluO [31:0] $end
$var reg 4 A aluOp [3:0] $end
$var reg 32 B aluX [31:0] $end
$var reg 32 C aluY [31:0] $end
$var reg 1 / memReadEnable $end
$scope module Control $end
$var wire 32 D PC [31:0] $end
$var wire 32 E aluO [31:0] $end
$var wire 1 " clk $end
$var wire 3 F func3 [2:0] $end
$var wire 32 G imm [31:0] $end
$var wire 32 H regReadData1 [31:0] $end
$var wire 1 # reset $end
$var wire 3 I state [2:0] $end
$var wire 32 J memReadData [31:0] $end
$var wire 2 K forwordB [1:0] $end
$var reg 32 L data [31:0] $end
$var reg 32 M memAddr [31:0] $end
$var reg 32 N memWriteData [31:0] $end
$var reg 1 O memWriteEnable $end
$var reg 32 P pcWriteData [31:0] $end
$var reg 1 % pcWriteEnable $end
$var reg 32 Q regWriteData [31:0] $end
$var reg 1 8 regWriteEnable $end
$scope module mem $end
$var wire 32 R PC [31:0] $end
$var wire 3 S func3 [2:0] $end
$var wire 32 T memAddr [31:0] $end
$var wire 32 U memWriteData [31:0] $end
$var wire 1 O memWriteEnable $end
$var reg 32 V memReadData [31:0] $end
$upscope $end
$upscope $end
$scope module Forwarding $end
$var wire 1 " clk $end
$var wire 1 ) flush $end
$var wire 5 W regReadNum0 [4:0] $end
$var wire 5 X regReadNum1 [4:0] $end
$var wire 5 Y regWriteNum [4:0] $end
$var wire 1 # reset $end
$var reg 2 Z forwardA [1:0] $end
$var reg 2 [ forwardB [1:0] $end
$upscope $end
$scope module RF $end
$var wire 32 \ PC [31:0] $end
$var wire 1 " clk $end
$var wire 5 ] regNum0 [4:0] $end
$var wire 5 ^ regNum1 [4:0] $end
$var wire 32 _ regWriteData [31:0] $end
$var wire 1 ` regWriteEnable $end
$var wire 5 a regWriteNum [4:0] $end
$var wire 1 # reset $end
$var wire 32 b regReadData1 [31:0] $end
$var wire 32 c regReadData0 [31:0] $end
$var integer 32 d i [31:0] $end
$upscope $end
$scope module alu $end
$var wire 4 e aluOp [3:0] $end
$var wire 32 f aluX [31:0] $end
$var wire 32 g aluY [31:0] $end
$var reg 32 h aluO [31:0] $end
$upscope $end
$upscope $end
$scope module Hazarding $end
$var wire 1 " clk $end
$var wire 1 / memReadEnable $end
$var wire 5 i regNum0 [4:0] $end
$var wire 5 j regNum1 [4:0] $end
$var wire 5 k regWriteNum [4:0] $end
$var wire 1 # reset $end
$var reg 1 ( hazard $end
$var integer 32 l i [31:0] $end
$upscope $end
$upscope $end
$scope module U_imem $end
$var wire 32 m instrAddr [31:0] $end
$var wire 32 n instrData [31:0] $end
$upscope $end
$upscope $end
$upscope $end
$enddefinitions $end
$comment Show the parameter values. $end
$dumpall
$end
#0
$dumpvars
bx n
b11111111111111111111111111111100 m
b0x l
bx k
bx j
bx i
bx h
bx g
bx f
bx e
b100000 d
bx c
bx b
bx a
x`
bx _
bx ^
bx ]
b11111111111111111111111111111100 \
b0 [
b0 Z
bx Y
bx X
bx W
bx V
bx U
bx T
bx S
b11111111111111111111111111111100 R
bx Q
b0 P
xO
bx N
bx M
bx L
b0 K
bx J
bx I
bx H
bx G
bx F
bx E
b11111111111111111111111111111100 D
bx C
bx B
bx A
bx @
bx ?
b0 >
b0 =
b0 <
bx ;
bx :
bx 9
x8
bx 7
bx 6
bx 5
bx 4
bx 3
bx 2
bx 1
b11111111111111111111111111111100 0
x/
b0 .
bx -
b11111111111111111111111111111100 ,
b0 +
b11111111111111111111111111101100 *
0)
x(
bx '
b0 &
0%
b0 $
0#
0"
b11111111111111111111111111101100 !
$end
#300
b0 C
b0 g
b0 B
b0 f
b0 N
b0 U
0O
08
b0 9
b0 Q
0(
b0 :
b0 b
b0 ;
b0 c
0/
b0 I
b0 l
b0 7
b0 Y
b0 k
b0 6
b0 X
b0 ^
b0 5
b0 W
b0 ]
b110011 4
b1 $
1"
#600
0"
#900
b10100000000001010010011 '
b10100000000001010010011 n
b11111111111111111111111111110000 !
b11111111111111111111111111110000 *
bx :
bx b
bx ;
bx c
18
bx 9
bx Q
b0 ,
b0 0
b0 D
b0 R
b0 \
b0 m
bx 7
bx Y
bx k
bx 6
bx X
bx ^
bx 5
bx W
bx ]
bx 4
b1 I
b0 H
0`
b0 _
b10 $
1"
#1200
0"
#1500
b10100000010000000100011 '
b10100000010000000100011 n
08
b0 9
b0 Q
b11111111111111111111111111110100 !
b11111111111111111111111111110100 *
b101 j
b0 i
b0 I
bx H
b0 a
1`
bx _
b100 ,
b100 0
b100 D
b100 R
b100 \
b100 m
b10100000000001010010011 -
b11 $
1"
#1800
0"
#2100
b101 @
b101 h
b10001100000011 '
b10001100000011 n
b11111111111111111111111111111000 !
b11111111111111111111111111111000 *
b110 :
b110 b
b0 ;
b0 c
b101 C
b101 g
b0 B
b0 f
b0 A
b0 e
b1000 ,
b1000 0
b1000 D
b1000 R
b1000 \
b1000 m
b10100000010000000100011 -
b101 7
b101 Y
b101 k
b101 6
b101 X
b101 ^
b0 5
b0 W
b0 ]
b10011 4
b101 3
b0 2
b0 1
bx a
0`
b0 _
b100 $
1"
#2400
0"
#2700
b0 @
b0 h
b10 =
b10 K
b10 [
b1000110000001110010011 '
b1000110000001110010011 n
b101 ?
b101 L
18
b101 9
b101 Q
b0 C
b0 g
b11111111111111111111111111111100 !
b11111111111111111111111111111100 *
b0 j
b1 I
b110 H
b101 G
b0 F
b0 S
b101 E
b0 7
b0 Y
b0 k
b100011 4
b0 3
b10 1
b1100 ,
b1100 0
b1100 D
b1100 R
b1100 \
b1100 m
b10001100000011 -
b101 $
1"
#3000
0"
#3300
1(
b1 l
1/
b11100000000010000010011 '
b11100000000010000010011 n
b0 !
b0 *
b10 j
b110 i
b0 :
b0 b
b101 J
b101 V
b0 =
b0 K
b0 [
08
b0 9
b0 Q
1O
b101 N
b101 U
b0 M
b0 T
b10000 ,
b10000 0
b10000 D
b10000 R
b10000 \
b10000 m
b1000110000001110010011 -
b110 7
b110 Y
b110 k
b0 6
b0 X
b0 ^
b11 4
b11 I
b101 H
b101 a
1`
b101 _
b0 G
b10 F
b10 S
b0 E
b110 $
1"
#3600
0"
#3900
0/
b0 N
b0 U
0O
18
b101 9
b101 Q
0(
b110 A
b110 e
b10 I
b0 H
b0 a
0`
b0 _
b0 l
b0 7
b0 Y
b0 k
b110011 4
b111 $
1"
#4200
0"
#4500
b111 @
b111 h
b100000111000111001100011 '
b100000111000111001100011 n
b100 !
b100 *
b111 j
b0 i
b11 :
b11 b
b111 ;
b111 c
b10 C
b10 g
b101 B
b101 f
b0 A
b0 e
b1 >
b1 Z
b0 ?
b0 L
b0 9
b0 Q
b10100 ,
b10100 0
b10100 D
b10100 R
b10100 \
b10100 m
b11100000000010000010011 -
b111 7
b111 Y
b111 k
b10 6
b10 X
b10 ^
b110 5
b110 W
b110 ]
b10011 4
b10 3
b0 1
b1 I
b110 a
1`
b101 _
b1000 $
1"
#4800
b101 ;
b101 c
0"
#5100
b1000 :
b1000 b
b10 =
b10 K
b10 [
b0 >
b0 Z
b0 ;
b0 c
b101000000000010100010011 '
b101000000000010100010011 n
b111 ?
b111 L
b111 9
b111 Q
b111 C
b111 g
b0 B
b0 f
b1000 !
b1000 *
b1000 j
b111 i
b11 H
b0 a
b0 _
b10 G
b0 F
b0 S
b111 E
b1000 7
b1000 Y
b1000 k
b111 6
b111 X
b111 ^
b0 5
b0 W
b0 ]
b111 3
b11000 ,
b11000 0
b11000 D
b11000 R
b11000 \
b11000 m
b100000111000111001100011 -
b1001 $
1"
#5400
0"
#5700
b1 @
b1 h
b10001110000011 '
b10001110000011 n
b1100 !
b1100 *
b1010 j
b0 i
b1001 :
b1001 b
b1000 ;
b1000 c
b111 B
b111 f
b1101 A
b1101 e
b1 >
b1 Z
b11100 ,
b11100 0
b11100 D
b11100 R
b11100 \
b11100 m
b101000000000010100010011 -
b11100 7
b11100 Y
b11100 k
b1000 6
b1000 X
b1000 ^
b111 5
b111 W
b111 ]
b1100011 4
b11100 3
b111 H
b111 a
b111 _
b111 G
b1010 $
1"
#6000
b111 ;
b111 c
0"
#6300
b0 B
b0 f
1)
b11 +
b0 @
b0 h
b1011 :
b1011 b
b0 =
b0 K
b0 [
b0 >
b0 Z
b0 ;
b0 c
b11100101000110001100011 '
b11100101000110001100011 n
08
b0 9
b0 Q
b110000 &
b110000 .
b110000 <
b110000 P
1%
b0 C
b0 g
b0 A
b0 e
b10000 !
b10000 *
b0 j
b100 I
b1000 a
b11100 G
b1 E
b1010 7
b1010 Y
b1010 k
b1010 6
b1010 X
b1010 ^
b0 5
b0 W
b0 ]
b10011 4
b1010 3
b100000 ,
b100000 0
b100000 D
b100000 R
b100000 \
b100000 m
b10001110000011 -
b1011 $
1"
#6600
0"
#6900
b1110000000000010110010011 '
b1110000000000010110010011 n
b100000 !
b100000 *
b111 j
b101 i
b0 :
b0 b
0%
b110000 ,
b110000 0
b110000 D
b110000 R
b110000 \
b110000 m
b11100101000110001100011 -
b111 7
b111 Y
b111 k
b0 6
b0 X
b0 ^
b11 4
b0 3
b10 1
b0 I
b1011 H
b11100 a
0`
b0 _
b1010 G
b0 E
b10 +
b1100 $
1"
#7200
0"
#7500
b111 :
b111 b
b101 ;
b101 c
b1011000000001100111 '
b1011000000001100111 n
b100100 !
b100100 *
b11100 j
b0 i
b0 H
b1010 a
b0 G
b10 F
b10 S
b11000 7
b11000 Y
b11000 k
b111 6
b111 X
b111 ^
b101 5
b101 W
b101 ]
b1100011 4
b11000 3
b0 1
b110100 ,
b110100 0
b110100 D
b110100 R
b110100 \
b110100 m
b1110000000000010110010011 -
b1 +
b1101 $
1"
#7800
0"
#8100
b11100 @
b11100 h
b10100000000000011000010011 '
b10100000000000011000010011 n
b101000 !
b101000 *
b0 j
b1011 i
b11101 :
b11101 b
b0 ;
b0 c
b111000 ,
b111000 0
b111000 D
b111000 R
b111000 \
b111000 m
b1011000000001100111 -
b1011 7
b1011 Y
b1011 k
b11100 6
b11100 X
b11100 ^
b0 5
b0 W
b0 ]
b10011 4
b11100 3
b111 H
b111 a
b11000 G
b0 F
b0 S
b11100 C
b11100 g
b0 B
b0 f
b0 A
b0 e
0)
b0 +
b1110 $
1"
#8400
0"
#8700
b11100 B
b11100 f
b11100 @
b11100 h
b0 :
b0 b
b10 >
b10 Z
b1100 ;
b1100 c
b110000000010010000100011 '
b110000000010010000100011 n
b11100 ?
b11100 L
18
b11100 9
b11100 Q
b0 C
b0 g
b101100 !
b101100 *
b1000 j
b0 i
b1 I
b11101 H
b11000 a
b11100 G
b11100 E
b0 7
b0 Y
b0 k
b0 6
b0 X
b0 ^
b1011 5
b1011 W
b1011 ]
b1100111 4
b0 3
b111100 ,
b111100 0
b111100 D
b111100 R
b111100 \
b111100 m
b10100000000000011000010011 -
b1111 $
1"
#9000
0"
#9300
b0 @
b0 h
1)
b11 +
b100000000010011010000011 '
b100000000010011010000011 n
b110000 !
b110000 *
b1100 j
b111 :
b111 b
b0 ;
b0 c
b0 C
b0 g
b0 B
b0 f
b0 >
b0 Z
b111000 ?
b111000 L
b111000 9
b111000 Q
b11100 &
b11100 .
b11100 <
b11100 P
1%
b1000000 ,
b1000000 0
b1000000 D
b1000000 R
b1000000 \
b1000000 m
b110000000010010000100011 -
b1100 7
b1100 Y
b1100 k
b1000 6
b1000 X
b1000 ^
b0 5
b0 W
b0 ]
b10011 4
b101000 3
b1 2
b101 I
b0 H
b1011 a
1`
b11100 _
b0 G
b10000 $
1"
#9600
0"
#9900
b1101 :
b1101 b
b10001110000011 '
b10001110000011 n
0%
08
b0 9
b0 Q
b1100 !
b1100 *
b1000 j
b0 I
b111 H
b0 a
b111000 _
b101000 G
b0 E
b1000 7
b1000 Y
b1000 k
b1100 6
b1100 X
b1100 ^
b100011 4
b1000 3
b0 2
b10 1
b11100 ,
b11100 0
b11100 D
b11100 R
b11100 \
b11100 m
b100000000010011010000011 -
b10 +
b10001 $
1"
#10200
0"
#10500
b11100101000110001100011 '
b11100101000110001100011 n
b10000 !
b10000 *
b0 j
b111 :
b111 b
b100000 ,
b100000 0
b100000 D
b100000 R
b100000 \
b100000 m
b10001110000011 -
b1101 7
b1101 Y
b1101 k
b1000 6
b1000 X
b1000 ^
b11 4
b1101 H
b1100 a
0`
b0 _
b1000 G
b10 F
b10 S
b1 +
b10010 $
1"
#10800
0"
#11100
1(
b1 l
b0 :
b0 b
b101000000000010100010011 '
b101000000000010100010011 n
b10100 !
b10100 *
b111 j
b101 i
b111 H
b1000 a
b111 7
b111 Y
b111 k
b0 6
b0 X
b0 ^
b0 3
b100100 ,
b100100 0
b100100 D
b100100 R
b100100 \
b100100 m
b11100101000110001100011 -
1/
b0 @
b0 h
b0 C
b0 g
0)
b0 +
b10011 $
1"
#11400
0"
#11700
0(
b110 A
b110 e
b101 ?
b101 L
18
b101 9
b101 Q
b0 7
b0 Y
b0 k
b110011 4
b0 l
b10 I
b0 H
b1101 a
b0 G
b10100 $
1"
#12000
0/
0"
#12300
b101 C
b101 g
b101 B
b101 f
b1 @
b1 h
b111 :
b111 b
b1 =
b1 K
b1 [
b101 ;
b101 c
b100000000011100010011 '
b100000000011100010011 n
b0 ?
b0 L
b0 9
b0 Q
b1101 A
b1101 e
b11000 !
b11000 *
b1010 j
b0 i
b1 I
b111 a
1`
b101 _
b11000 7
b11000 Y
b11000 k
b111 6
b111 X
b111 ^
b101 5
b101 W
b101 ]
b1100011 4
b11000 3
b0 1
b101000 ,
b101000 0
b101000 D
b101000 R
b101000 \
b101000 m
b101000000000010100010011 -
b10101 $
1"
#12600
b101 :
b101 b
0"
#12900
b0 B
b0 f
b0 @
b0 h
1)
b11 +
b1110000000000000001101111 '
b1110000000000000001101111 n
b11100 !
b11100 *
b1 j
b1011 :
b1011 b
b0 ;
b0 c
b0 C
b0 g
b0 A
b0 e
b0 =
b0 K
b0 [
08
b111000 &
b111000 .
b111000 <
b111000 P
1%
b101100 ,
b101100 0
b101100 D
b101100 R
b101100 \
b101100 m
b100000000011100010011 -
b1010 7
b1010 Y
b1010 k
b1010 6
b1010 X
b1010 ^
b0 5
b0 W
b0 ]
b10011 4
b1010 3
b100 I
b101 H
b0 a
b0 _
b11000 G
b0 F
b0 S
b1 E
b10110 $
1"
#13200
0"
#13500
b10 :
b10 b
b10100000000000011000010011 '
b10100000000000011000010011 n
0%
b101000 !
b101000 *
b11100 j
b0 I
b1011 H
b11000 a
0`
b1010 G
b0 E
b1110 7
b1110 Y
b1110 k
b1 6
b1 X
b1 ^
b1 3
b111000 ,
b111000 0
b111000 D
b111000 R
b111000 \
b111000 m
b1110000000000000001101111 -
b10 +
b10111 $
1"
#13800
0"
#14100
b110000000010010000100011 '
b110000000010010000100011 n
b101100 !
b101100 *
b1000 j
b11101 :
b11101 b
b111100 ,
b111100 0
b111100 D
b111100 R
b111100 \
b111100 m
b10100000000000011000010011 -
b0 7
b0 Y
b0 k
b11100 6
b11100 X
b11100 ^
b1101111 4
b11100 3
b10 H
b1010 a
b1 G
b1 +
b11000 $
1"
#14400
0"
#14700
b111 :
b111 b
b100000000010011010000011 '
b100000000010011010000011 n
b110000 !
b110000 *
b1100 j
b11101 H
b1110 a
b11100 G
b1100 7
b1100 Y
b1100 k
b1000 6
b1000 X
b1000 ^
b10011 4
b101000 3
b1 2
b1000000 ,
b1000000 0
b1000000 D
b1000000 R
b1000000 \
b1000000 m
b110000000010010000100011 -
b101000 @
b101000 h
b101000 C
b101000 g
b0 B
b0 f
0)
b0 +
b11001 $
1"
#15000
0"
#15300
b1000 @
b1000 h
b1101000000001100111 '
b1101000000001100111 n
b110100 !
b110100 *
b1000 j
b1101 :
b1101 b
b1000 C
b1000 g
b10 =
b10 K
b10 [
b101000 ?
b101000 L
18
b101000 9
b101000 Q
b1000100 ,
b1000100 0
b1000100 D
b1000100 R
b1000100 \
b1000100 m
b100000000010011010000011 -
b1000 7
b1000 Y
b1000 k
b1100 6
b1100 X
b1100 ^
b100011 4
b1000 3
b0 2
b10 1
b1 I
b111 H
b0 a
b101000 G
b101000 E
b11010 $
1"
#15600
0"
#15900
1(
b1 l
1/
b101000 J
b101000 V
b111 :
b111 b
b10000000000101000001010010011 '
b10000000000101000001010010011 n
08
b0 9
b0 Q
1O
b101000 N
b101000 U
b1000 M
b1000 T
b111000 !
b111000 *
b0 j
b1101 i
b11 I
b101000 H
b1100 a
1`
b101000 _
b1000 G
b10 F
b10 S
b1000 E
b1101 7
b1101 Y
b1101 k
b1000 6
b1000 X
b1000 ^
b11 4
b1001000 ,
b1001000 0
b1001000 D
b1001000 R
b1001000 \
b1001000 m
b1101000000001100111 -
b11011 $
1"
#16200
0"
#16500
0/
b0 @
b0 h
b0 :
b0 b
0(
b0 C
b0 g
b110 A
b110 e
b0 =
b0 K
b0 [
b0 N
b0 U
0O
18
b101000 9
b101000 Q
b0 7
b0 Y
b0 k
b0 6
b0 X
b0 ^
b110011 4
b0 l
b10 I
b1000 a
0`
b0 _
b11100 $
1"
#16800
0"
#17100
b101000 @
b101000 h
b101000 B
b101000 f
b1 >
b1 Z
b1110 ;
b1110 c
bx '
bx n
b0 ?
b0 L
b0 9
b0 Q
b0 A
b0 e
b111100 !
b111100 *
b101 i
b1 I
b0 H
b1101 a
1`
b101000 _
b0 E
b1101 5
b1101 W
b1101 ]
b1100111 4
b0 3
b0 1
b1001100 ,
b1001100 0
b1001100 D
b1001100 R
b1001100 \
b1001100 m
b10000000000101000001010010011 -
b11101 $
1"
#17400
b101000 ;
b101000 c
0"
#17700
b0 B
b0 f
b0 @
b0 h
1)
b11 +
b1000000 !
b1000000 *
bx j
bx i
b101 ;
b101 c
b0 C
b0 g
b0 >
b0 Z
b1001000 ?
b1001000 L
b1001000 9
b1001000 Q
b101000 &
b101000 .
b101000 <
b101000 P
1%
b1010000 ,
b1010000 0
b1010000 D
b1010000 R
b1010000 \
b1010000 m
bx -
b101 7
b101 Y
b101 k
b101 5
b101 W
b101 ]
b10011 4
b100000000 3
b1000 2
b101 I
b0 a
b0 _
b0 G
b0 F
b0 S
b101000 E
b11110 $
1"
#18000
0"
#18300
bx :
bx b
bx ;
bx c
b100000000011100010011 '
b100000000011100010011 n
0%
08
b0 9
b0 Q
b11000 !
b11000 *
b0 I
b1001000 _
b100000000 G
b0 E
bx 7
bx Y
bx k
bx 6
bx X
bx ^
bx 5
bx W
bx ]
bx 4
bz 3
bx 2
bx 1
b101000 ,
b101000 0
b101000 D
b101000 R
b101000 \
b101000 m
b10 +
b11111 $
1"
#18600
0"
#18900
b1110000000000000001101111 '
b1110000000000000001101111 n
b11100 !
b11100 *
b1 j
b0 i
b101100 ,
b101100 0
b101100 D
b101100 R
b101100 \
b101100 m
b100000000011100010011 -
bx H
b101 a
0`
b0 _
bz G
bx F
bx S
b1 +
b100000 $
1"
#19200
0"
#19500
b1 @
b1 h
b10 :
b10 b
b0 ;
b0 c
b1110000000000010110010011 '
b1110000000000010110010011 n
b1 C
b1 g
b0 B
b0 f
b100000 !
b100000 *
b11100 j
bx a
b1110 7
b1110 Y
b1110 k
b1 6
b1 X
b1 ^
b0 5
b0 W
b0 ]
b10011 4
b1 3
b0 2
b0 1
b110000 ,
b110000 0
b110000 D
b110000 R
b110000 \
b110000 m
b1110000000000000001101111 -
0)
b0 +
b100001 $
1"
#19800
0"
#20100
b1001000 @
b1001000 h
b1011000000001100111 '
b1011000000001100111 n
b100100 !
b100100 *
b11101 :
b11101 b
b11100 C
b11100 g
b101100 B
b101100 f
b1 ?
b1 L
18
b1 9
b1 Q
b110100 ,
b110100 0
b110100 D
b110100 R
b110100 \
b110100 m
b1110000000000010110010011 -
b0 7
b0 Y
b0 k
b11100 6
b11100 X
b11100 ^
b1101111 4
b11100 3
b1 I
b10 H
b1 G
b0 F
b0 S
b1 E
b100010 $
1"
#20400
0"
#20700
b0 C
b0 g
1)
b11 +
b0 @
b0 h
b10100000000000011000010011 '
b10100000000000011000010011 n
b110000 ?
b110000 L
b110000 9
b110000 Q
b1001000 &
b1001000 .
b1001000 <
b1001000 P
1%
b0 B
b0 f
b101000 !
b101000 *
b0 j
b1011 i
b101 I
b11101 H
b1110 a
1`
b1 _
b11100 G
b1001000 E
b1011 7
b1011 Y
b1011 k
b10011 4
b111000 ,
b111000 0
b111000 D
b111000 R
b111000 \
b111000 m
b1011000000001100111 -
b100011 $
1"
#21000
0"
#21300
b10000000000101000001010010011 '
b10000000000101000001010010011 n
b111000 !
b111000 *
b1000 j
b0 i
b0 :
b0 b
b11100 ;
b11100 c
0%
08
b0 9
b0 Q
b1001000 ,
b1001000 0
b1001000 D
b1001000 R
b1001000 \
b1001000 m
b10100000000000011000010011 -
b0 7
b0 Y
b0 k
b0 6
b0 X
b0 ^
b1011 5
b1011 W
b1011 ]
b1100111 4
b0 3
b0 I
b0 a
b110000 _
b0 E
b10 +
b100100 $
1"
#21600
0"
#21900
b111 :
b111 b
b0 ;
b0 c
bx '
bx n
b111100 !
b111100 *
b0 j
b101 i
b0 H
b1011 a
0`
b0 _
b0 G
b1100 7
b1100 Y
b1100 k
b1000 6
b1000 X
b1000 ^
b0 5
b0 W
b0 ]
b10011 4
b101000 3
b1 2
b1001100 ,
b1001100 0
b1001100 D
b1001100 R
b1001100 \
b1001100 m
b10000000000101000001010010011 -
b1 +
b100101 $
1"
#22200
0"
#22500
b101 B
b101 f
b1000000 !
b1000000 *
bx j
bx i
b0 :
b0 b
b101 ;
b101 c
b1010000 ,
b1010000 0
b1010000 D
b1010000 R
b1010000 \
b1010000 m
bx -
b101 7
b101 Y
b101 k
b0 6
b0 X
b0 ^
b101 5
b101 W
b101 ]
b100000000 3
b1000 2
b111 H
b0 a
b101000 G
b100000101 @
b100000101 h
b100000000 C
b100000000 g
0)
b0 +
b100110 $
1"
#22800
0"
#23100
bx :
bx b
bx ;
bx c
b100000101 ?
b100000101 L
18
b100000101 9
b100000101 Q
b1000100 !
b1000100 *
b1 I
b0 H
b1100 a
b100000000 G
b100000101 E
bx 7
bx Y
bx k
bx 6
bx X
bx ^
bx 5
bx W
bx ]
bx 4
bz 3
bx 2
bx 1
b1010100 ,
b1010100 0
b1010100 D
b1010100 R
b1010100 \
b1010100 m
b100111 $
1"
#23400
0"
#23700
b1001000 !
b1001000 *
08
b0 9
b0 Q
b1011000 ,
b1011000 0
b1011000 D
b1011000 R
b1011000 \
b1011000 m
b0 I
bx H
b101 a
1`
b100000101 _
bz G
bx F
bx S
b101000 $
1"
#24000
0"
#24300
b1001100 !
b1001100 *
bx a
0`
b0 _
b1011100 ,
b1011100 0
b1011100 D
b1011100 R
b1011100 \
b1011100 m
b101001 $
1"
#24600
0"
#24900
b1010000 !
b1010000 *
b1100000 ,
b1100000 0
b1100000 D
b1100000 R
b1100000 \
b1100000 m
b101010 $
1"
#25200
0"
#25500
b1010100 !
b1010100 *
b1100100 ,
b1100100 0
b1100100 D
b1100100 R
b1100100 \
b1100100 m
b101011 $
1"
#25800
0"
#26100
b1011000 !
b1011000 *
b1101000 ,
b1101000 0
b1101000 D
b1101000 R
b1101000 \
b1101000 m
b101100 $
1"
#26400
0"
#26700
b1011100 !
b1011100 *
b1101100 ,
b1101100 0
b1101100 D
b1101100 R
b1101100 \
b1101100 m
b101101 $
1"
#27000
0"
#27300
b1100000 !
b1100000 *
b1110000 ,
b1110000 0
b1110000 D
b1110000 R
b1110000 \
b1110000 m
b101110 $
1"
#27600
0"
#27900
b1100100 !
b1100100 *
b1110100 ,
b1110100 0
b1110100 D
b1110100 R
b1110100 \
b1110100 m
b101111 $
1"
#28200
0"
#28500
b1101000 !
b1101000 *
b1111000 ,
b1111000 0
b1111000 D
b1111000 R
b1111000 \
b1111000 m
b110000 $
1"
#28800
0"
#29100
b1101100 !
b1101100 *
b1111100 ,
b1111100 0
b1111100 D
b1111100 R
b1111100 \
b1111100 m
b110001 $
1"
#29400
0"
#29700
b1110000 !
b1110000 *
b10000000 ,
b10000000 0
b10000000 D
b10000000 R
b10000000 \
b10000000 m
b110010 $
1"
#30000
0"
#30300
b1110100 !
b1110100 *
b10000100 ,
b10000100 0
b10000100 D
b10000100 R
b10000100 \
b10000100 m
b110011 $
1"
#30600
0"
#30900
b1111000 !
b1111000 *
b10001000 ,
b10001000 0
b10001000 D
b10001000 R
b10001000 \
b10001000 m
b110100 $
1"
#31200
0"
#31500
b1111100 !
b1111100 *
b10001100 ,
b10001100 0
b10001100 D
b10001100 R
b10001100 \
b10001100 m
b110101 $
1"
#31800
0"
#32100
b10000000 !
b10000000 *
b10010000 ,
b10010000 0
b10010000 D
b10010000 R
b10010000 \
b10010000 m
b110110 $
1"
#32400
0"
#32700
b10000100 !
b10000100 *
b10010100 ,
b10010100 0
b10010100 D
b10010100 R
b10010100 \
b10010100 m
b110111 $
1"
#33000
0"
#33300
b10001000 !
b10001000 *
b10011000 ,
b10011000 0
b10011000 D
b10011000 R
b10011000 \
b10011000 m
b111000 $
1"
#33600
0"
#33900
b10001100 !
b10001100 *
b10011100 ,
b10011100 0
b10011100 D
b10011100 R
b10011100 \
b10011100 m
b111001 $
1"
#34200
0"
#34500
b10010000 !
b10010000 *
b10100000 ,
b10100000 0
b10100000 D
b10100000 R
b10100000 \
b10100000 m
b111010 $
1"
#34800
0"
#35100
b10010100 !
b10010100 *
b10100100 ,
b10100100 0
b10100100 D
b10100100 R
b10100100 \
b10100100 m
b111011 $
1"
#35400
0"
#35700
b10011000 !
b10011000 *
b10101000 ,
b10101000 0
b10101000 D
b10101000 R
b10101000 \
b10101000 m
b111100 $
1"
#36000
0"
#36300
b10011100 !
b10011100 *
b10101100 ,
b10101100 0
b10101100 D
b10101100 R
b10101100 \
b10101100 m
b111101 $
1"
#36600
0"
#36900
b10100000 !
b10100000 *
b10110000 ,
b10110000 0
b10110000 D
b10110000 R
b10110000 \
b10110000 m
b111110 $
1"
#37200
0"
#37500
b10100100 !
b10100100 *
b10110100 ,
b10110100 0
b10110100 D
b10110100 R
b10110100 \
b10110100 m
b111111 $
1"
#37800
0"
#38100
b10101000 !
b10101000 *
b10111000 ,
b10111000 0
b10111000 D
b10111000 R
b10111000 \
b10111000 m
b1000000 $
1"
#38400
0"
#38700
b10101100 !
b10101100 *
b10111100 ,
b10111100 0
b10111100 D
b10111100 R
b10111100 \
b10111100 m
b1000001 $
1"
#39000
0"
#39300
b10110000 !
b10110000 *
b11000000 ,
b11000000 0
b11000000 D
b11000000 R
b11000000 \
b11000000 m
b1000010 $
1"
#39600
0"
#39900
b10110100 !
b10110100 *
b11000100 ,
b11000100 0
b11000100 D
b11000100 R
b11000100 \
b11000100 m
b1000011 $
1"
#40200
0"
#40500
b10111000 !
b10111000 *
b11001000 ,
b11001000 0
b11001000 D
b11001000 R
b11001000 \
b11001000 m
b1000100 $
1"
#40800
0"
#41100
b10111100 !
b10111100 *
b11001100 ,
b11001100 0
b11001100 D
b11001100 R
b11001100 \
b11001100 m
b1000101 $
1"
#41400
0"
#41700
b11000000 !
b11000000 *
b11010000 ,
b11010000 0
b11010000 D
b11010000 R
b11010000 \
b11010000 m
b1000110 $
1"
#42000
0"
#42300
b11000100 !
b11000100 *
b11010100 ,
b11010100 0
b11010100 D
b11010100 R
b11010100 \
b11010100 m
b1000111 $
1"
#42600
0"
#42900
b11001000 !
b11001000 *
b11011000 ,
b11011000 0
b11011000 D
b11011000 R
b11011000 \
b11011000 m
b1001000 $
1"
#43200
0"
#43500
b11001100 !
b11001100 *
b11011100 ,
b11011100 0
b11011100 D
b11011100 R
b11011100 \
b11011100 m
b1001001 $
1"
#43800
0"
#44100
b11010000 !
b11010000 *
b11100000 ,
b11100000 0
b11100000 D
b11100000 R
b11100000 \
b11100000 m
b1001010 $
1"
#44400
0"
#44700
b11010100 !
b11010100 *
b11100100 ,
b11100100 0
b11100100 D
b11100100 R
b11100100 \
b11100100 m
b1001011 $
1"
#45000
0"
