pipelinecpu/build/test.vcd
$date
	Sat May  4 18:13:02 2024
$end
$version
	Icarus Verilog
$end
$timescale
	1ns
$end
$scope module CPU_tb $end
$var wire 32 ! pc [31:0] $end
$var reg 1 " clk $end
$var reg 1 # reset $end
$var integer 32 $ counter [31:0] $end
$scope module cpu $end
$var wire 1 " clk $end
$var wire 1 # reset $end
$var wire 32 % test [31:0] $end
$var wire 32 & test1 [31:0] $end
$var wire 1 ' pcWriteEnable $end
$var wire 32 ( pcWriteData [31:0] $end
$var wire 32 ) instr [31:0] $end
$var wire 1 * hazard $end
$var reg 32 + PC [31:0] $end
$scope module ID $end
$var wire 32 , PC [31:0] $end
$var wire 1 " clk $end
$var wire 1 - forward1 $end
$var wire 32 . instr [31:0] $end
$var wire 1 # reset $end
$var wire 32 / testa1 [31:0] $end
$var wire 32 0 testa2 [31:0] $end
$var wire 32 1 testb1 [31:0] $end
$var wire 32 2 testb2 [31:0] $end
$var wire 5 3 testr1 [4:0] $end
$var wire 5 4 testr2 [4:0] $end
$var wire 5 5 testr3 [4:0] $end
$var wire 1 6 regWriteEnable $end
$var wire 32 7 regWriteData [31:0] $end
$var wire 32 8 regReadData1 [31:0] $end
$var wire 32 9 regReadData0 [31:0] $end
$var wire 5 : regNum1 [4:0] $end
$var wire 5 ; regNum0 [4:0] $end
$var wire 1 ' pcWriteEnable $end
$var wire 32 < pcWriteData [31:0] $end
$var wire 1 * hazard $end
$var wire 1 = forwardB2 $end
$var wire 1 > forwardB1 $end
$var wire 2 ? forwardB [1:0] $end
$var wire 1 @ forwardA2 $end
$var wire 1 A forwardA1 $end
$var wire 2 B forwardA [1:0] $end
$var wire 32 C aluO1 [31:0] $end
$scope module EX $end
$var wire 32 D PC [31:0] $end
$var wire 1 " clk $end
$var wire 1 - forward1 $end
$var wire 3 E func3 [2:0] $end
$var wire 7 F func7 [6:0] $end
$var wire 32 G imm [31:0] $end
$var wire 7 H opcode [6:0] $end
$var wire 32 I regReadData0 [31:0] $end
$var wire 32 J regReadData1 [31:0] $end
$var wire 1 # reset $end
$var wire 1 6 regWriteEnable $end
$var wire 32 K regWriteData [31:0] $end
$var wire 1 ' pcWriteEnable $end
$var wire 32 L pcWriteData [31:0] $end
$var wire 1 * hazard $end
$var wire 32 M aluO1 [31:0] $end
$var wire 32 N aluO [31:0] $end
$var reg 4 O aluOp [3:0] $end
$var reg 32 P aluX [31:0] $end
$var reg 32 Q aluY [31:0] $end
$scope module alu $end
$var wire 4 R aluOp [3:0] $end
$var wire 32 S aluX [31:0] $end
$var wire 32 T aluY [31:0] $end
$var reg 32 U aluO [31:0] $end
$upscope $end
$scope module control $end
$var wire 32 V PC [31:0] $end
$var wire 32 W aluO [31:0] $end
$var wire 1 " clk $end
$var wire 3 X func3 [2:0] $end
$var wire 32 Y imm [31:0] $end
$var wire 32 Z regReadData1 [31:0] $end
$var wire 1 # reset $end
$var wire 3 [ state [2:0] $end
$var wire 32 \ memReadData [31:0] $end
$var reg 32 ] memAddr [31:0] $end
$var reg 32 ^ memWriteData [31:0] $end
$var reg 1 _ memWriteEnable $end
$var reg 32 ` pcWriteData [31:0] $end
$var reg 1 ' pcWriteEnable $end
$var reg 32 a regWriteData [31:0] $end
$var reg 1 6 regWriteEnable $end
$scope module mem $end
$var wire 32 b PC [31:0] $end
$var wire 1 " clk $end
$var wire 3 c func3 [2:0] $end
$var wire 32 d memAddr [31:0] $end
$var wire 32 e memWriteData [31:0] $end
$var wire 1 _ memWriteEnable $end
$var reg 32 f memReadData [31:0] $end
$upscope $end
$upscope $end
$upscope $end
$scope module Forwarding $end
$var wire 1 " clk $end
$var wire 5 g regReadNum0 [4:0] $end
$var wire 5 h regReadNum1 [4:0] $end
$var wire 5 i regWriteNum [4:0] $end
$var wire 1 = forwardB2 $end
$var wire 1 > forwardB1 $end
$var wire 1 @ forwardA2 $end
$var wire 1 A forwardA1 $end
$upscope $end
$scope module RF $end
$var wire 32 j PC [31:0] $end
$var wire 1 " clk $end
$var wire 5 k regNum0 [4:0] $end
$var wire 5 l regNum1 [4:0] $end
$var wire 32 m regWriteData [31:0] $end
$var wire 1 n regWriteEnable $end
$var wire 5 o regWriteNum [4:0] $end
$var wire 1 # reset $end
$var wire 32 p regReadData1 [31:0] $end
$var wire 32 q regReadData0 [31:0] $end
$var integer 32 r i [31:0] $end
$upscope $end
$scope module hazarding $end
$var wire 1 " clk $end
$var wire 1 - forward1 $end
$var wire 7 s opcode [6:0] $end
$var wire 1 * hazard $end
$var integer 32 t i [31:0] $end
$upscope $end
$upscope $end
$scope module instrMem $end
$var wire 32 u instrAddr [31:0] $end
$var wire 32 v instrData [31:0] $end
$upscope $end
$upscope $end
$upscope $end
$enddefinitions $end
$comment Show the parameter values. $end
$dumpall
$end
#0
$dumpvars
b1010010011 v
b0 u
b0 t
bx s
b100000 r
bx q
bx p
bx o
xn
bx m
bx l
bx k
b0 j
bx i
bx h
bx g
bx f
bx e
bx d
bx c
b0 b
bx a
bx `
x_
bx ^
bx ]
bx \
bx [
bx Z
bx Y
bx X
bx W
b0 V
bx U
bx T
bx S
bx R
bx Q
bx P
bx O
bx N
bx M
bx L
bx K
bx J
bx I
bx H
bx G
bx F
bx E
b0 D
bx C
bx B
xA
x@
bx ?
x>
x=
bx <
bx ;
bx :
bx 9
bx 8
bx 7
x6
bx 5
bx 4
bx 3
bx 2
bx 1
bx 0
bx /
bx .
x-
b0 ,
bx +
0*
b1010010011 )
bx (
0'
b0 &
b100 %
b0 $
x#
0"
bx !
$end
#300
b0 C
b0 M
b0 1
b0 /
b0 9
b0 q
0-
b0 8
b0 p
b1100010011 )
b1100010011 v
b0 ^
b0 e
0_
06
b0 7
b0 K
b0 a
b1000 %
b101 5
0A
b0 B
0@
b0 ;
b0 g
b0 k
0>
b0 ?
0=
b0 :
b0 h
b0 l
b0 [
b100 &
b100 ,
b100 D
b100 V
b100 b
b100 j
b100 u
b1010010011 .
b1 $
1"
#600
0"
#900
b0 N
b0 U
b11111111111111111111001110110111 )
b11111111111111111111001110110111 v
b1100 %
b110 5
b0 Q
b0 T
b0 P
b0 S
b0 O
b0 R
b1000 &
b1000 ,
b1000 D
b1000 V
b1000 b
b1000 j
b1000 u
b1100010011 .
0n
b0 m
b101 4
b101 i
b0 2
b0 J
b0 0
b0 I
b0 G
b0 F
b0 E
b10011 H
b10011 s
b10 $
1"
#1200
0"
#1500
b10011 )
b10011 v
16
b10000 %
b111 5
b11111 ;
b11111 g
b11111 k
b11111 :
b11111 h
b11111 l
b0 W
b0 Z
b0 X
b0 c
b0 Y
b1 [
b101 3
b110 4
b110 i
b1100 &
b1100 ,
b1100 D
b1100 V
b1100 b
b1100 j
b1100 u
b11111111111111111111001110110111 .
b11 $
1"
#1800
0"
#2100
b0 !
b0 +
b10100 %
b0 5
b0 ;
b0 g
b0 k
b0 :
b0 h
b0 l
b10000 &
b10000 ,
b10000 D
b10000 V
b10000 b
b10000 j
b10000 u
b10011 .
1n
b101 o
b110 3
b111 4
b111 i
b11111111111111111111000000000000 G
b1111111 F
b111 E
b110111 H
b110111 s
b100 $
1"
#2400
0"
#2700
1-
b10 B
1A
b10 ?
1>
b11111111111111111111000000000000 7
b11111111111111111111000000000000 K
b11111111111111111111000000000000 a
b100 !
b100 +
b11000 %
b111 X
b111 c
b11111111111111111111000000000000 Y
b110 [
b110 o
b111 3
b0 4
b0 i
b0 G
b0 F
b0 E
b10011 H
b10011 s
b10100 &
b10100 ,
b10100 D
b10100 V
b10100 b
b10100 j
b10100 u
b101 $
1"
#3000
0"
#3300
b10110000000110000101001100011 )
b10110000000110000101001100011 v
b1000 !
b1000 +
b11100 %
b0 7
b0 K
b0 a
b11000 &
b11000 ,
b11000 D
b11000 V
b11000 b
b11000 j
b11000 u
b11111111111111111111000000000000 m
b111 o
b0 3
b11 B
1@
b11 ?
1=
b0 X
b0 c
b0 Y
b1 [
b110 $
1"
#3600
0"
#3900
b10011 )
b10011 v
b1100 !
b1100 +
b100000 %
b10100 5
0A
b0 B
0@
b110 ;
b110 g
b110 k
b0 m
b0 o
b11100 &
b11100 ,
b11100 D
b11100 V
b11100 b
b11100 j
b11100 u
b10110000000110000101001100011 .
b111 $
1"
#4200
0"
#4500
0-
b1 N
b1 U
b10000 !
b10000 +
b100100 %
b0 5
b1 B
1@
b0 ;
b0 g
b0 k
b1 ?
0>
b1101 O
b1101 R
b100000 &
b100000 ,
b100000 D
b100000 V
b100000 b
b100000 j
b100000 u
b10011 .
b10100 4
b10100 i
b101110100 G
b1011 F
b1100011 H
b1100011 s
b1000 $
1"
#4800
0"
#5100
1-
b0 N
b0 U
1A
1>
06
b110001100 (
b110001100 <
b110001100 L
b110001100 `
1'
b0 O
b0 R
b10100 !
b10100 +
b101000 %
b1 W
b101110100 Y
b100 [
b10 B
0@
b10 ?
0=
b10100 3
b0 4
b0 i
b0 G
b0 F
b10011 H
b10011 s
b100100 &
b100100 ,
b100100 D
b100100 V
b100100 b
b100100 j
b100100 u
b1001 $
1"
#5400
0"
#5700
b100101000001010010011 )
b100101000001010010011 v
b11000 !
b11000 +
b110010000 %
0'
b110001100 &
b110001100 ,
b110001100 D
b110001100 V
b110001100 b
b110001100 j
b110001100 u
0n
b10100 o
b0 3
b11 B
1@
b11 ?
1=
b0 W
b0 Y
b0 [
b1010 $
1"
#6000
0"
#6300
0-
b10011 )
b10011 v
16
b11100 !
b11100 +
b110010100 %
b101 5
0A
b0 B
0@
b101 ;
b101 g
b101 k
0>
b0 ?
0=
b1 :
b1 h
b1 l
b1 [
b0 o
b110010000 &
b110010000 ,
b110010000 D
b110010000 V
b110010000 b
b110010000 j
b110010000 u
b100101000001010010011 .
b1011 $
1"
#6600
0"
#6900
b1 N
b1 U
b100000 !
b100000 +
b110011000 %
b0 5
1@
b0 ;
b0 g
b0 k
b1 ?
1=
b0 :
b0 h
b0 l
b1 B
0A
b1 Q
b1 T
b110010100 &
b110010100 ,
b110010100 D
b110010100 V
b110010100 b
b110010100 j
b110010100 u
b10011 .
1n
b101 4
b101 i
b1 G
b1100 $
1"
#7200
0"
#7500
1-
b0 N
b0 U
1A
1>
b1 7
b1 K
b1 a
b0 Q
b0 T
b100100 !
b100100 +
b110011100 %
b1 W
b1 Y
b10 B
0@
b10 ?
0=
b101 3
b0 4
b0 i
b0 G
b110011000 &
b110011000 ,
b110011000 D
b110011000 V
b110011000 b
b110011000 j
b110011000 u
b1101 $
1"
#7800
0"
#8100
b11101001000111111111000001101111 )
b11101001000111111111000001101111 v
b110001100 !
b110001100 +
b110100000 %
b0 7
b0 K
b0 a
b110011100 &
b110011100 ,
b110011100 D
b110011100 V
b110011100 b
b110011100 j
b110011100 u
b1 m
b101 o
b0 3
b11 B
1@
b11 ?
1=
b0 W
b0 Y
b1110 $
1"
#8400
0"
#8700
0-
b10011 )
b10011 v
b110010000 !
b110010000 +
b110100100 %
0A
b0 B
0@
b11111 ;
b11111 g
b11111 k
0>
b0 ?
0=
b10001 :
b10001 h
b10001 l
b0 m
b0 o
b110100000 &
b110100000 ,
b110100000 D
b110100000 V
b110100000 b
b110100000 j
b110100000 u
b11101001000111111111000001101111 .
b1111 $
1"
#9000
0"
#9300
b101100 1
b101100 /
b101100 C
b101100 M
1-
b101100 N
b101100 U
b110010100 !
b110010100 +
b110101000 %
1A
b11 B
1@
b0 ;
b0 g
b0 k
1>
b11 ?
1=
b0 :
b0 h
b0 l
b11111111111111111111111010010000 Q
b11111111111111111111111010010000 T
b110011100 P
b110011100 S
b110100100 &
b110100100 ,
b110100100 D
b110100100 V
b110100100 b
b110100100 j
b110100100 u
b10011 .
b11111111111111111111111010010000 G
b1110100 F
b111 E
b1101111 H
b1101111 s
b10000 $
1"
#9600
0"
#9900
b0 1
b0 /
b0 C
b0 M
b0 N
b0 U
b110100000 7
b110100000 K
b110100000 a
b101100 (
b101100 <
b101100 L
b101100 `
1'
b0 Q
b0 T
b0 P
b0 S
b110011000 !
b110011000 +
b110101100 %
b101100 W
b111 X
b111 c
b11111111111111111111111010010000 Y
b101 [
b101100 2
b101100 J
b101100 0
b101100 I
b0 G
b0 F
b0 E
b10011 H
b10011 s
b110101000 &
b110101000 ,
b110101000 D
b110101000 V
b110101000 b
b110101000 j
b110101000 u
b10001 $
1"
#10200
0"
#10500
b10000000111000001001100011 )
b10000000111000001001100011 v
b110011100 !
b110011100 +
b110000 %
0'
06
b0 7
b0 K
b0 a
b101100 &
b101100 ,
b101100 D
b101100 V
b101100 b
b101100 j
b101100 u
b110100000 m
b0 2
b0 J
b0 0
b0 I
b0 W
b101100 Z
b0 X
b0 c
b0 Y
b0 [
b10010 $
1"
#10800
0"
#11100
b11111111111111111111000000000000 /
b11111111111111111111000000000000 9
b11111111111111111111000000000000 q
b10011 )
b10011 v
16
b110100000 !
b110100000 +
b110100 %
b100 5
0A
b0 B
0@
b111 ;
b111 g
b111 k
b0 Z
b1 [
0n
b0 m
b110000 &
b110000 ,
b110000 D
b110000 V
b110000 b
b110000 j
b110000 u
b10000000111000001001100011 .
b10011 $
1"
#11400
0"
#11700
b0 9
b0 q
0-
b110100100 !
b110100100 +
b111000 %
b0 /
b0 5
b1 B
1@
b0 ;
b0 g
b0 k
b1 ?
0>
b11111111111111111111000000000000 P
b11111111111111111111000000000000 S
b1101 O
b1101 R
b110100 &
b110100 ,
b110100 D
b110100 V
b110100 b
b110100 j
b110100 u
b10011 .
1n
b100 4
b100 i
b11111111111111111111000000000000 0
b11111111111111111111000000000000 I
b100100 G
b1 F
b1100011 H
b1100011 s
b10100 $
1"
#12000
0"
#12300
1-
1A
1>
06
b0 P
b0 S
b0 O
b0 R
b110101000 !
b110101000 +
b111100 %
b100100 Y
b100 [
b10 B
0@
b10 ?
0=
b100 3
b0 4
b0 i
b0 0
b0 I
b0 G
b0 F
b10011 H
b10011 s
b111000 &
b111000 ,
b111000 D
b111000 V
b111000 b
b111000 j
b111000 u
b10101 $
1"
#12600
0"
#12900
b101100 !
b101100 +
b1000000 %
16
b111100 &
b111100 ,
b111100 D
b111100 V
b111100 b
b111100 j
b111100 u
0n
b100 o
b0 3
b11 B
1@
b11 ?
1=
b0 Y
b1 [
b10110 $
1"
#13200
0"
#13500
b100101000001010010011 )
b100101000001010010011 v
b110000 !
b110000 +
b1000100 %
1n
b0 o
b1000000 &
b1000000 ,
b1000000 D
b1000000 V
b1000000 b
b1000000 j
b1000000 u
b10111 $
1"
#13800
0"
#14100
b1 /
b1 9
b1 q
0-
b10011 )
b10011 v
b110100 !
b110100 +
b1001000 %
b101 5
0A
b0 B
0@
b101 ;
b101 g
b101 k
0>
b0 ?
0=
b1 :
b1 h
b1 l
b1000100 &
b1000100 ,
b1000100 D
b1000100 V
b1000100 b
b1000100 j
b1000100 u
b100101000001010010011 .
b11000 $
1"
#14400
0"
#14700
b10 N
b10 U
b0 9
b0 q
b1 Q
b1 T
b1 P
b1 S
b111000 !
b111000 +
b1001100 %
b0 /
b0 5
0A
b1 B
1@
b0 ;
b0 g
b0 k
0>
b1 ?
1=
b0 :
b0 h
b0 l
b101 4
b101 i
b1 0
b1 I
b1 G
b1001000 &
b1001000 ,
b1001000 D
b1001000 V
b1001000 b
b1001000 j
b1001000 u
b10011 .
b11001 $
1"
#15000
0"
#15300
1-
b0 N
b0 U
b111100 !
b111100 +
b1010000 %
1A
1>
b0 Q
b0 T
b0 P
b0 S
b10 7
b10 K
b10 a
b1001100 &
b1001100 ,
b1001100 D
b1001100 V
b1001100 b
b1001100 j
b1001100 u
b101 3
b0 4
b0 i
b0 0
b0 I
b0 G
b10 B
0@
b10 ?
0=
b10 W
b1 Y
b11010 $
1"
#15600
0"
#15900
b10110000000111001101001100011 )
b10110000000111001101001100011 v
b0 7
b0 K
b0 a
b1000000 !
b1000000 +
b1010100 %
b0 W
b0 Y
b11 B
1@
b11 ?
1=
b10 m
b101 o
b0 3
b1010000 &
b1010000 ,
b1010000 D
b1010000 V
b1010000 b
b1010000 j
b1010000 u
b11011 $
1"
#16200
0"
#16500
b11111111111111111111000000000000 /
b11111111111111111111000000000000 9
b11111111111111111111000000000000 q
b10011 )
b10011 v
b1000100 !
b1000100 +
b1011000 %
b10100 5
0A
b0 B
0@
b111 ;
b111 g
b111 k
b1010100 &
b1010100 ,
b1010100 D
b1010100 V
b1010100 b
b1010100 j
b1010100 u
b10110000000111001101001100011 .
b0 m
b0 o
b11100 $
1"
#16800
0"
#17100
b1 N
b1 U
0-
b0 9
b0 q
b1 ?
0>
b11111111111111111111000000000000 P
b11111111111111111111000000000000 S
b1110 O
b1110 R
b1001000 !
b1001000 +
b1011100 %
b0 /
b0 5
0A
b1 B
1@
b0 ;
b0 g
b0 k
b10100 4
b10100 i
b11111111111111111111000000000000 0
b11111111111111111111000000000000 I
b101110100 G
b1011 F
b1 E
b1100011 H
b1100011 s
b1011000 &
b1011000 ,
b1011000 D
b1011000 V
b1011000 b
b1011000 j
b1011000 u
b10011 .
b11101 $
1"
#17400
0"
#17700
1-
b0 N
b0 U
b1001100 !
b1001100 +
b1100000 %
1A
1>
b0 O
b0 R
b0 P
b0 S
06
b111000100 (
b111000100 <
b111000100 L
b111000100 `
1'
b1011100 &
b1011100 ,
b1011100 D
b1011100 V
b1011100 b
b1011100 j
b1011100 u
b10100 3
b0 4
b0 i
b0 0
b0 I
b0 G
b0 F
b0 E
b10011 H
b10011 s
b10 B
0@
b10 ?
0=
b1 W
b1 X
b1 c
b101110100 Y
b100 [
b11110 $
1"
#18000
0"
#18300
b100101000001010010011 )
b100101000001010010011 v
0'
b1010000 !
b1010000 +
b111001000 %
b0 W
b0 X
b0 c
b0 Y
b0 [
b11 B
1@
b11 ?
1=
0n
b10100 o
b0 3
b111000100 &
b111000100 ,
b111000100 D
b111000100 V
b111000100 b
b111000100 j
b111000100 u
b11111 $
1"
#18600
0"
#18900
b10 /
b10 9
b10 q
0-
b10011 )
b10011 v
b1010100 !
b1010100 +
b111001100 %
b101 5
0A
b0 B
0@
b101 ;
b101 g
b101 k
0>
b0 ?
0=
b1 :
b1 h
b1 l
16
b111001000 &
b111001000 ,
b111001000 D
b111001000 V
b111001000 b
b111001000 j
b111001000 u
b100101000001010010011 .
b0 o
b1 [
b100000 $
1"
#19200
0"
#19500
b11 N
b11 U
b0 9
b0 q
b1 Q
b1 T
b10 P
b10 S
b1011000 !
b1011000 +
b111010000 %
b0 /
b0 5
0A
b1 B
1@
b0 ;
b0 g
b0 k
0>
b1 ?
1=
b0 :
b0 h
b0 l
1n
b101 4
b101 i
b10 0
b10 I
b1 G
b111001100 &
b111001100 ,
b111001100 D
b111001100 V
b111001100 b
b111001100 j
b111001100 u
b10011 .
b100001 $
1"
#19800
0"
#20100
1-
b0 N
b0 U
b1011100 !
b1011100 +
b111010100 %
1A
1>
b0 Q
b0 T
b0 P
b0 S
b11 7
b11 K
b11 a
b111010000 &
b111010000 ,
b111010000 D
b111010000 V
b111010000 b
b111010000 j
b111010000 u
b101 3
b0 4
b0 i
b0 0
b0 I
b0 G
b10 B
0@
b10 ?
0=
b11 W
b1 Y
b100010 $
1"
#20400
0"
#20700
b11101001000111111111000001101111 )
b11101001000111111111000001101111 v
b0 7
b0 K
b0 a
b111000100 !
b111000100 +
b111011000 %
b0 W
b0 Y
b11 B
1@
b11 ?
1=
b11 m
b101 o
b0 3
b111010100 &
b111010100 ,
b111010100 D
b111010100 V
b111010100 b
b111010100 j
b111010100 u
b100011 $
1"
#21000
0"
#21300
0-
b10011 )
b10011 v
b111001000 !
b111001000 +
b111011100 %
0A
b0 B
0@
b11111 ;
b11111 g
b11111 k
0>
b0 ?
0=
b10001 :
b10001 h
b10001 l
b111011000 &
b111011000 ,
b111011000 D
b111011000 V
b111011000 b
b111011000 j
b111011000 u
b11101001000111111111000001101111 .
b0 m
b0 o
b100100 $
1"
#21600
0"
#21900
b1100100 1
b1100100 /
b1100100 C
b1100100 M
b1100100 N
b1100100 U
1-
b11111111111111111111111010010000 Q
b11111111111111111111111010010000 T
b111010100 P
b111010100 S
b111001100 !
b111001100 +
b111100000 %
1A
b11 B
1@
b0 ;
b0 g
b0 k
1>
b11 ?
1=
b0 :
b0 h
b0 l
b11111111111111111111111010010000 G
b1110100 F
b111 E
b1101111 H
b1101111 s
b111011100 &
b111011100 ,
b111011100 D
b111011100 V
b111011100 b
b111011100 j
b111011100 u
b10011 .
b100101 $
1"
#22200
0"
#22500
b0 1
b0 /
b0 C
b0 M
b0 N
b0 U
b111010000 !
b111010000 +
b111100100 %
b0 Q
b0 T
b0 P
b0 S
b111011000 7
b111011000 K
b111011000 a
b1100100 (
b1100100 <
b1100100 L
b1100100 `
1'
b111100000 &
b111100000 ,
b111100000 D
b111100000 V
b111100000 b
b111100000 j
b111100000 u
b1100100 2
b1100100 J
b1100100 0
b1100100 I
b0 G
b0 F
b0 E
b10011 H
b10011 s
b1100100 W
b111 X
b111 c
b11111111111111111111111010010000 Y
b101 [
b100110 $
1"
#22800
0"
#23100
b11000000000110001001001100011 )
b11000000000110001001001100011 v
0'
06
b0 7
b0 K
b0 a
b111010100 !
b111010100 +
b1101000 %
b0 W
b1100100 Z
b0 X
b0 c
b0 Y
b0 [
b111011000 m
b0 2
b0 J
b0 0
b0 I
b1100100 &
b1100100 ,
b1100100 D
b1100100 V
b1100100 b
b1100100 j
b1100100 u
b100111 $
1"
#23400
0"
#23700
b10011 )
b10011 v
b111011000 !
b111011000 +
b1101100 %
b100 5
0A
b0 B
0@
b110 ;
b110 g
b110 k
16
b1101000 &
b1101000 ,
b1101000 D
b1101000 V
b1101000 b
b1101000 j
b1101000 u
b11000000000110001001001100011 .
0n
b0 m
b0 Z
b1 [
b101000 $
1"
#24000
0"
#24300
0-
b1 ?
0>
b1110 O
b1110 R
b111011100 !
b111011100 +
b1110000 %
b0 5
0A
b1 B
1@
b0 ;
b0 g
b0 k
1n
b100 4
b100 i
b110000100 G
b1100 F
b1 E
b1100011 H
b1100011 s
b1101100 &
b1101100 ,
b1101100 D
b1101100 V
b1101100 b
b1101100 j
b1101100 u
b10011 .
b101001 $
1"
#24600
0"
#24900
1-
b111100000 !
b111100000 +
b1110100 %
1A
1>
b0 O
b0 R
06
b1110000 &
b1110000 ,
b1110000 D
b1110000 V
b1110000 b
b1110000 j
b1110000 u
b100 3
b0 4
b0 i
b0 G
b0 F
b0 E
b10011 H
b10011 s
b10 B
0@
b10 ?
0=
b1 X
b1 c
b110000100 Y
b100 [
b101010 $
1"
#25200
0"
#25500
16
b1100100 !
b1100100 +
b1111000 %
b0 X
b0 c
b0 Y
b1 [
b11 B
1@
b11 ?
1=
0n
b100 o
b0 3
b1110100 &
b1110100 ,
b1110100 D
b1110100 V
b1110100 b
b1110100 j
b1110100 u
b101011 $
1"
#25800
0"
#26100
b100101000001010010011 )
b100101000001010010011 v
b1101000 !
b1101000 +
b1111100 %
b1111000 &
b1111000 ,
b1111000 D
b1111000 V
b1111000 b
b1111000 j
b1111000 u
1n
b0 o
b101100 $
1"
#26400
0"
#26700
b11 /
b11 9
b11 q
0-
b10011 )
b10011 v
b1101100 !
b1101100 +
b10000000 %
b101 5
0A
b0 B
0@
b101 ;
b101 g
b101 k
0>
b0 ?
0=
b1 :
b1 h
b1 l
b1111100 &
b1111100 ,
b1111100 D
b1111100 V
b1111100 b
b1111100 j
b1111100 u
b100101000001010010011 .
b101101 $
1"
#27000
0"
#27300
b0 9
b0 q
b100 N
b100 U
b1110000 !
b1110000 +
b10000100 %
b0 /
b0 5
1@
b0 ;
b0 g
b0 k
b1 ?
1=
b0 :
b0 h
b0 l
b1 B
0A
b1 Q
b1 T
b11 P
b11 S
b10000000 &
b10000000 ,
b10000000 D
b10000000 V
b10000000 b
b10000000 j
b10000000 u
b10011 .
b101 4
b101 i
b11 0
b11 I
b1 G
b101110 $
1"
#27600
0"
#27900
1-
b0 N
b0 U
1A
1>
b100 7
b100 K
b100 a
b0 Q
b0 T
b0 P
b0 S
b1110100 !
b1110100 +
b10001000 %
b100 W
b1 Y
b10 B
0@
b10 ?
0=
b101 3
b0 4
b0 i
b0 0
b0 I
b0 G
b10000100 &
b10000100 ,
b10000100 D
b10000100 V
b10000100 b
b10000100 j
b10000100 u
b101111 $
1"
#28200
0"
#28500
b10110011000111100101001100011 )
b10110011000111100101001100011 v
b1111000 !
b1111000 +
b10001100 %
b0 7
b0 K
b0 a
b10001000 &
b10001000 ,
b10001000 D
b10001000 V
b10001000 b
b10001000 j
b10001000 u
b100 m
b101 o
b0 3
b11 B
1@
b11 ?
1=
b0 W
b0 Y
b110000 $
1"
#28800
0"
#29100
b11111111111111111111000000000000 /
b11111111111111111111000000000000 9
b11111111111111111111000000000000 q
0-
b10011 )
b10011 v
b1111100 !
b1111100 +
b10010000 %
b10100 5
0A
b0 B
0@
b111 ;
b111 g
b111 k
0>
b0 ?
0=
b110 :
b110 h
b110 l
b0 m
b0 o
b10001100 &
b10001100 ,
b10001100 D
b10001100 V
b10001100 b
b10001100 j
b10001100 u
b10110011000111100101001100011 .
b110001 $
1"
#29400
0"
#29700
b0 9
b0 q
b1 N
b1 U
b10000000 !
b10000000 +
b10010100 %
b0 /
b0 5
b1 B
1@
b0 ;
b0 g
b0 k
b1 ?
1=
b0 :
b0 h
b0 l
b11111111111111111111000000000000 P
b11111111111111111111000000000000 S
b110 O
b110 R
b10010000 &
b10010000 ,
b10010000 D
b10010000 V
b10010000 b
b10010000 j
b10010000 u
b10011 .
b10100 4
b10100 i
b11111111111111111111000000000000 0
b11111111111111111111000000000000 I
b101110100 G
b1011 F
b100 E
b1100011 H
b1100011 s
b110010 $
1"
#30000
0"
#30300
1-
b0 N
b0 U
1A
1>
06
b111111100 (
b111111100 <
b111111100 L
b111111100 `
1'
b0 P
b0 S
b0 O
b0 R
b10000100 !
b10000100 +
b10011000 %
b1 W
b100 X
b100 c
b101110100 Y
b100 [
b10 B
0@
b10 ?
0=
b10100 3
b0 4
b0 i
b0 0
b0 I
b0 G
b0 F
b0 E
b10011 H
b10011 s
b10010100 &
b10010100 ,
b10010100 D
b10010100 V
b10010100 b
b10010100 j
b10010100 u
b110011 $
1"
#30600
0"
#30900
b100101000001010010011 )
b100101000001010010011 v
b10001000 !
b10001000 +
b1000000000 %
0'
b111111100 &
b111111100 ,
b111111100 D
b111111100 V
b111111100 b
b111111100 j
b111111100 u
0n
b10100 o
b0 3
b11 B
1@
b11 ?
1=
b0 W
b0 X
b0 c
b0 Y
b0 [
b110100 $
1"
#31200
0"
#31500
b100 /
b100 9
b100 q
0-
b10011 )
b10011 v
16
b10001100 !
b10001100 +
b1000000100 %
b101 5
0A
b0 B
0@
b101 ;
b101 g
b101 k
0>
b0 ?
0=
b1 :
b1 h
b1 l
b1 [
b0 o
b1000000000 &
b1000000000 ,
b1000000000 D
b1000000000 V
b1000000000 b
b1000000000 j
b1000000000 u
b100101000001010010011 .
b110101 $
1"
#31800
0"
#32100
b0 9
b0 q
b101 N
b101 U
b10010000 !
b10010000 +
b1000001000 %
b0 /
b0 5
1@
b0 ;
b0 g
b0 k
b1 ?
1=
b0 :
b0 h
b0 l
b1 B
0A
b1 Q
b1 T
b100 P
b100 S
b1000000100 &
b1000000100 ,
b1000000100 D
b1000000100 V
b1000000100 b
b1000000100 j
b1000000100 u
b10011 .
1n
b101 4
b101 i
b100 0
b100 I
b1 G
b110110 $
1"
#32400
0"
#32700
1-
b0 N
b0 U
1A
1>
b101 7
b101 K
b101 a
b0 Q
b0 T
b0 P
b0 S
b10010100 !
b10010100 +
b1000001100 %
b101 W
b1 Y
b10 B
0@
b10 ?
0=
b101 3
b0 4
b0 i
b0 0
b0 I
b0 G
b1000001000 &
b1000001000 ,
b1000001000 D
b1000001000 V
b1000001000 b
b1000001000 j
b1000001000 u
b110111 $
1"
#33000
0"
#33300
b11101001000111111111000001101111 )
b11101001000111111111000001101111 v
b111111100 !
b111111100 +
b1000010000 %
b0 7
b0 K
b0 a
b1000001100 &
b1000001100 ,
b1000001100 D
b1000001100 V
b1000001100 b
b1000001100 j
b1000001100 u
b101 m
b101 o
b0 3
b11 B
1@
b11 ?
1=
b0 W
b0 Y
b111000 $
1"
#33600
0"
#33900
0-
b10011 )
b10011 v
b1000000000 !
b1000000000 +
b1000010100 %
0A
b0 B
0@
b11111 ;
b11111 g
b11111 k
0>
b0 ?
0=
b10001 :
b10001 h
b10001 l
b0 m
b0 o
b1000010000 &
b1000010000 ,
b1000010000 D
b1000010000 V
b1000010000 b
b1000010000 j
b1000010000 u
b11101001000111111111000001101111 .
b111001 $
1"
#34200
0"
#34500
b10011100 1
b10011100 /
b10011100 C
b10011100 M
1-
b10011100 N
b10011100 U
b1000000100 !
b1000000100 +
b1000011000 %
1A
b11 B
1@
b0 ;
b0 g
b0 k
1>
b11 ?
1=
b0 :
b0 h
b0 l
b11111111111111111111111010010000 Q
b11111111111111111111111010010000 T
b1000001100 P
b1000001100 S
b1000010100 &
b1000010100 ,
b1000010100 D
b1000010100 V
b1000010100 b
b1000010100 j
b1000010100 u
b10011 .
b11111111111111111111111010010000 G
b1110100 F
b111 E
b1101111 H
b1101111 s
b111010 $
1"
#34800
0"
#35100
b0 1
b0 /
b0 C
b0 M
b0 N
b0 U
b1000010000 7
b1000010000 K
b1000010000 a
b10011100 (
b10011100 <
b10011100 L
b10011100 `
1'
b0 Q
b0 T
b0 P
b0 S
b1000001000 !
b1000001000 +
b1000011100 %
b10011100 W
b111 X
b111 c
b11111111111111111111111010010000 Y
b101 [
b10011100 2
b10011100 J
b10011100 0
b10011100 I
b0 G
b0 F
b0 E
b10011 H
b10011 s
b1000011000 &
b1000011000 ,
b1000011000 D
b1000011000 V
b1000011000 b
b1000011000 j
b1000011000 u
b111011 $
1"
#35400
0"
