pipelinecpu/build/test.vcd
$date
	Sun May  5 19:08:05 2024
$end
$version
	Icarus Verilog
$end
$timescale
	1ns
$end
$scope module CPU_tb $end
$var wire 32 ! pc [31:0] $end
$var reg 1 " clk $end
$var reg 1 # reset $end
$var integer 32 $ counter [31:0] $end
$scope module cpu $end
$var wire 1 " clk $end
$var wire 1 # reset $end
$var wire 32 % test [31:0] $end
$var wire 32 & test1 [31:0] $end
$var wire 1 ' pcWriteEnable $end
$var wire 32 ( pcWriteData [31:0] $end
$var wire 32 ) instr [31:0] $end
$var wire 1 * hazard $end
$var wire 1 + flush $end
$var reg 32 , PC [31:0] $end
$scope module ID $end
$var wire 32 - PC [31:0] $end
$var wire 1 " clk $end
$var wire 32 . instr [31:0] $end
$var wire 1 # reset $end
$var wire 5 / testr1 [4:0] $end
$var wire 1 ' pcWriteEnable $end
$var wire 32 0 pcWriteData [31:0] $end
$var wire 1 * hazard $end
$var wire 1 + flush $end
$scope module EX $end
$var wire 32 1 PC [31:0] $end
$var wire 1 " clk $end
$var wire 3 2 func3 [2:0] $end
$var wire 7 3 func7 [6:0] $end
$var wire 32 4 imm [31:0] $end
$var wire 7 5 opcode [6:0] $end
$var wire 5 6 regNum0 [4:0] $end
$var wire 5 7 regNum1 [4:0] $end
$var wire 5 8 regWriteNum [4:0] $end
$var wire 1 # reset $end
$var wire 1 9 regWriteEnable $end
$var wire 32 : regWriteData [31:0] $end
$var wire 32 ; regReadData1 [31:0] $end
$var wire 32 < regReadData0 [31:0] $end
$var wire 1 ' pcWriteEnable $end
$var wire 32 = pcWriteData [31:0] $end
$var wire 2 > forwardB [1:0] $end
$var wire 2 ? forwardA [1:0] $end
$var wire 1 + flush $end
$var wire 32 @ data [31:0] $end
$var wire 32 A aluO [31:0] $end
$var reg 4 B aluOp [3:0] $end
$var reg 32 C aluX [31:0] $end
$var reg 32 D aluY [31:0] $end
$var reg 1 * hazard $end
$var reg 1 E waithazard $end
$scope module Forwarding $end
$var wire 1 " clk $end
$var wire 5 F regReadNum0 [4:0] $end
$var wire 5 G regReadNum1 [4:0] $end
$var wire 5 H regWriteNum [4:0] $end
$var wire 1 + flush $end
$var reg 2 I forwardA [1:0] $end
$var reg 2 J forwardB [1:0] $end
$upscope $end
$scope module RF $end
$var wire 32 K PC [31:0] $end
$var wire 1 " clk $end
$var wire 5 L regNum0 [4:0] $end
$var wire 5 M regNum1 [4:0] $end
$var wire 32 N regWriteData [31:0] $end
$var wire 1 O regWriteEnable $end
$var wire 5 P regWriteNum [4:0] $end
$var wire 1 # reset $end
$var wire 32 Q regReadData1 [31:0] $end
$var wire 32 R regReadData0 [31:0] $end
$var integer 32 S i [31:0] $end
$upscope $end
$scope module alu $end
$var wire 4 T aluOp [3:0] $end
$var wire 32 U aluX [31:0] $end
$var wire 32 V aluY [31:0] $end
$var reg 32 W aluO [31:0] $end
$upscope $end
$scope module control $end
$var wire 32 X PC [31:0] $end
$var wire 32 Y aluO [31:0] $end
$var wire 1 " clk $end
$var wire 2 Z forwordB [1:0] $end
$var wire 3 [ func3 [2:0] $end
$var wire 32 \ imm [31:0] $end
$var wire 32 ] regReadData1 [31:0] $end
$var wire 1 # reset $end
$var wire 3 ^ state [2:0] $end
$var wire 32 _ memReadData [31:0] $end
$var reg 32 ` data [31:0] $end
$var reg 32 a data1 [31:0] $end
$var reg 32 b data2 [31:0] $end
$var reg 32 c memAddr [31:0] $end
$var reg 32 d memWriteData [31:0] $end
$var reg 1 e memWriteEnable $end
$var reg 32 f pcWriteData [31:0] $end
$var reg 1 ' pcWriteEnable $end
$var reg 32 g regWriteData [31:0] $end
$var reg 1 9 regWriteEnable $end
$scope module mem $end
$var wire 32 h PC [31:0] $end
$var wire 1 " clk $end
$var wire 3 i func3 [2:0] $end
$var wire 32 j memAddr [31:0] $end
$var wire 32 k memWriteData [31:0] $end
$var wire 1 e memWriteEnable $end
$var reg 32 l memReadData [31:0] $end
$upscope $end
$upscope $end
$upscope $end
$upscope $end
$scope module flushing $end
$var wire 1 " clk $end
$var wire 1 ' pcWriteEnable $end
$var wire 1 + flush $end
$var integer 32 m i [31:0] $end
$upscope $end
$scope module instrMem $end
$var wire 32 n instrAddr [31:0] $end
$var wire 32 o instrData [31:0] $end
$upscope $end
$upscope $end
$upscope $end
$enddefinitions $end
$comment Show the parameter values. $end
$dumpall
$end
#0
$dumpvars
bx o
b11111111111111111111111111111100 n
b0 m
bx l
bx k
bx j
bx i
b11111111111111111111111111111100 h
bx g
b0 f
xe
bx d
bx c
bx b
bx a
bx `
bx _
bx ^
bx ]
bx \
bx [
b0 Z
bx Y
b11111111111111111111111111111100 X
bx W
bx V
bx U
bx T
b100000 S
bx R
bx Q
bx P
xO
bx N
bx M
bx L
b11111111111111111111111111111100 K
b0 J
b0 I
bx H
bx G
bx F
0E
bx D
bx C
bx B
bx A
bx @
b0 ?
b0 >
b0 =
bx <
bx ;
bx :
x9
bx 8
bx 7
bx 6
bx 5
bx 4
bx 3
bx 2
b11111111111111111111111111111100 1
b0 0
bx /
bx .
b11111111111111111111111111111100 -
bx ,
0+
0*
bx )
b0 (
0'
b11111111111111111111111111111100 &
b0 %
b0 $
x#
0"
bx !
$end
#300
b0 d
b0 k
0e
09
b0 :
b0 g
b11110001111100101111001010110111 )
b11110001111100101111001010110111 o
b100 %
b0 ^
b0 &
b0 -
b0 1
b0 K
b0 X
b0 h
b0 n
b1 $
1"
#600
0"
#900
b110001100010111 )
b110001100010111 o
b1000 %
b101 /
b100 &
b100 -
b100 1
b100 K
b100 X
b100 h
b100 n
b11110001111100101111001010110111 .
0O
b0 N
b10 $
1"
#1200
0"
#1500
b0 ;
b0 Q
b0 <
b0 R
b10011 )
b10011 o
b1100 %
b110 /
b11110001111100101111000000000000 4
b11111 7
b11111 G
b11111 M
b101 6
b101 F
b101 L
b101 8
b101 H
b1111000 3
b111 2
b110111 5
b1000 &
b1000 -
b1000 1
b1000 K
b1000 X
b1000 h
b1000 n
b110001100010111 .
b11 $
1"
#1800
0"
#2100
b110000000000100 A
b110000000000100 W
b11111111111111111111111111111100 !
b11111111111111111111111111111100 ,
b10000 %
b0 /
b0 B
b0 T
b110000000000000 D
b110000000000000 V
b100 C
b100 U
b11110001111100101111000000000000 @
b11110001111100101111000000000000 `
19
b11110001111100101111000000000000 :
b11110001111100101111000000000000 g
b1100 &
b1100 -
b1100 1
b1100 K
b1100 X
b1100 h
b1100 n
b10011 .
b110000000000000 4
b0 7
b0 G
b0 M
b0 6
b0 F
b0 L
b110 8
b110 H
b0 3
b110 2
b10111 5
b0 ]
b111 [
b111 i
b11110001111100101111000000000000 \
b110 ^
b100 $
1"
#2400
0"
#2700
b0 A
b0 W
b110000000000100 @
b110000000000100 `
b110000000000100 :
b110000000000100 g
b0 D
b0 V
b0 C
b0 U
b0 !
b0 ,
b10100 %
b0 b
b101 P
1O
b11110001111100101111000000000000 N
b110000000000100 Y
b110 [
b110 i
b110000000000000 \
b1 ^
b0 4
b0 8
b0 H
b0 2
b10011 5
b10000 &
b10000 -
b10000 1
b10000 K
b10000 X
b10000 h
b10000 n
b101 $
1"
#3000
0"
#3300
b111111010000101000001010010011 )
b111111010000101000001010010011 o
b100 !
b100 ,
b11000 %
b0 @
b0 `
b0 :
b0 g
b10100 &
b10100 -
b10100 1
b10100 K
b10100 X
b10100 h
b10100 n
b110 P
b110000000000100 N
b0 Y
b0 [
b0 i
b0 \
b110 $
1"
#3600
0"
#3900
b10011 )
b10011 o
b1000 !
b1000 ,
b11100 %
b101 /
b0 P
b0 N
b11000 &
b11000 -
b11000 1
b11000 K
b11000 X
b11000 h
b11000 n
b111111010000101000001010010011 .
b111 $
1"
#4200
0"
#4500
b11110001111100101111000000000000 C
b11110001111100101111000000000000 U
b11110001111100101111001111110100 A
b11110001111100101111001111110100 W
b1100 !
b1100 ,
b100000 %
b0 /
b11110001111100101111000000000000 <
b11110001111100101111000000000000 R
b1111110100 D
b1111110100 V
b11100 &
b11100 -
b11100 1
b11100 K
b11100 X
b11100 h
b11100 n
b10011 .
b1111110100 4
b10100 7
b10100 G
b10100 M
b101 6
b101 F
b101 L
b101 8
b101 H
b11111 3
b1000 $
1"
#4800
0"
#5100
b0 C
b0 U
b0 A
b0 W
b0 <
b0 R
b11110001111100101111001111110100 @
b11110001111100101111001111110100 `
b11110001111100101111001111110100 :
b11110001111100101111001111110100 g
b0 D
b0 V
b10000 !
b10000 ,
b100100 %
b11110001111100101111001111110100 Y
b1111110100 \
b0 4
b0 7
b0 G
b0 M
b0 6
b0 F
b0 L
b0 8
b0 H
b0 3
b100000 &
b100000 -
b100000 1
b100000 K
b100000 X
b100000 h
b100000 n
b1001 $
1"
#5400
0"
#5700
b10100 !
b10100 ,
b101000 %
b0 @
b0 `
b0 :
b0 g
b100100 &
b100100 -
b100100 1
b100100 K
b100100 X
b100100 h
b100100 n
b101 P
b11110001111100101111001111110100 N
b0 Y
b0 \
b1010 $
1"
#6000
0"
#6300
b10100000000000000100011 )
b10100000000000000100011 o
b11000 !
b11000 ,
b101100 %
b0 P
b0 N
b101000 &
b101000 -
b101000 1
b101000 K
b101000 X
b101000 h
b101000 n
b1011 $
1"
#6600
0"
#6900
b10100000000000010100011 )
b10100000000000010100011 o
b11100 !
b11100 ,
b110000 %
b101100 &
b101100 -
b101100 1
b101100 K
b101100 X
b101100 h
b101100 n
b10100000000000000100011 .
b1100 $
1"
#7200
0"
#7500
b11110001111100101111001111110100 ;
b11110001111100101111001111110100 Q
b10100000001000100100011 )
b10100000001000100100011 o
b100000 !
b100000 ,
b110100 %
b1 /
b101 7
b101 G
b101 M
b100011 5
b110000 &
b110000 -
b110000 1
b110000 K
b110000 X
b110000 h
b110000 n
b10100000000000010100011 .
b1101 $
1"
#7800
0"
#8100
b1 A
b1 W
b0 _
b0 l
b10100000010001000100011 )
b10100000010001000100011 o
b100100 !
b100100 ,
b111000 %
b10 /
b1 D
b1 V
09
1e
b0 c
b0 j
b110100 &
b110100 -
b110100 1
b110100 K
b110100 X
b110100 h
b110100 n
b10100000001000100100011 .
b1 4
b1 8
b1 H
b11110001111100101111001111110100 ]
b11 ^
b1110 $
1"
#8400
0"
#8700
b11111111111111111111111111110100 _
b11111111111111111111111111110100 l
b10 A
b10 W
b11110001111100101111001111110100 @
b11110001111100101111001111110100 `
b11110001111100101111001111110100 d
b11110001111100101111001111110100 k
b1 c
b1 j
b10011 )
b10011 o
b10 D
b10 V
b101000 !
b101000 ,
b111100 %
b100 /
b11110001111100101111001111110100 b
b0 a
0O
b1 Y
b1 \
b10 4
b10 8
b10 H
b1 2
b111000 &
b111000 -
b111000 1
b111000 K
b111000 X
b111000 h
b111000 n
b10100000010001000100011 .
b1111 $
1"
#9000
0"
#9300
b100 A
b100 W
b101100 !
b101100 ,
b1000000 %
b0 /
b100 D
b100 V
b11111111111111111111001111110100 _
b11111111111111111111001111110100 l
b10 c
b10 j
b111100 &
b111100 -
b111100 1
b111100 K
b111100 X
b111100 h
b111100 n
b10011 .
b100 4
b100 8
b100 H
b10 2
b1 P
b10 Y
b1 [
b1 i
b10 \
b11111111111111111111111111110100 a
b10000 $
1"
#9600
0"
#9900
b0 A
b0 W
b11110001111100101111001111110100 _
b11110001111100101111001111110100 l
b0 ;
b0 Q
b100 c
b100 j
b0 D
b0 V
b110000 !
b110000 ,
b1000100 %
b11111111111111111111001111110100 a
b10 P
b100 Y
b10 [
b10 i
b100 \
b0 4
b0 7
b0 G
b0 M
b0 8
b0 H
b0 2
b10011 5
b1000000 &
b1000000 -
b1000000 1
b1000000 K
b1000000 X
b1000000 h
b1000000 n
b10001 $
1"
#10200
0"
#10500
b110100 !
b110100 ,
b1001000 %
b11111111111111111111111111110100 _
b11111111111111111111111111110100 l
b0 @
b0 `
b0 d
b0 k
0e
19
b1000100 &
b1000100 -
b1000100 1
b1000100 K
b1000100 X
b1000100 h
b1000100 n
b100 P
b0 Y
b0 ]
b0 [
b0 i
b0 \
b1 ^
b11110001111100101111001111110100 a
b10010 $
1"
#10800
0"
#11100
b10000000000001110000011 )
b10000000000001110000011 o
b111000 !
b111000 ,
b1001100 %
b0 b
b11111111111111111111111111110100 a
b0 P
1O
b1001000 &
b1001000 -
b1001000 1
b1001000 K
b1001000 X
b1001000 h
b1001000 n
b10011 $
1"
#11400
0"
#11700
b10100000000010000000011 )
b10100000000010000000011 o
b111100 !
b111100 ,
b1010000 %
b111 /
b1001100 &
b1001100 -
b1001100 1
b1001100 K
b1001100 X
b1001100 h
b1001100 n
b10000000000001110000011 .
b10100 $
1"
#12000
0"
#12300
b100 A
b100 W
b11000000000010010000011 )
b11000000000010010000011 o
b100 D
b100 V
b1000000 !
b1000000 ,
b1010100 %
b1000 /
b100 4
b100 7
b100 G
b100 M
b111 8
b111 H
b11 5
b1010000 &
b1010000 -
b1010000 1
b1010000 K
b1010000 X
b1010000 h
b1010000 n
b10100000000010000000011 .
b10101 $
1"
#12600
0"
#12900
b101 A
b101 W
b11100000000010100000011 )
b11100000000010100000011 o
b1000100 !
b1000100 ,
b1011000 %
b1001 /
b11110001111100101111001111110100 ;
b11110001111100101111001111110100 Q
b101 D
b101 V
b11111111111111111111111111110100 @
b11111111111111111111111111110100 `
b11111111111111111111111111110100 :
b11111111111111111111111111110100 g
b1010100 &
b1010100 -
b1010100 1
b1010100 K
b1010100 X
b1010100 h
b1010100 n
b11000000000010010000011 .
b101 4
b101 7
b101 G
b101 M
b1000 8
b1000 H
b100 Y
b100 \
b10 ^
b10110 $
1"
#13200
0"
#13500
b11111111111111111111111111110011 _
b11111111111111111111111111110011 l
b110 A
b110 W
b110000000000100 ;
b110000000000100 Q
b101 c
b101 j
b1010110000011 )
b1010110000011 o
b110 D
b110 V
b1001000 !
b1001000 ,
b1011100 %
b1010 /
b111 P
b11111111111111111111111111110100 N
b101 Y
b11110001111100101111001111110100 ]
b101 \
b110 4
b110 7
b110 G
b110 M
b1001 8
b1001 H
b1011000 &
b1011000 -
b1011000 1
b1011000 K
b1011000 X
b1011000 h
b1011000 n
b11100000000010100000011 .
b10111 $
1"
#13800
0"
#14100
b111 A
b111 W
b11111111111111111111111111110010 _
b11111111111111111111111111110010 l
b1000000001011000000011 )
b1000000001011000000011 o
b1001100 !
b1001100 ,
b1100000 %
b1011 /
b11111111111111111111111111110100 ;
b11111111111111111111111111110100 Q
b111 D
b111 V
b11111111111111111111111111110011 @
b11111111111111111111111111110011 `
b11111111111111111111111111110011 :
b11111111111111111111111111110011 g
b110 c
b110 j
b1011100 &
b1011100 -
b1011100 1
b1011100 K
b1011100 X
b1011100 h
b1011100 n
b1010110000011 .
b111 4
b111 7
b111 G
b111 M
b1010 8
b1010 H
b1000 P
b110 Y
b110000000000100 ]
b110 \
b11110001111100101111001111110100 b
b11111111111111111111111111110011 a
b11000 $
1"
#14400
0"
#14700
b11111111111111111111111111110001 _
b11111111111111111111111111110001 l
b0 A
b0 W
b0 ;
b0 Q
b11111111111111111111111111110010 @
b11111111111111111111111111110010 `
b11111111111111111111111111110010 :
b11111111111111111111111111110010 g
b111 c
b111 j
b10000000010011010000011 )
b10000000010011010000011 o
b0 D
b0 V
b1010000 !
b1010000 ,
b1100100 %
b1100 /
b110000000000100 b
b11111111111111111111111111110010 a
b1001 P
b11111111111111111111111111110011 N
b111 Y
b11111111111111111111111111110100 ]
b111 \
b0 4
b0 7
b0 G
b0 M
b1011 8
b1011 H
b1 2
b1100000 &
b1100000 -
b1100000 1
b1100000 K
b1100000 X
b1100000 h
b1100000 n
b1000000001011000000011 .
b11001 $
1"
#15000
0"
#15300
b10 A
b10 W
b100011100000011 )
b100011100000011 o
b1010100 !
b1010100 ,
b1101000 %
b1101 /
b10 D
b10 V
b11111111111111111111010000000000 _
b11111111111111111111010000000000 l
b11111111111111111111111111110001 @
b11111111111111111111111111110001 `
b11111111111111111111111111110001 :
b11111111111111111111111111110001 g
b0 c
b0 j
b1100100 &
b1100100 -
b1100100 1
b1100100 K
b1100100 X
b1100100 h
b1100100 n
b10000000010011010000011 .
b10 4
b10 7
b10 G
b10 M
b1100 8
b1100 H
b1010 P
b11111111111111111111111111110010 N
b0 Y
b0 ]
b1 [
b1 i
b0 \
b11111111111111111111111111110100 b
b11111111111111111111111111110001 a
b11010 $
1"
#15600
0"
#15900
b11111111111111111111001111110100 _
b11111111111111111111001111110100 l
b100 A
b100 W
b11111111111111111111010000000000 @
b11111111111111111111010000000000 `
b11111111111111111111010000000000 :
b11111111111111111111010000000000 g
b10 c
b10 j
b100000100011110000011 )
b100000100011110000011 o
b100 D
b100 V
b1011000 !
b1011000 ,
b1101100 %
b1110 /
b0 b
b11111111111111111111010000000000 a
b1011 P
b11111111111111111111111111110001 N
b10 Y
b10 \
b100 4
b100 7
b100 G
b100 M
b1101 8
b1101 H
b10 2
b1101000 &
b1101000 -
b1101000 1
b1101000 K
b1101000 X
b1101000 h
b1101000 n
b100011100000011 .
b11011 $
1"
#16200
0"
#16500
b0 A
b0 W
b1000000100100000000011 )
b1000000100100000000011 o
b1011100 !
b1011100 ,
b1110000 %
b1111 /
b0 D
b0 V
b11110001111100101111001111110100 _
b11110001111100101111001111110100 l
b11111111111111111111001111110100 @
b11111111111111111111001111110100 `
b11111111111111111111001111110100 :
b11111111111111111111001111110100 g
b100 c
b100 j
b1101100 &
b1101100 -
b1101100 1
b1101100 K
b1101100 X
b1101100 h
b1101100 n
b100000100011110000011 .
b0 4
b0 7
b0 G
b0 M
b1110 8
b1110 H
b100 2
b1100 P
b11111111111111111111010000000000 N
b100 Y
b10 [
b10 i
b100 \
b11111111111111111111001111110100 a
b11100 $
1"
#16800
0"
#17100
b1 A
b1 W
b0 _
b0 l
b11110001111100101111001111110100 @
b11110001111100101111001111110100 `
b11110001111100101111001111110100 :
b11110001111100101111001111110100 g
b0 c
b0 j
b1100000100100010000011 )
b1100000100100010000011 o
b1 D
b1 V
b1100000 !
b1100000 ,
b1110100 %
b10000 /
b11110001111100101111001111110100 a
b1101 P
b11111111111111111111001111110100 N
b0 Y
b100 [
b100 i
b0 \
b1 4
b1 7
b1 G
b1 M
b1111 8
b1111 H
b1110000 &
b1110000 -
b1110000 1
b1110000 K
b1110000 X
b1110000 h
b1110000 n
b1000000100100000000011 .
b11101 $
1"
#17400
0"
#17700
b10 A
b10 W
b11110100 _
b11110100 l
b10000000101100100000011 )
b10000000101100100000011 o
b1100100 !
b1100100 ,
b1111000 %
b10001 /
b10 D
b10 V
b0 @
b0 `
b0 :
b0 g
b1 c
b1 j
b1110100 &
b1110100 -
b1110100 1
b1110100 K
b1110100 X
b1110100 h
b1110100 n
b1100000100100010000011 .
b10 4
b10 7
b10 G
b10 M
b10000 8
b10000 H
b1110 P
b11110001111100101111001111110100 N
b1 Y
b1 \
b0 a
b11110 $
1"
#18000
0"
#18300
b11 A
b11 W
b11110100 @
b11110100 `
b11110100 :
b11110100 g
b10 c
b10 j
b11000000101100110000011 )
b11000000101100110000011 o
b11 D
b11 V
b1101000 !
b1101000 ,
b1111100 %
b10010 /
b11110100 a
b1111 P
b0 N
b10 Y
b10 \
b11 4
b11 7
b11 G
b11 M
b10001 8
b10001 H
b1111000 &
b1111000 -
b1111000 1
b1111000 K
b1111000 X
b1111000 h
b1111000 n
b10000000101100100000011 .
b11111 $
1"
#18600
0"
#18900
b100 A
b100 W
b11110011 _
b11110011 l
bx )
bx o
b1101100 !
b1101100 ,
b10000000 %
b10011 /
b100 D
b100 V
b11 c
b11 j
b1111100 &
b1111100 -
b1111100 1
b1111100 K
b1111100 X
b1111100 h
b1111100 n
b11000000101100110000011 .
b100 4
b100 7
b100 G
b100 M
b10010 8
b10010 H
b101 2
b10000 P
b11110100 N
b11 Y
b11 \
b100000 $
1"
#19200
0"
#19500
b110 A
b110 W
b1111001111110100 _
b1111001111110100 l
b110000000000100 ;
b110000000000100 Q
b11110011 @
b11110011 `
b11110011 :
b11110011 g
b100 c
b100 j
b110 D
b110 V
b1110000 !
b1110000 ,
b10000100 %
bx /
b11110011 a
b10001 P
b100 Y
b101 [
b101 i
b100 \
b110 4
b110 7
b110 G
b110 M
b10011 8
b10011 H
b10000000 &
b10000000 -
b10000000 1
b10000000 K
b10000000 X
b10000000 h
b10000000 n
bx .
b100001 $
1"
#19800
0"
#20100
b1111000111110010 _
b1111000111110010 l
b1110100 !
b1110100 ,
b10001000 %
bx ;
bx Q
bx <
bx R
b1111001111110100 @
b1111001111110100 `
b1111001111110100 :
b1111001111110100 g
b110 c
b110 j
b10000100 &
b10000100 -
b10000100 1
b10000100 K
b10000100 X
b10000100 h
b10000100 n
bz 4
bx 7
bx G
bx M
bx 6
bx F
bx L
bx 8
bx H
bx 3
bx 2
bx 5
b10010 P
b11110011 N
b110 Y
b110000000000100 ]
b110 \
b1111001111110100 a
b100010 $
1"
#20400
0"
#20700
09
b0 :
b0 g
b1111000 !
b1111000 ,
b10001100 %
b110000000000100 b
b1111000111110010 a
b10011 P
b1111001111110100 N
bx ]
bx [
bx i
bz \
b0 ^
b10001000 &
b10001000 -
b10001000 1
b10001000 K
b10001000 X
b10001000 h
b10001000 n
b100011 $
1"
#21000
0"
#21300
b1111100 !
b1111100 ,
b10010000 %
b10001100 &
b10001100 -
b10001100 1
b10001100 K
b10001100 X
b10001100 h
b10001100 n
bx P
0O
b0 N
bx b
b100100 $
1"
#21600
0"
#21900
b10000000 !
b10000000 ,
b10010100 %
b10010000 &
b10010000 -
b10010000 1
b10010000 K
b10010000 X
b10010000 h
b10010000 n
b100101 $
1"
#22200
0"
#22500
b10000100 !
b10000100 ,
b10011000 %
b10010100 &
b10010100 -
b10010100 1
b10010100 K
b10010100 X
b10010100 h
b10010100 n
b100110 $
1"
#22800
0"
#23100
b10001000 !
b10001000 ,
b10011100 %
b10011000 &
b10011000 -
b10011000 1
b10011000 K
b10011000 X
b10011000 h
b10011000 n
b100111 $
1"
#23400
0"
#23700
b10001100 !
b10001100 ,
b10100000 %
b10011100 &
b10011100 -
b10011100 1
b10011100 K
b10011100 X
b10011100 h
b10011100 n
b101000 $
1"
#24000
0"
#24300
b10010000 !
b10010000 ,
b10100100 %
b10100000 &
b10100000 -
b10100000 1
b10100000 K
b10100000 X
b10100000 h
b10100000 n
b101001 $
1"
#24600
0"
#24900
b10010100 !
b10010100 ,
b10101000 %
b10100100 &
b10100100 -
b10100100 1
b10100100 K
b10100100 X
b10100100 h
b10100100 n
b101010 $
1"
#25200
0"
#25500
b10011000 !
b10011000 ,
b10101100 %
b10101000 &
b10101000 -
b10101000 1
b10101000 K
b10101000 X
b10101000 h
b10101000 n
b101011 $
1"
#25800
0"
#26100
b10011100 !
b10011100 ,
b10110000 %
b10101100 &
b10101100 -
b10101100 1
b10101100 K
b10101100 X
b10101100 h
b10101100 n
b101100 $
1"
#26400
0"
#26700
b10100000 !
b10100000 ,
b10110100 %
b10110000 &
b10110000 -
b10110000 1
b10110000 K
b10110000 X
b10110000 h
b10110000 n
b101101 $
1"
#27000
0"
#27300
b10100100 !
b10100100 ,
b10111000 %
b10110100 &
b10110100 -
b10110100 1
b10110100 K
b10110100 X
b10110100 h
b10110100 n
b101110 $
1"
#27600
0"
#27900
b10101000 !
b10101000 ,
b10111100 %
b10111000 &
b10111000 -
b10111000 1
b10111000 K
b10111000 X
b10111000 h
b10111000 n
b101111 $
1"
#28200
0"
#28500
b10101100 !
b10101100 ,
b11000000 %
b10111100 &
b10111100 -
b10111100 1
b10111100 K
b10111100 X
b10111100 h
b10111100 n
b110000 $
1"
#28800
0"
#29100
b10110000 !
b10110000 ,
b11000100 %
b11000000 &
b11000000 -
b11000000 1
b11000000 K
b11000000 X
b11000000 h
b11000000 n
b110001 $
1"
#29400
0"
#29700
b10110100 !
b10110100 ,
b11001000 %
b11000100 &
b11000100 -
b11000100 1
b11000100 K
b11000100 X
b11000100 h
b11000100 n
b110010 $
1"
#30000
0"
#30300
b10111000 !
b10111000 ,
b11001100 %
b11001000 &
b11001000 -
b11001000 1
b11001000 K
b11001000 X
b11001000 h
b11001000 n
b110011 $
1"
#30600
0"
#30900
b10111100 !
b10111100 ,
b11010000 %
b11001100 &
b11001100 -
b11001100 1
b11001100 K
b11001100 X
b11001100 h
b11001100 n
b110100 $
1"
#31200
0"
#31500
b11000000 !
b11000000 ,
b11010100 %
b11010000 &
b11010000 -
b11010000 1
b11010000 K
b11010000 X
b11010000 h
b11010000 n
b110101 $
1"
#31800
0"
#32100
b11000100 !
b11000100 ,
b11011000 %
b11010100 &
b11010100 -
b11010100 1
b11010100 K
b11010100 X
b11010100 h
b11010100 n
b110110 $
1"
#32400
0"
#32700
b11001000 !
b11001000 ,
b11011100 %
b11011000 &
b11011000 -
b11011000 1
b11011000 K
b11011000 X
b11011000 h
b11011000 n
b110111 $
1"
#33000
0"
#33300
b11001100 !
b11001100 ,
b11100000 %
b11011100 &
b11011100 -
b11011100 1
b11011100 K
b11011100 X
b11011100 h
b11011100 n
b111000 $
1"
#33600
0"
#33900
b11010000 !
b11010000 ,
b11100100 %
b11100000 &
b11100000 -
b11100000 1
b11100000 K
b11100000 X
b11100000 h
b11100000 n
b111001 $
1"
#34200
0"
#34500
b11010100 !
b11010100 ,
b11101000 %
b11100100 &
b11100100 -
b11100100 1
b11100100 K
b11100100 X
b11100100 h
b11100100 n
b111010 $
1"
#34800
0"
#35100
b11011000 !
b11011000 ,
b11101100 %
b11101000 &
b11101000 -
b11101000 1
b11101000 K
b11101000 X
b11101000 h
b11101000 n
b111011 $
1"
#35400
0"
#35700
b11011100 !
b11011100 ,
b11110000 %
b11101100 &
b11101100 -
b11101100 1
b11101100 K
b11101100 X
b11101100 h
b11101100 n
b111100 $
1"
#36000
0"
#36300
b11100000 !
b11100000 ,
b11110100 %
b11110000 &
b11110000 -
b11110000 1
b11110000 K
b11110000 X
b11110000 h
b11110000 n
b111101 $
1"
#36600
0"
#36900
b11100100 !
b11100100 ,
b11111000 %
b11110100 &
b11110100 -
b11110100 1
b11110100 K
b11110100 X
b11110100 h
b11110100 n
b111110 $
1"
#37200
0"
#37500
b11101000 !
b11101000 ,
b11111100 %
b11111000 &
b11111000 -
b11111000 1
b11111000 K
b11111000 X
b11111000 h
b11111000 n
b111111 $
1"
#37800
0"
#38100
b11101100 !
b11101100 ,
b100000000 %
b11111100 &
b11111100 -
b11111100 1
b11111100 K
b11111100 X
b11111100 h
b11111100 n
b1000000 $
1"
#38400
0"
#38700
b11110000 !
b11110000 ,
b100000100 %
b100000000 &
b100000000 -
b100000000 1
b100000000 K
b100000000 X
b100000000 h
b100000000 n
b1000001 $
1"
#39000
0"
#39300
b11110100 !
b11110100 ,
b100001000 %
b100000100 &
b100000100 -
b100000100 1
b100000100 K
b100000100 X
b100000100 h
b100000100 n
b1000010 $
1"
#39600
0"
#39900
b11111000 !
b11111000 ,
b100001100 %
b100001000 &
b100001000 -
b100001000 1
b100001000 K
b100001000 X
b100001000 h
b100001000 n
b1000011 $
1"
#40200
0"
#40500
b11111100 !
b11111100 ,
b100010000 %
b100001100 &
b100001100 -
b100001100 1
b100001100 K
b100001100 X
b100001100 h
b100001100 n
b1000100 $
1"
#40800
0"
#41100
b100000000 !
b100000000 ,
b100010100 %
b100010000 &
b100010000 -
b100010000 1
b100010000 K
b100010000 X
b100010000 h
b100010000 n
b1000101 $
1"
#41400
0"
#41700
b100000100 !
b100000100 ,
b100011000 %
b100010100 &
b100010100 -
b100010100 1
b100010100 K
b100010100 X
b100010100 h
b100010100 n
b1000110 $
1"
#42000
0"
#42300
b100001000 !
b100001000 ,
b100011100 %
b100011000 &
b100011000 -
b100011000 1
b100011000 K
b100011000 X
b100011000 h
b100011000 n
b1000111 $
1"
#42600
0"
#42900
b100001100 !
b100001100 ,
b100100000 %
b100011100 &
b100011100 -
b100011100 1
b100011100 K
b100011100 X
b100011100 h
b100011100 n
b1001000 $
1"
#43200
0"
#43500
b100010000 !
b100010000 ,
b100100100 %
b100100000 &
b100100000 -
b100100000 1
b100100000 K
b100100000 X
b100100000 h
b100100000 n
b1001001 $
1"
#43800
0"
#44100
b100010100 !
b100010100 ,
b100101000 %
b100100100 &
b100100100 -
b100100100 1
b100100100 K
b100100100 X
b100100100 h
b100100100 n
b1001010 $
1"
#44400
0"
#44700
b100011000 !
b100011000 ,
b100101100 %
b100101000 &
b100101000 -
b100101000 1
b100101000 K
b100101000 X
b100101000 h
b100101000 n
b1001011 $
1"
#45000
0"
#45300
b100011100 !
b100011100 ,
b100110000 %
b100101100 &
b100101100 -
b100101100 1
b100101100 K
b100101100 X
b100101100 h
b100101100 n
b1001100 $
1"
#45600
0"
#45900
b100100000 !
b100100000 ,
b100110100 %
b100110000 &
b100110000 -
b100110000 1
b100110000 K
b100110000 X
b100110000 h
b100110000 n
b1001101 $
1"
#46200
0"
#46500
b100100100 !
b100100100 ,
b100111000 %
b100110100 &
b100110100 -
b100110100 1
b100110100 K
b100110100 X
b100110100 h
b100110100 n
b1001110 $
1"
#46800
0"
#47100
b100101000 !
b100101000 ,
b100111100 %
b100111000 &
b100111000 -
b100111000 1
b100111000 K
b100111000 X
b100111000 h
b100111000 n
b1001111 $
1"
#47400
0"
#47700
b100101100 !
b100101100 ,
b101000000 %
b100111100 &
b100111100 -
b100111100 1
b100111100 K
b100111100 X
b100111100 h
b100111100 n
b1010000 $
1"
#48000
0"
#48300
b100110000 !
b100110000 ,
b101000100 %
b101000000 &
b101000000 -
b101000000 1
b101000000 K
b101000000 X
b101000000 h
b101000000 n
b1010001 $
1"
#48600
0"
#48900
b100110100 !
b100110100 ,
b101001000 %
b101000100 &
b101000100 -
b101000100 1
b101000100 K
b101000100 X
b101000100 h
b101000100 n
b1010010 $
1"
#49200
0"
