pipelinecpu/build/test.vcd
$date
	Thu May  9 12:49:50 2024
$end
$version
	Icarus Verilog
$end
$timescale
	1ns
$end
$scope module CPU_tb $end
$var wire 32 ! pc [31:0] $end
$var reg 1 " clk $end
$var reg 1 # reset $end
$var integer 32 $ counter [31:0] $end
$scope module cpu $end
$var wire 1 " clk $end
$var wire 1 # reset $end
$var wire 1 % pcWriteEnable $end
$var wire 32 & pcWriteData [31:0] $end
$var wire 32 ' instr [31:0] $end
$var wire 1 ( hazard $end
$var wire 1 ) flush $end
$var reg 32 * PC [31:0] $end
$scope module ID $end
$var wire 32 + PC [31:0] $end
$var wire 1 " clk $end
$var wire 32 , instr [31:0] $end
$var wire 1 # reset $end
$var wire 1 % pcWriteEnable $end
$var wire 32 - pcWriteData [31:0] $end
$var wire 1 ( hazard $end
$var wire 1 ) flush $end
$scope module EX $end
$var wire 32 . PC [31:0] $end
$var wire 1 " clk $end
$var wire 3 / func3 [2:0] $end
$var wire 7 0 func7 [6:0] $end
$var wire 32 1 imm [31:0] $end
$var wire 7 2 opcode [6:0] $end
$var wire 5 3 regNum0 [4:0] $end
$var wire 5 4 regNum1 [4:0] $end
$var wire 5 5 regWriteNum [4:0] $end
$var wire 1 # reset $end
$var wire 1 6 regWriteEnable $end
$var wire 32 7 regWriteData [31:0] $end
$var wire 32 8 regReadData1 [31:0] $end
$var wire 32 9 regReadData0 [31:0] $end
$var wire 1 % pcWriteEnable $end
$var wire 32 : pcWriteData [31:0] $end
$var wire 2 ; forwardB [1:0] $end
$var wire 2 < forwardA [1:0] $end
$var wire 1 ) flush $end
$var wire 32 = data [31:0] $end
$var wire 32 > aluO [31:0] $end
$var reg 4 ? aluOp [3:0] $end
$var reg 32 @ aluX [31:0] $end
$var reg 32 A aluY [31:0] $end
$var reg 1 ( hazard $end
$var reg 1 B waithazard $end
$scope module Forwarding $end
$var wire 1 " clk $end
$var wire 5 C regReadNum0 [4:0] $end
$var wire 5 D regReadNum1 [4:0] $end
$var wire 5 E regWriteNum [4:0] $end
$var wire 1 ) flush $end
$var reg 2 F forwardA [1:0] $end
$var reg 2 G forwardB [1:0] $end
$upscope $end
$scope module RF $end
$var wire 32 H PC [31:0] $end
$var wire 1 " clk $end
$var wire 5 I regNum0 [4:0] $end
$var wire 5 J regNum1 [4:0] $end
$var wire 32 K regWriteData [31:0] $end
$var wire 1 L regWriteEnable $end
$var wire 5 M regWriteNum [4:0] $end
$var wire 1 # reset $end
$var wire 32 N regReadData1 [31:0] $end
$var wire 32 O regReadData0 [31:0] $end
$var integer 32 P i [31:0] $end
$upscope $end
$scope module alu $end
$var wire 4 Q aluOp [3:0] $end
$var wire 32 R aluX [31:0] $end
$var wire 32 S aluY [31:0] $end
$var reg 32 T aluO [31:0] $end
$upscope $end
$scope module control $end
$var wire 32 U PC [31:0] $end
$var wire 32 V aluO [31:0] $end
$var wire 1 " clk $end
$var wire 2 W forwordB [1:0] $end
$var wire 3 X func3 [2:0] $end
$var wire 32 Y imm [31:0] $end
$var wire 32 Z regReadData1 [31:0] $end
$var wire 1 # reset $end
$var wire 3 [ state [2:0] $end
$var wire 32 \ memReadData [31:0] $end
$var reg 32 ] data [31:0] $end
$var reg 32 ^ memAddr [31:0] $end
$var reg 1 _ memReadEnable $end
$var reg 32 ` memWriteData [31:0] $end
$var reg 1 a memWriteEnable $end
$var reg 32 b pcWriteData [31:0] $end
$var reg 1 % pcWriteEnable $end
$var reg 32 c regWriteData [31:0] $end
$var reg 1 6 regWriteEnable $end
$scope module mem $end
$var wire 32 d PC [31:0] $end
$var wire 1 " clk $end
$var wire 3 e func3 [2:0] $end
$var wire 32 f memAddr [31:0] $end
$var wire 1 _ memReadEnable $end
$var wire 32 g memWriteData [31:0] $end
$var wire 1 a memWriteEnable $end
$var reg 32 h memReadData [31:0] $end
$upscope $end
$upscope $end
$upscope $end
$upscope $end
$scope module flushing $end
$var wire 1 " clk $end
$var wire 1 % pcWriteEnable $end
$var wire 1 ) flush $end
$var integer 32 i i [31:0] $end
$upscope $end
$scope module instrMem $end
$var wire 32 j instrAddr [31:0] $end
$var wire 32 k instrData [31:0] $end
$upscope $end
$upscope $end
$upscope $end
$enddefinitions $end
$comment Show the parameter values. $end
$dumpall
$end
#0
$dumpvars
bx k
b11111111111111111111111111111100 j
b0 i
bx h
bx g
bx f
bx e
b11111111111111111111111111111100 d
bx c
b0 b
xa
bx `
x_
bx ^
bx ]
bx \
bx [
bx Z
bx Y
bx X
b0 W
bx V
b11111111111111111111111111111100 U
bx T
bx S
bx R
bx Q
b100000 P
bx O
bx N
bx M
xL
bx K
bx J
bx I
b11111111111111111111111111111100 H
b0 G
b0 F
bx E
bx D
bx C
0B
bx A
bx @
bx ?
bx >
bx =
b0 <
b0 ;
b0 :
bx 9
bx 8
bx 7
x6
bx 5
bx 4
bx 3
bx 2
bx 1
bx 0
bx /
b11111111111111111111111111111100 .
b0 -
bx ,
b11111111111111111111111111111100 +
b11111111111111111111111111101100 *
0)
0(
bx '
b0 &
0%
b0 $
x#
0"
b11111111111111111111111111101100 !
$end
#300
b0 `
b0 g
0_
0a
06
b0 7
b0 c
b10010011 '
b10010011 k
b11111111111111111111111111110000 !
b11111111111111111111111111110000 *
b0 [
b0 +
b0 .
b0 H
b0 U
b0 d
b0 j
b1 $
1"
#600
0"
#900
b1100010011 '
b1100010011 k
b11111111111111111111111111110100 !
b11111111111111111111111111110100 *
b100 +
b100 .
b100 H
b100 U
b100 d
b100 j
b10010011 ,
0L
b0 K
b10 $
1"
#1200
0"
#1500
b0 >
b0 T
b0 @
b0 R
b0 8
b0 N
b0 9
b0 O
b1110010011 '
b1110010011 k
b0 A
b0 S
b0 ?
b0 Q
b11111111111111111111111111111000 !
b11111111111111111111111111111000 *
b1 5
b1 E
b0 4
b0 D
b0 J
b0 3
b0 C
b0 I
b10011 2
b0 1
b0 0
b0 /
b1000 +
b1000 .
b1000 H
b1000 U
b1000 d
b1000 j
b1100010011 ,
b11 $
1"
#1800
0"
#2100
b110010000000000001010010011 '
b110010000000000001010010011 k
b11111111111111111111111111111100 !
b11111111111111111111111111111100 *
b0 =
b0 ]
16
b1100 +
b1100 .
b1100 H
b1100 U
b1100 d
b1100 j
b1110010011 ,
b110 5
b110 E
b1 [
b0 Z
b0 Y
b0 X
b0 e
b0 V
b100 $
1"
#2400
0"
#2700
b10100001010001000100011 '
b10100001010001000100011 k
b0 !
b0 *
b1 M
1L
b111 5
b111 E
b10000 +
b10000 .
b10000 H
b10000 U
b10000 d
b10000 j
b110010000000000001010010011 ,
b101 $
1"
#3000
0"
#3300
b1100100 >
b1100100 T
b110011 '
b110011 k
b100 !
b100 *
b101 8
b101 N
b1100100 A
b1100100 S
b10100 +
b10100 .
b10100 H
b10100 U
b10100 d
b10100 j
b10100001010001000100011 ,
b101 5
b101 E
b100 4
b100 D
b100 J
b1100100 1
b11 0
b110 M
b110 $
1"
#3600
0"
#3900
b100 >
b100 T
b110 8
b110 N
b10 ;
b10 G
b10 W
b1100100 =
b1100100 ]
b1100100 7
b1100100 c
b10000001010000100000011 '
b10000001010000100000011 k
b100 A
b100 S
b1000 !
b1000 *
b101 Z
b111 M
b1100100 Y
b1100100 V
b100 5
b100 E
b101 4
b101 D
b101 J
b1 3
b1 C
b1 I
b100011 2
b100 1
b0 0
b10 /
b11000 +
b11000 .
b11000 H
b11000 U
b11000 d
b11000 j
b110011 ,
b111 $
1"
#4200
0"
#4500
b0 >
b0 T
b10100010111001000110011 '
b10100010111001000110011 k
b1100 !
b1100 *
b0 8
b0 N
b0 A
b0 S
b0 ;
b0 G
b0 W
06
b0 7
b0 c
1a
b1100100 `
b1100100 g
b100 ^
b100 f
b11100 +
b11100 .
b11100 H
b11100 U
b11100 d
b11100 j
b10000001010000100000011 ,
b0 5
b0 E
b0 4
b0 D
b0 J
b0 3
b0 C
b0 I
b110011 2
bz 1
b0 /
b11 [
b1100100 Z
b101 M
b1100100 K
b100 Y
b10 X
b10 e
b100 V
b1000 $
1"
#4800
0"
#5100
b100 >
b100 T
b101 8
b101 N
b1 ;
b1 G
b1 W
b0 =
b0 ]
b0 `
b0 g
0a
16
b11000010110010000110011 '
b11000010110010000110011 k
b100 A
b100 S
b10000 !
b10000 *
b1 [
b0 Z
b100 M
0L
b0 K
bz Y
b0 X
b0 e
b0 V
b10 5
b10 E
b100 4
b100 D
b100 J
b1 3
b1 C
b1 I
b11 2
b100 1
b10 /
b100000 +
b100000 .
b100000 H
b100000 U
b100000 d
b100000 j
b10100010111001000110011 ,
b1001 $
1"
#5400
0"
#5700
bx @
bx R
b0xx00x00 >
b0xx00x00 T
bx =
bx ]
bx 7
bx c
b1000100111010010110011 '
b1000100111010010110011 k
b10100 !
b10100 *
b1100100 8
b1100100 N
b11 9
b11 O
b1100100 A
b1100100 S
b100 ?
b100 Q
b0 ;
b0 G
b0 W
b10 <
b10 F
b100100 +
b100100 .
b100100 H
b100100 U
b100100 d
b100100 j
b11000010110010000110011 ,
b100 5
b100 E
b101 4
b101 D
b101 J
b10 3
b10 C
b10 I
b110011 2
bz 1
b111 /
b10 [
b0 M
1L
b100 Y
b10 X
b10 e
b100 V
b1010 $
1"
#6000
0"
#6300
b0 A
b0 S
bx >
bx T
b1 <
b1 F
b0 8
b0 N
b0xx00x00 =
b0xx00x00 ]
b0xx00x00 7
b0xx00x00 c
b1000000011100110000000010110011 '
b1000000011100110000000010110011 k
b10 ?
b10 Q
b11000 !
b11000 *
b1 [
b1100100 Z
b10 M
bx K
bz Y
b111 X
b111 e
b0xx00x00 V
b1000 5
b1000 E
b110 4
b110 D
b110 J
b110 /
b101000 +
b101000 .
b101000 H
b101000 U
b101000 d
b101000 j
b1000100111010010110011 ,
b1011 $
1"
#6600
bx 9
bx O
0"
#6900
bx A
bx S
b0xx00x00 >
b0xx00x00 T
bx '
bx k
b11100 !
b11100 *
bx 8
bx N
b101 9
b101 O
b0xx00x00 @
b0xx00x00 R
b100 ?
b100 Q
bx =
bx ]
bx 7
bx c
b101100 +
b101100 .
b101100 H
b101100 U
b101100 d
b101100 j
b1000000011100110000000010110011 ,
b1001 5
b1001 E
b10 4
b10 D
b10 J
b100 3
b100 C
b100 I
b111 /
b0 Z
b100 M
b0xx00x00 K
b110 X
b110 e
bx V
b1100 $
1"
#7200
b0xx00x00 9
b0xx00x00 O
0"
#7500
b0 A
b0 S
b0 >
b0 T
b0 8
b0 N
b0 <
b0 F
b0 9
b0 O
b0xx00x00 =
b0xx00x00 ]
b0xx00x00 7
b0xx00x00 c
b0 @
b0 R
b1 ?
b1 Q
b100000 !
b100000 *
bx Z
b1000 M
bx K
b111 X
b111 e
b0xx00x00 V
b1 5
b1 E
b111 4
b111 D
b111 J
b110 3
b110 C
b110 I
b100000 0
b0 /
b110000 +
b110000 .
b110000 H
b110000 U
b110000 d
b110000 j
bx ,
b1101 $
1"
#7800
0"
#8100
b100100 !
b100100 *
bx 8
bx N
bx 9
bx O
b0 =
b0 ]
b0 7
b0 c
b110100 +
b110100 .
b110100 H
b110100 U
b110100 d
b110100 j
bx 5
bx E
bx 4
bx D
bx J
bx 3
bx C
bx I
bx 2
bx 0
bx /
b0 Z
b1001 M
b0xx00x00 K
b0 X
b0 e
b0 V
b1110 $
1"
#8400
0"
#8700
06
b101000 !
b101000 *
b0 [
bx Z
b1 M
b0 K
bx X
bx e
b111000 +
b111000 .
b111000 H
b111000 U
b111000 d
b111000 j
b1111 $
1"
#9000
0"
#9300
b101100 !
b101100 *
b111100 +
b111100 .
b111100 H
b111100 U
b111100 d
b111100 j
bx M
0L
b10000 $
1"
#9600
0"
#9900
b110000 !
b110000 *
b1000000 +
b1000000 .
b1000000 H
b1000000 U
b1000000 d
b1000000 j
b10001 $
1"
#10200
0"
#10500
b110100 !
b110100 *
b1000100 +
b1000100 .
b1000100 H
b1000100 U
b1000100 d
b1000100 j
b10010 $
1"
#10800
0"
#11100
b111000 !
b111000 *
b1001000 +
b1001000 .
b1001000 H
b1001000 U
b1001000 d
b1001000 j
b10011 $
1"
#11400
0"
#11700
b111100 !
b111100 *
b1001100 +
b1001100 .
b1001100 H
b1001100 U
b1001100 d
b1001100 j
b10100 $
1"
#12000
0"
#12300
b1000000 !
b1000000 *
b1010000 +
b1010000 .
b1010000 H
b1010000 U
b1010000 d
b1010000 j
b10101 $
1"
#12600
0"
#12900
b1000100 !
b1000100 *
b1010100 +
b1010100 .
b1010100 H
b1010100 U
b1010100 d
b1010100 j
b10110 $
1"
#13200
0"
#13500
b1001000 !
b1001000 *
b1011000 +
b1011000 .
b1011000 H
b1011000 U
b1011000 d
b1011000 j
b10111 $
1"
#13800
0"
#14100
b1001100 !
b1001100 *
b1011100 +
b1011100 .
b1011100 H
b1011100 U
b1011100 d
b1011100 j
b11000 $
1"
#14400
0"
#14700
b1010000 !
b1010000 *
b1100000 +
b1100000 .
b1100000 H
b1100000 U
b1100000 d
b1100000 j
b11001 $
1"
#15000
0"
#15300
b1010100 !
b1010100 *
b1100100 +
b1100100 .
b1100100 H
b1100100 U
b1100100 d
b1100100 j
b11010 $
1"
#15600
0"
#15900
b1011000 !
b1011000 *
b1101000 +
b1101000 .
b1101000 H
b1101000 U
b1101000 d
b1101000 j
b11011 $
1"
#16200
0"
#16500
b1011100 !
b1011100 *
b1101100 +
b1101100 .
b1101100 H
b1101100 U
b1101100 d
b1101100 j
b11100 $
1"
#16800
0"
#17100
b1100000 !
b1100000 *
b1110000 +
b1110000 .
b1110000 H
b1110000 U
b1110000 d
b1110000 j
b11101 $
1"
#17400
0"
#17700
b1100100 !
b1100100 *
b1110100 +
b1110100 .
b1110100 H
b1110100 U
b1110100 d
b1110100 j
b11110 $
1"
#18000
0"
#18300
b1101000 !
b1101000 *
b1111000 +
b1111000 .
b1111000 H
b1111000 U
b1111000 d
b1111000 j
b11111 $
1"
#18600
0"
#18900
b1101100 !
b1101100 *
b1111100 +
b1111100 .
b1111100 H
b1111100 U
b1111100 d
b1111100 j
b100000 $
1"
#19200
0"
#19500
b1110000 !
b1110000 *
b10000000 +
b10000000 .
b10000000 H
b10000000 U
b10000000 d
b10000000 j
b100001 $
1"
#19800
0"
#20100
b1110100 !
b1110100 *
b10000100 +
b10000100 .
b10000100 H
b10000100 U
b10000100 d
b10000100 j
b100010 $
1"
#20400
0"
#20700
b1111000 !
b1111000 *
b10001000 +
b10001000 .
b10001000 H
b10001000 U
b10001000 d
b10001000 j
b100011 $
1"
#21000
0"
#21300
b1111100 !
b1111100 *
b10001100 +
b10001100 .
b10001100 H
b10001100 U
b10001100 d
b10001100 j
b100100 $
1"
#21600
0"
#21900
b10000000 !
b10000000 *
b10010000 +
b10010000 .
b10010000 H
b10010000 U
b10010000 d
b10010000 j
b100101 $
1"
#22200
0"
#22500
b10000100 !
b10000100 *
b10010100 +
b10010100 .
b10010100 H
b10010100 U
b10010100 d
b10010100 j
b100110 $
1"
#22800
0"
#23100
b10001000 !
b10001000 *
b10011000 +
b10011000 .
b10011000 H
b10011000 U
b10011000 d
b10011000 j
b100111 $
1"
#23400
0"
#23700
b10001100 !
b10001100 *
b10011100 +
b10011100 .
b10011100 H
b10011100 U
b10011100 d
b10011100 j
b101000 $
1"
#24000
0"
#24300
b10010000 !
b10010000 *
b10100000 +
b10100000 .
b10100000 H
b10100000 U
b10100000 d
b10100000 j
b101001 $
1"
#24600
0"
#24900
b10010100 !
b10010100 *
b10100100 +
b10100100 .
b10100100 H
b10100100 U
b10100100 d
b10100100 j
b101010 $
1"
#25200
0"
#25500
b10011000 !
b10011000 *
b10101000 +
b10101000 .
b10101000 H
b10101000 U
b10101000 d
b10101000 j
b101011 $
1"
#25800
0"
#26100
b10011100 !
b10011100 *
b10101100 +
b10101100 .
b10101100 H
b10101100 U
b10101100 d
b10101100 j
b101100 $
1"
#26400
0"
#26700
b10100000 !
b10100000 *
b10110000 +
b10110000 .
b10110000 H
b10110000 U
b10110000 d
b10110000 j
b101101 $
1"
#27000
0"
#27300
b10100100 !
b10100100 *
b10110100 +
b10110100 .
b10110100 H
b10110100 U
b10110100 d
b10110100 j
b101110 $
1"
#27600
0"
#27900
b10101000 !
b10101000 *
b10111000 +
b10111000 .
b10111000 H
b10111000 U
b10111000 d
b10111000 j
b101111 $
1"
#28200
0"
#28500
b10101100 !
b10101100 *
b10111100 +
b10111100 .
b10111100 H
b10111100 U
b10111100 d
b10111100 j
b110000 $
1"
#28800
0"
#29100
b10110000 !
b10110000 *
b11000000 +
b11000000 .
b11000000 H
b11000000 U
b11000000 d
b11000000 j
b110001 $
1"
#29400
0"
#29700
b10110100 !
b10110100 *
b11000100 +
b11000100 .
b11000100 H
b11000100 U
b11000100 d
b11000100 j
b110010 $
1"
#30000
0"
#30300
b10111000 !
b10111000 *
b11001000 +
b11001000 .
b11001000 H
b11001000 U
b11001000 d
b11001000 j
b110011 $
1"
#30600
0"
#30900
b10111100 !
b10111100 *
b11001100 +
b11001100 .
b11001100 H
b11001100 U
b11001100 d
b11001100 j
b110100 $
1"
#31200
0"
#31500
b11000000 !
b11000000 *
b11010000 +
b11010000 .
b11010000 H
b11010000 U
b11010000 d
b11010000 j
b110101 $
1"
#31800
0"
#32100
b11000100 !
b11000100 *
b11010100 +
b11010100 .
b11010100 H
b11010100 U
b11010100 d
b11010100 j
b110110 $
1"
#32400
0"
#32700
b11001000 !
b11001000 *
b11011000 +
b11011000 .
b11011000 H
b11011000 U
b11011000 d
b11011000 j
b110111 $
1"
#33000
0"
#33300
b11001100 !
b11001100 *
b11011100 +
b11011100 .
b11011100 H
b11011100 U
b11011100 d
b11011100 j
b111000 $
1"
#33600
0"
#33900
b11010000 !
b11010000 *
b11100000 +
b11100000 .
b11100000 H
b11100000 U
b11100000 d
b11100000 j
b111001 $
1"
#34200
0"
#34500
b11010100 !
b11010100 *
b11100100 +
b11100100 .
b11100100 H
b11100100 U
b11100100 d
b11100100 j
b111010 $
1"
#34800
0"
#35100
b11011000 !
b11011000 *
b11101000 +
b11101000 .
b11101000 H
b11101000 U
b11101000 d
b11101000 j
b111011 $
1"
#35400
0"
#35700
b11011100 !
b11011100 *
b11101100 +
b11101100 .
b11101100 H
b11101100 U
b11101100 d
b11101100 j
b111100 $
1"
#36000
0"
#36300
b11100000 !
b11100000 *
b11110000 +
b11110000 .
b11110000 H
b11110000 U
b11110000 d
b11110000 j
b111101 $
1"
#36600
0"
#36900
b11100100 !
b11100100 *
b11110100 +
b11110100 .
b11110100 H
b11110100 U
b11110100 d
b11110100 j
b111110 $
1"
#37200
0"
#37500
b11101000 !
b11101000 *
b11111000 +
b11111000 .
b11111000 H
b11111000 U
b11111000 d
b11111000 j
b111111 $
1"
#37800
0"
#38100
b11101100 !
b11101100 *
b11111100 +
b11111100 .
b11111100 H
b11111100 U
b11111100 d
b11111100 j
b1000000 $
1"
#38400
0"
#38700
b11110000 !
b11110000 *
b100000000 +
b100000000 .
b100000000 H
b100000000 U
b100000000 d
b100000000 j
b1000001 $
1"
#39000
0"
#39300
b11110100 !
b11110100 *
b100000100 +
b100000100 .
b100000100 H
b100000100 U
b100000100 d
b100000100 j
b1000010 $
1"
#39600
0"
#39900
b11111000 !
b11111000 *
b100001000 +
b100001000 .
b100001000 H
b100001000 U
b100001000 d
b100001000 j
b1000011 $
1"
#40200
0"
#40500
b11111100 !
b11111100 *
b100001100 +
b100001100 .
b100001100 H
b100001100 U
b100001100 d
b100001100 j
b1000100 $
1"
#40800
0"
#41100
b100000000 !
b100000000 *
b100010000 +
b100010000 .
b100010000 H
b100010000 U
b100010000 d
b100010000 j
b1000101 $
1"
#41400
0"
#41700
b100000100 !
b100000100 *
b100010100 +
b100010100 .
b100010100 H
b100010100 U
b100010100 d
b100010100 j
b1000110 $
1"
#42000
0"
#42300
b100001000 !
b100001000 *
b100011000 +
b100011000 .
b100011000 H
b100011000 U
b100011000 d
b100011000 j
b1000111 $
1"
#42600
0"
#42900
b100001100 !
b100001100 *
b100011100 +
b100011100 .
b100011100 H
b100011100 U
b100011100 d
b100011100 j
b1001000 $
1"
#43200
0"
#43500
b100010000 !
b100010000 *
b100100000 +
b100100000 .
b100100000 H
b100100000 U
b100100000 d
b100100000 j
b1001001 $
1"
#43800
0"
#44100
b100010100 !
b100010100 *
b100100100 +
b100100100 .
b100100100 H
b100100100 U
b100100100 d
b100100100 j
b1001010 $
1"
#44400
0"
#44700
b100011000 !
b100011000 *
b100101000 +
b100101000 .
b100101000 H
b100101000 U
b100101000 d
b100101000 j
b1001011 $
1"
#45000
0"
#45300
b100011100 !
b100011100 *
b100101100 +
b100101100 .
b100101100 H
b100101100 U
b100101100 d
b100101100 j
b1001100 $
1"
#45600
0"
#45900
b100100000 !
b100100000 *
b100110000 +
b100110000 .
b100110000 H
b100110000 U
b100110000 d
b100110000 j
b1001101 $
1"
#46200
0"
#46500
b100100100 !
b100100100 *
b100110100 +
b100110100 .
b100110100 H
b100110100 U
b100110100 d
b100110100 j
b1001110 $
1"
#46800
0"
#47100
b100101000 !
b100101000 *
b100111000 +
b100111000 .
b100111000 H
b100111000 U
b100111000 d
b100111000 j
b1001111 $
1"
#47400
0"
#47700
b100101100 !
b100101100 *
b100111100 +
b100111100 .
b100111100 H
b100111100 U
b100111100 d
b100111100 j
b1010000 $
1"
#48000
0"
#48300
b100110000 !
b100110000 *
b101000000 +
b101000000 .
b101000000 H
b101000000 U
b101000000 d
b101000000 j
b1010001 $
1"
#48600
0"
#48900
b100110100 !
b100110100 *
b101000100 +
b101000100 .
b101000100 H
b101000100 U
b101000100 d
b101000100 j
b1010010 $
1"
#49200
0"
#49500
b100111000 !
b100111000 *
b101001000 +
b101001000 .
b101001000 H
b101001000 U
b101001000 d
b101001000 j
b1010011 $
1"
#49800
0"
#50100
b100111100 !
b100111100 *
b101001100 +
b101001100 .
b101001100 H
b101001100 U
b101001100 d
b101001100 j
b1010100 $
1"
#50400
0"
#50700
b101000000 !
b101000000 *
b101010000 +
b101010000 .
b101010000 H
b101010000 U
b101010000 d
b101010000 j
b1010101 $
1"
#51000
0"
#51300
b101000100 !
b101000100 *
b101010100 +
b101010100 .
b101010100 H
b101010100 U
b101010100 d
b101010100 j
b1010110 $
1"
#51600
0"
#51900
b101001000 !
b101001000 *
b101011000 +
b101011000 .
b101011000 H
b101011000 U
b101011000 d
b101011000 j
b1010111 $
1"
#52200
0"
#52500
b101001100 !
b101001100 *
b101011100 +
b101011100 .
b101011100 H
b101011100 U
b101011100 d
b101011100 j
b1011000 $
1"
#52800
0"
#53100
b101010000 !
b101010000 *
b101100000 +
b101100000 .
b101100000 H
b101100000 U
b101100000 d
b101100000 j
b1011001 $
1"
#53400
0"
#53700
b101010100 !
b101010100 *
b101100100 +
b101100100 .
b101100100 H
b101100100 U
b101100100 d
b101100100 j
b1011010 $
1"
#54000
0"
#54300
b101011000 !
b101011000 *
b101101000 +
b101101000 .
b101101000 H
b101101000 U
b101101000 d
b101101000 j
b1011011 $
1"
#54600
0"
#54900
b101011100 !
b101011100 *
b101101100 +
b101101100 .
b101101100 H
b101101100 U
b101101100 d
b101101100 j
b1011100 $
1"
#55200
0"
#55500
b101100000 !
b101100000 *
b101110000 +
b101110000 .
b101110000 H
b101110000 U
b101110000 d
b101110000 j
b1011101 $
1"
#55800
0"
#56100
b101100100 !
b101100100 *
b101110100 +
b101110100 .
b101110100 H
b101110100 U
b101110100 d
b101110100 j
b1011110 $
1"
#56400
0"
#56700
b101101000 !
b101101000 *
b101111000 +
b101111000 .
b101111000 H
b101111000 U
b101111000 d
b101111000 j
b1011111 $
1"
#57000
0"
#57300
b101101100 !
b101101100 *
b101111100 +
b101111100 .
b101111100 H
b101111100 U
b101111100 d
b101111100 j
b1100000 $
1"
#57600
0"
#57900
b101110000 !
b101110000 *
b110000000 +
b110000000 .
b110000000 H
b110000000 U
b110000000 d
b110000000 j
b1100001 $
1"
#58200
0"
#58500
b101110100 !
b101110100 *
b110000100 +
b110000100 .
b110000100 H
b110000100 U
b110000100 d
b110000100 j
b1100010 $
1"
#58800
0"
#59100
b101111000 !
b101111000 *
b110001000 +
b110001000 .
b110001000 H
b110001000 U
b110001000 d
b110001000 j
b1100011 $
1"
#59400
0"
#59700
b101111100 !
b101111100 *
b110001100 +
b110001100 .
b110001100 H
b110001100 U
b110001100 d
b110001100 j
b1100100 $
1"
#60000
0"
#60300
b110000000 !
b110000000 *
b110010000 +
b110010000 .
b110010000 H
b110010000 U
b110010000 d
b110010000 j
b1100101 $
1"
#60600
0"
#60900
b110000100 !
b110000100 *
b110010100 +
b110010100 .
b110010100 H
b110010100 U
b110010100 d
b110010100 j
b1100110 $
1"
#61200
0"
#61500
b110001000 !
b110001000 *
b110011000 +
b110011000 .
b110011000 H
b110011000 U
b110011000 d
b110011000 j
b1100111 $
1"
#61800
0"
#62100
b110001100 !
b110001100 *
b110011100 +
b110011100 .
b110011100 H
b110011100 U
b110011100 d
b110011100 j
b1101000 $
1"
#62400
0"
#62700
b110010000 !
b110010000 *
b110100000 +
b110100000 .
b110100000 H
b110100000 U
b110100000 d
b110100000 j
b1101001 $
1"
#63000
0"
#63300
b110010100 !
b110010100 *
b110100100 +
b110100100 .
b110100100 H
b110100100 U
b110100100 d
b110100100 j
b1101010 $
1"
#63600
0"
#63900
b110011000 !
b110011000 *
b110101000 +
b110101000 .
b110101000 H
b110101000 U
b110101000 d
b110101000 j
b1101011 $
1"
#64200
0"
#64500
b110011100 !
b110011100 *
b110101100 +
b110101100 .
b110101100 H
b110101100 U
b110101100 d
b110101100 j
b1101100 $
1"
#64800
0"
#65100
b110100000 !
b110100000 *
b110110000 +
b110110000 .
b110110000 H
b110110000 U
b110110000 d
b110110000 j
b1101101 $
1"
#65400
0"
#65700
b110100100 !
b110100100 *
b110110100 +
b110110100 .
b110110100 H
b110110100 U
b110110100 d
b110110100 j
b1101110 $
1"
#66000
0"
#66300
b110101000 !
b110101000 *
b110111000 +
b110111000 .
b110111000 H
b110111000 U
b110111000 d
b110111000 j
b1101111 $
1"
#66600
0"
#66900
b110101100 !
b110101100 *
b110111100 +
b110111100 .
b110111100 H
b110111100 U
b110111100 d
b110111100 j
b1110000 $
1"
#67200
0"
#67500
b110110000 !
b110110000 *
b111000000 +
b111000000 .
b111000000 H
b111000000 U
b111000000 d
b111000000 j
b1110001 $
1"
#67800
0"
#68100
b110110100 !
b110110100 *
b111000100 +
b111000100 .
b111000100 H
b111000100 U
b111000100 d
b111000100 j
b1110010 $
1"
#68400
0"
#68700
b110111000 !
b110111000 *
b111001000 +
b111001000 .
b111001000 H
b111001000 U
b111001000 d
b111001000 j
b1110011 $
1"
#69000
0"
#69300
b110111100 !
b110111100 *
b111001100 +
b111001100 .
b111001100 H
b111001100 U
b111001100 d
b111001100 j
b1110100 $
1"
#69600
0"
#69900
b111000000 !
b111000000 *
b111010000 +
b111010000 .
b111010000 H
b111010000 U
b111010000 d
b111010000 j
b1110101 $
1"
#70200
0"
#70500
b111000100 !
b111000100 *
b111010100 +
b111010100 .
b111010100 H
b111010100 U
b111010100 d
b111010100 j
b1110110 $
1"
#70800
0"
#71100
b111001000 !
b111001000 *
b111011000 +
b111011000 .
b111011000 H
b111011000 U
b111011000 d
b111011000 j
b1110111 $
1"
#71400
0"
#71700
b111001100 !
b111001100 *
b111011100 +
b111011100 .
b111011100 H
b111011100 U
b111011100 d
b111011100 j
b1111000 $
1"
#72000
0"
#72300
b111010000 !
b111010000 *
b111100000 +
b111100000 .
b111100000 H
b111100000 U
b111100000 d
b111100000 j
b1111001 $
1"
#72600
0"
#72900
b111010100 !
b111010100 *
b111100100 +
b111100100 .
b111100100 H
b111100100 U
b111100100 d
b111100100 j
b1111010 $
1"
#73200
0"
#73500
b111011000 !
b111011000 *
b111101000 +
b111101000 .
b111101000 H
b111101000 U
b111101000 d
b111101000 j
b1111011 $
1"
#73800
0"
#74100
b111011100 !
b111011100 *
b111101100 +
b111101100 .
b111101100 H
b111101100 U
b111101100 d
b111101100 j
b1111100 $
1"
#74400
0"
#74700
b111100000 !
b111100000 *
b111110000 +
b111110000 .
b111110000 H
b111110000 U
b111110000 d
b111110000 j
b1111101 $
1"
#75000
0"
#75300
b111100100 !
b111100100 *
b111110100 +
b111110100 .
b111110100 H
b111110100 U
b111110100 d
b111110100 j
b1111110 $
1"
#75600
0"
#75900
b111101000 !
b111101000 *
b111111000 +
b111111000 .
b111111000 H
b111111000 U
b111111000 d
b111111000 j
b1111111 $
1"
#76200
0"
#76500
b111101100 !
b111101100 *
b111111100 +
b111111100 .
b111111100 H
b111111100 U
b111111100 d
b111111100 j
b10000000 $
1"
#76800
0"
#77100
b111110000 !
b111110000 *
b1000000000 +
b1000000000 .
b1000000000 H
b1000000000 U
b1000000000 d
b1000000000 j
b10000001 $
1"
#77400
0"
#77700
b111110100 !
b111110100 *
b1000000100 +
b1000000100 .
b1000000100 H
b1000000100 U
b1000000100 d
b1000000100 j
b10000010 $
1"
#78000
0"
#78300
b111111000 !
b111111000 *
b1000001000 +
b1000001000 .
b1000001000 H
b1000001000 U
b1000001000 d
b1000001000 j
b10000011 $
1"
#78600
0"
#78900
b111111100 !
b111111100 *
b1000001100 +
b1000001100 .
b1000001100 H
b1000001100 U
b1000001100 d
b1000001100 j
b10000100 $
1"
#79200
0"
#79500
b1000000000 !
b1000000000 *
b1000010000 +
b1000010000 .
b1000010000 H
b1000010000 U
b1000010000 d
b1000010000 j
b10000101 $
1"
#79800
0"
#80100
b1000000100 !
b1000000100 *
b1000010100 +
b1000010100 .
b1000010100 H
b1000010100 U
b1000010100 d
b1000010100 j
b10000110 $
1"
#80400
0"
