pipelinecpu/build/test.vcd
$date
	Mon May  6 01:27:29 2024
$end
$version
	Icarus Verilog
$end
$timescale
	1ns
$end
$scope module CPU_tb $end
$var wire 32 ! pc [31:0] $end
$var reg 1 " clk $end
$var reg 1 # reset $end
$var integer 32 $ counter [31:0] $end
$scope module cpu $end
$var wire 1 " clk $end
$var wire 1 # reset $end
$var wire 32 % test [31:0] $end
$var wire 32 & test1 [31:0] $end
$var wire 1 ' pcWriteEnable $end
$var wire 32 ( pcWriteData [31:0] $end
$var wire 32 ) instr [31:0] $end
$var wire 1 * hazard $end
$var wire 1 + flush $end
$var reg 32 , PC [31:0] $end
$scope module ID $end
$var wire 32 - PC [31:0] $end
$var wire 1 " clk $end
$var wire 32 . instr [31:0] $end
$var wire 1 # reset $end
$var wire 5 / testr1 [4:0] $end
$var wire 1 ' pcWriteEnable $end
$var wire 32 0 pcWriteData [31:0] $end
$var wire 1 * hazard $end
$var wire 1 + flush $end
$scope module EX $end
$var wire 32 1 PC [31:0] $end
$var wire 1 " clk $end
$var wire 3 2 func3 [2:0] $end
$var wire 7 3 func7 [6:0] $end
$var wire 32 4 imm [31:0] $end
$var wire 7 5 opcode [6:0] $end
$var wire 5 6 regNum0 [4:0] $end
$var wire 5 7 regNum1 [4:0] $end
$var wire 5 8 regWriteNum [4:0] $end
$var wire 1 # reset $end
$var wire 1 9 regWriteEnable $end
$var wire 32 : regWriteData [31:0] $end
$var wire 32 ; regReadData1 [31:0] $end
$var wire 32 < regReadData0 [31:0] $end
$var wire 1 ' pcWriteEnable $end
$var wire 32 = pcWriteData [31:0] $end
$var wire 2 > forwardB [1:0] $end
$var wire 2 ? forwardA [1:0] $end
$var wire 1 + flush $end
$var wire 32 @ data [31:0] $end
$var wire 32 A aluO [31:0] $end
$var reg 4 B aluOp [3:0] $end
$var reg 32 C aluX [31:0] $end
$var reg 32 D aluY [31:0] $end
$var reg 1 * hazard $end
$var reg 1 E waithazard $end
$scope module Forwarding $end
$var wire 1 " clk $end
$var wire 5 F regReadNum0 [4:0] $end
$var wire 5 G regReadNum1 [4:0] $end
$var wire 5 H regWriteNum [4:0] $end
$var wire 1 + flush $end
$var reg 2 I forwardA [1:0] $end
$var reg 2 J forwardB [1:0] $end
$upscope $end
$scope module RF $end
$var wire 32 K PC [31:0] $end
$var wire 1 " clk $end
$var wire 5 L regNum0 [4:0] $end
$var wire 5 M regNum1 [4:0] $end
$var wire 32 N regWriteData [31:0] $end
$var wire 1 O regWriteEnable $end
$var wire 5 P regWriteNum [4:0] $end
$var wire 1 # reset $end
$var wire 32 Q regReadData1 [31:0] $end
$var wire 32 R regReadData0 [31:0] $end
$var integer 32 S i [31:0] $end
$upscope $end
$scope module alu $end
$var wire 4 T aluOp [3:0] $end
$var wire 32 U aluX [31:0] $end
$var wire 32 V aluY [31:0] $end
$var reg 32 W aluO [31:0] $end
$upscope $end
$scope module control $end
$var wire 32 X PC [31:0] $end
$var wire 32 Y aluO [31:0] $end
$var wire 1 " clk $end
$var wire 2 Z forwordB [1:0] $end
$var wire 3 [ func3 [2:0] $end
$var wire 32 \ imm [31:0] $end
$var wire 32 ] regReadData1 [31:0] $end
$var wire 1 # reset $end
$var wire 3 ^ state [2:0] $end
$var wire 32 _ memReadData [31:0] $end
$var reg 32 ` data [31:0] $end
$var reg 32 a data1 [31:0] $end
$var reg 32 b data2 [31:0] $end
$var reg 32 c memAddr [31:0] $end
$var reg 32 d memWriteData [31:0] $end
$var reg 1 e memWriteEnable $end
$var reg 32 f pcWriteData [31:0] $end
$var reg 1 ' pcWriteEnable $end
$var reg 32 g regWriteData [31:0] $end
$var reg 1 9 regWriteEnable $end
$scope module mem $end
$var wire 32 h PC [31:0] $end
$var wire 1 " clk $end
$var wire 3 i func3 [2:0] $end
$var wire 32 j memAddr [31:0] $end
$var wire 32 k memWriteData [31:0] $end
$var wire 1 e memWriteEnable $end
$var reg 32 l memReadData [31:0] $end
$upscope $end
$upscope $end
$upscope $end
$upscope $end
$scope module flushing $end
$var wire 1 " clk $end
$var wire 1 ' pcWriteEnable $end
$var wire 1 + flush $end
$var integer 32 m i [31:0] $end
$upscope $end
$scope module instrMem $end
$var wire 32 n instrAddr [31:0] $end
$var wire 32 o instrData [31:0] $end
$upscope $end
$upscope $end
$upscope $end
$enddefinitions $end
$comment Show the parameter values. $end
$dumpall
$end
#0
$dumpvars
bx o
b11111111111111111111111111111100 n
b0 m
bx l
bx k
bx j
bx i
b11111111111111111111111111111100 h
bx g
b0 f
xe
bx d
bx c
bx b
bx a
bx `
bx _
bx ^
bx ]
bx \
bx [
b0 Z
bx Y
b11111111111111111111111111111100 X
bx W
bx V
bx U
bx T
b100000 S
bx R
bx Q
bx P
xO
bx N
bx M
bx L
b11111111111111111111111111111100 K
b0 J
b0 I
bx H
bx G
bx F
0E
bx D
bx C
bx B
bx A
bx @
b0 ?
b0 >
b0 =
bx <
bx ;
bx :
x9
bx 8
bx 7
bx 6
bx 5
bx 4
bx 3
bx 2
b11111111111111111111111111111100 1
b0 0
bx /
bx .
b11111111111111111111111111111100 -
bx ,
0+
0*
bx )
b0 (
0'
b11111111111111111111111111111100 &
b0 %
b0 $
x#
0"
bx !
$end
#300
b0 d
b0 k
0e
09
b0 :
b0 g
b10100000000001010010011 )
b10100000000001010010011 o
b100 %
b0 ^
b0 &
b0 -
b0 1
b0 K
b0 X
b0 h
b0 n
b1 $
1"
#600
0"
#900
b10100000010000000100011 )
b10100000010000000100011 o
b1000 %
b101 /
b100 &
b100 -
b100 1
b100 K
b100 X
b100 h
b100 n
b10100000000001010010011 .
0O
b0 N
b10 $
1"
#1200
0"
#1500
b101 A
b101 W
b0 C
b0 U
b0 ;
b0 Q
b0 <
b0 R
b10001100000011 )
b10001100000011 o
b101 D
b101 V
b0 B
b0 T
b1100 %
b0 /
b101 4
b101 7
b101 G
b101 M
b0 6
b0 F
b0 L
b101 8
b101 H
b0 3
b0 2
b10011 5
b1000 &
b1000 -
b1000 1
b1000 K
b1000 X
b1000 h
b1000 n
b10100000010000000100011 .
b11 $
1"
#1800
0"
#2100
b0 A
b0 W
b1000110000001110010011 )
b1000110000001110010011 o
b11111111111111111111111111111100 !
b11111111111111111111111111111100 ,
b10000 %
b110 /
b0 D
b0 V
b10 >
b10 J
b10 Z
b101 @
b101 `
19
b101 :
b101 g
b1100 &
b1100 -
b1100 1
b1100 K
b1100 X
b1100 h
b1100 n
b10001100000011 .
b0 4
b0 8
b0 H
b10 2
b100011 5
b101 Y
b0 ]
b0 [
b0 i
b101 \
b1 ^
b100 $
1"
#2400
0"
#2700
b101 _
b101 l
b0 >
b0 J
b0 Z
09
b0 :
b0 g
1e
b101 d
b101 k
b0 c
b0 j
b11100000000010000010011 )
b11100000000010000010011 o
b0 !
b0 ,
b10100 %
b111 /
b101 b
b101 a
b101 P
1O
b101 N
b0 Y
b101 ]
b10 [
b10 i
b0 \
b11 ^
b0 7
b0 G
b0 M
b110 8
b110 H
b11 5
b10000 &
b10000 -
b10000 1
b10000 K
b10000 X
b10000 h
b10000 n
b1000110000001110010011 .
b101 $
1"
#3000
0"
#3300
b111 A
b111 W
b100000111000111001100011 )
b100000111000111001100011 o
b100 !
b100 ,
b11000 %
b1000 /
b10 D
b10 V
b101 C
b101 U
b10 ?
b10 I
b0 d
b0 k
0e
19
b101 :
b101 g
b10100 &
b10100 -
b10100 1
b10100 K
b10100 X
b10100 h
b10100 n
b11100000000010000010011 .
b10 4
b10 7
b10 G
b10 M
b110 6
b110 F
b110 L
b111 8
b111 H
b0 2
b10011 5
b0 P
0O
b0 N
b0 ]
b10 ^
b110 $
1"
#3600
0"
#3900
b0 C
b0 U
b111 A
b111 W
b10 >
b10 J
b10 Z
b0 ?
b0 I
b111 @
b111 `
b111 :
b111 g
b101000000000010100010011 )
b101000000000010100010011 o
b111 D
b111 V
b1000 !
b1000 ,
b11100 %
b11100 /
b0 b
b110 P
1O
b101 N
b111 Y
b0 [
b0 i
b10 \
b1 ^
b111 4
b111 7
b111 G
b111 M
b0 6
b0 F
b0 L
b1000 8
b1000 H
b11000 &
b11000 -
b11000 1
b11000 K
b11000 X
b11000 h
b11000 n
b100000111000111001100011 .
b111 $
1"
#4200
0"
#4500
b1 A
b1 W
b10001110000011 )
b10001110000011 o
b1100 !
b1100 ,
b100000 %
b1010 /
b111 C
b111 U
b1101 B
b1101 T
b1 ?
b1 I
b11100 &
b11100 -
b11100 1
b11100 K
b11100 X
b11100 h
b11100 n
b101000000000010100010011 .
b11100 4
b1000 7
b1000 G
b1000 M
b111 6
b111 F
b111 L
b11100 8
b11100 H
b1100011 5
b111 P
b111 N
b111 ]
b111 \
b111 b
b111 a
b1000 $
1"
#4800
b111 <
b111 R
0"
#5100
b0 C
b0 U
1+
b11 m
b0 A
b0 W
b0 <
b0 R
b0 >
b0 J
b0 Z
b0 ?
b0 I
09
b0 :
b0 g
b110000 (
b110000 0
b110000 =
b110000 f
1'
b11100101000110001100011 )
b11100101000110001100011 o
b0 D
b0 V
b0 B
b0 T
b10000 !
b10000 ,
b100100 %
b111 /
b1000 P
b1 Y
b11100 \
b100 ^
b1010 4
b1010 7
b1010 G
b1010 M
b0 6
b0 F
b0 L
b1010 8
b1010 H
b10011 5
b100000 &
b100000 -
b100000 1
b100000 K
b100000 X
b100000 h
b100000 n
b10001110000011 .
b1001 $
1"
#5400
0"
#5700
b1110000000000010110010011 )
b1110000000000010110010011 o
b10100 !
b10100 ,
b110100 %
b11000 /
0'
b110000 &
b110000 -
b110000 1
b110000 K
b110000 X
b110000 h
b110000 n
b11100101000110001100011 .
b0 4
b0 7
b0 G
b0 M
b111 8
b111 H
b10 2
b11 5
b11100 P
0O
b0 N
b0 Y
b0 ]
b1010 \
b0 ^
b101 a
b10 m
b1010 $
1"
#6000
0"
#6300
b111 ;
b111 Q
b101 <
b101 R
b1011000000001100111 )
b1011000000001100111 o
b11000 !
b11000 ,
b111000 %
b1011 /
b0 b
b1010 P
b10 [
b10 i
b0 \
b11000 4
b111 7
b111 G
b111 M
b101 6
b101 F
b101 L
b11000 8
b11000 H
b0 2
b1100011 5
b110100 &
b110100 -
b110100 1
b110100 K
b110100 X
b110100 h
b110100 n
b1110000000000010110010011 .
b1 m
b1011 $
1"
#6600
0"
#6900
b11100 A
b11100 W
b10100000000000011000010011 )
b10100000000000011000010011 o
b11100 !
b11100 ,
b111100 %
b0 /
b0 ;
b0 Q
b0 <
b0 R
b111000 &
b111000 -
b111000 1
b111000 K
b111000 X
b111000 h
b111000 n
b1011000000001100111 .
b11100 4
b11100 7
b11100 G
b11100 M
b0 6
b0 F
b0 L
b1011 8
b1011 H
b10011 5
b111 P
b111 ]
b0 [
b0 i
b11000 \
b11100 D
b11100 V
b0 C
b0 U
b0 B
b0 T
0+
b0 m
b1100 $
1"
#7200
0"
#7500
b11100 C
b11100 U
b11100 A
b11100 W
b10 ?
b10 I
b11100 @
b11100 `
19
b11100 :
b11100 g
b110000000010010000100011 )
b110000000010010000100011 o
b0 D
b0 V
b100000 !
b100000 ,
b1000000 %
b1100 /
b111 b
b11000 P
b11100 Y
b0 ]
b11100 \
b1 ^
b0 4
b0 7
b0 G
b0 M
b1011 6
b1011 F
b1011 L
b0 8
b0 H
b1100111 5
b111100 &
b111100 -
b111100 1
b111100 K
b111100 X
b111100 h
b111100 n
b10100000000000011000010011 .
b1101 $
1"
#7800
0"
#8100
b0 A
b0 W
1+
b11 m
b100000000010011010000011 )
b100000000010011010000011 o
b110000 !
b110000 ,
b1000100 %
b1000 /
b111 ;
b111 Q
b0 D
b0 V
b0 C
b0 U
b0 ?
b0 I
b111000 @
b111000 `
b111000 :
b111000 g
b11100 (
b11100 0
b11100 =
b11100 f
1'
b1000000 &
b1000000 -
b1000000 1
b1000000 K
b1000000 X
b1000000 h
b1000000 n
b110000000010010000100011 .
b101000 4
b1000 7
b1000 G
b1000 M
b0 6
b0 F
b0 L
b1100 8
b1100 H
b1 3
b10011 5
b1011 P
1O
b11100 N
b0 \
b101 ^
b0 b
b1110 $
1"
#8400
0"
#8700
b0 ;
b0 Q
0'
09
b0 :
b0 g
b10001110000011 )
b10001110000011 o
b110100 !
b110100 ,
b100000 %
b1101 /
b0 P
b111000 N
b0 Y
b111 ]
b101000 \
b0 ^
b1000 4
b1100 7
b1100 G
b1100 M
b1000 8
b1000 H
b0 3
b10 2
b100011 5
b11100 &
b11100 -
b11100 1
b11100 K
b11100 X
b11100 h
b11100 n
b100000000010011010000011 .
b10 m
b1111 $
1"
#9000
0"
#9300
b11100101000110001100011 )
b11100101000110001100011 o
b111000 !
b111000 ,
b100100 %
b111 /
b111 ;
b111 Q
b100000 &
b100000 -
b100000 1
b100000 K
b100000 X
b100000 h
b100000 n
b10001110000011 .
b1000 7
b1000 G
b1000 M
b1101 8
b1101 H
b11 5
b1100 P
0O
b0 N
b0 ]
b10 [
b10 i
b1000 \
b111 b
b1 m
b10000 $
1"
#9600
0"
#9900
b0 ;
b0 Q
b101000000000010100010011 )
b101000000000010100010011 o
b111100 !
b111100 ,
b101000 %
b11000 /
b0 b
b1000 P
b111 ]
b0 4
b0 7
b0 G
b0 M
b111 8
b111 H
b100100 &
b100100 -
b100100 1
b100100 K
b100100 X
b100100 h
b100100 n
b11100101000110001100011 .
b0 A
b0 W
b0 D
b0 V
0+
b0 m
b10001 $
1"
#10200
0"
#10500
b1 A
b1 W
b101 C
b101 U
b100000000011100010011 )
b100000000011100010011 o
b1000000 !
b1000000 ,
b101100 %
b1010 /
b111 ;
b111 Q
b101 <
b101 R
b101 D
b101 V
b1101 B
b1101 T
b10 >
b10 J
b10 Z
b101 @
b101 `
19
b101 :
b101 g
b101000 &
b101000 -
b101000 1
b101000 K
b101000 X
b101000 h
b101000 n
b101000000000010100010011 .
b11000 4
b111 7
b111 G
b111 M
b101 6
b101 F
b101 L
b11000 8
b11000 H
b0 2
b1100011 5
b1101 P
b0 ]
b0 \
b10 ^
b111 b
b10010 $
1"
#10800
0"
#11100
b0 C
b0 U
1+
b11 m
b0 A
b0 W
b0 ;
b0 Q
b0 <
b0 R
b0 >
b0 J
b0 Z
09
b0 :
b0 g
b111000 (
b111000 0
b111000 =
b111000 f
1'
b1110000000000000001101111 )
b1110000000000000001101111 o
b0 D
b0 V
b0 B
b0 T
b11100 !
b11100 ,
b110000 %
b1110 /
b101 b
b111 P
1O
b101 N
b1 Y
b101 ]
b0 [
b0 i
b11000 \
b100 ^
b1010 4
b1010 7
b1010 G
b1010 M
b0 6
b0 F
b0 L
b1010 8
b1010 H
b10011 5
b101100 &
b101100 -
b101100 1
b101100 K
b101100 X
b101100 h
b101100 n
b100000000011100010011 .
b10011 $
1"
#11400
0"
#11700
b10100000000000011000010011 )
b10100000000000011000010011 o
b100000 !
b100000 ,
b111100 %
b0 /
0'
b111000 &
b111000 -
b111000 1
b111000 K
b111000 X
b111000 h
b111000 n
b1110000000000000001101111 .
b1 4
b1 7
b1 G
b1 M
b1110 8
b1110 H
b11000 P
0O
b0 N
b0 Y
b0 ]
b1010 \
b0 ^
b10 m
b10100 $
1"
#12000
0"
#12300
b110000000010010000100011 )
b110000000010010000100011 o
b100100 !
b100100 ,
b1000000 %
b1100 /
b0 b
b1010 P
b1 \
b11100 4
b11100 7
b11100 G
b11100 M
b0 8
b0 H
b1101111 5
b111100 &
b111100 -
b111100 1
b111100 K
b111100 X
b111100 h
b111100 n
b10100000000000011000010011 .
b1 m
b10101 $
1"
#12600
0"
#12900
b100000000010011010000011 )
b100000000010011010000011 o
b101000 !
b101000 ,
b1000100 %
b1000 /
b111 ;
b111 Q
b1000000 &
b1000000 -
b1000000 1
b1000000 K
b1000000 X
b1000000 h
b1000000 n
b110000000010010000100011 .
b101000 4
b1000 7
b1000 G
b1000 M
b1100 8
b1100 H
b1 3
b10011 5
b1110 P
b11100 \
b101000 A
b101000 W
b101000 D
b101000 V
b0 C
b0 U
0+
b0 m
b10110 $
1"
#13200
0"
#13500
b1000 A
b1000 W
b0 ;
b0 Q
b10 >
b10 J
b10 Z
b101000 @
b101000 `
19
b101000 :
b101000 g
b1101000000001100111 )
b1101000000001100111 o
b1000 D
b1000 V
b101100 !
b101100 ,
b1001000 %
b1101 /
b0 P
b101000 Y
b111 ]
b101000 \
b1 ^
b1000 4
b1100 7
b1100 G
b1100 M
b1000 8
b1000 H
b0 3
b10 2
b100011 5
b1000100 &
b1000100 -
b1000100 1
b1000100 K
b1000100 X
b1000100 h
b1000100 n
b100000000010011010000011 .
b10111 $
1"
#13800
0"
#14100
b10000000000101000001010010011 )
b10000000000101000001010010011 o
b111000 !
b111000 ,
b1001100 %
b0 /
b111 ;
b111 Q
b101000 _
b101000 l
09
b0 :
b0 g
1e
b101000 d
b101000 k
b1000 c
b1000 j
b1001000 &
b1001000 -
b1001000 1
b1001000 K
b1001000 X
b1001000 h
b1001000 n
b1101000000001100111 .
b1000 7
b1000 G
b1000 M
b1101 8
b1101 H
b11 5
b1100 P
1O
b101000 N
b1000 Y
b101000 ]
b10 [
b10 i
b1000 \
b11 ^
b101000 b
b101000 a
b11000 $
1"
#14400
0"
#14700
b101000 C
b101000 U
b101000 A
b101000 W
b0 ;
b0 Q
b0 >
b0 J
b0 Z
b10 ?
b10 I
b0 d
b0 k
0e
19
b101000 :
b101000 g
bx )
bx o
b0 D
b0 V
b111100 !
b111100 ,
b1010000 %
b101 /
b1000 P
0O
b0 N
b10 ^
b0 4
b0 7
b0 G
b0 M
b1101 6
b1101 F
b1101 L
b0 8
b0 H
b0 2
b1100111 5
b1001100 &
b1001100 -
b1001100 1
b1001100 K
b1001100 X
b1001100 h
b1001100 n
b10000000000101000001010010011 .
b11001 $
1"
#15000
0"
#15300
b0 A
b0 W
1+
b11 m
b1000000 !
b1000000 ,
b1010100 %
bx /
b101 <
b101 R
b0 D
b0 V
b0 C
b0 U
b0 ?
b0 I
b1001000 @
b1001000 `
b1001000 :
b1001000 g
b101000 (
b101000 0
b101000 =
b101000 f
1'
b1010000 &
b1010000 -
b1010000 1
b1010000 K
b1010000 X
b1010000 h
b1010000 n
bx .
b100000000 4
b101 6
b101 F
b101 L
b101 8
b101 H
b1000 3
b10011 5
b1101 P
1O
b101000 N
b101000 Y
b0 ]
b0 [
b0 i
b0 \
b101 ^
b11010 $
1"
#15600
0"
#15900
bx ;
bx Q
bx <
bx R
0'
09
b0 :
b0 g
b100000000011100010011 )
b100000000011100010011 o
b1000100 !
b1000100 ,
b101100 %
b0 b
b0 P
b1001000 N
b0 Y
b100000000 \
b0 ^
bz 4
bx 7
bx G
bx M
bx 6
bx F
bx L
bx 8
bx H
bx 3
bx 2
bx 5
b101000 &
b101000 -
b101000 1
b101000 K
b101000 X
b101000 h
b101000 n
b10 m
b11011 $
1"
#16200
0"
#16500
b1110000000000000001101111 )
b1110000000000000001101111 o
b1001000 !
b1001000 ,
b110000 %
b1110 /
b101100 &
b101100 -
b101100 1
b101100 K
b101100 X
b101100 h
b101100 n
b100000000011100010011 .
b101 P
0O
b0 N
bx ]
bx [
bx i
bz \
b1 m
b11100 $
1"
#16800
0"
#17100
b1 A
b1 W
b0 ;
b0 Q
b0 <
b0 R
b1110000000000010110010011 )
b1110000000000010110010011 o
b1 D
b1 V
b0 C
b0 U
b1001100 !
b1001100 ,
b110100 %
b0 /
bx b
bx P
b1 4
b1 7
b1 G
b1 M
b0 6
b0 F
b0 L
b1110 8
b1110 H
b0 3
b0 2
b10011 5
b110000 &
b110000 -
b110000 1
b110000 K
b110000 X
b110000 h
b110000 n
b1110000000000000001101111 .
0+
b0 m
b11101 $
1"
#17400
0"
#17700
b1001000 A
b1001000 W
b1011000000001100111 )
b1011000000001100111 o
b1010000 !
b1010000 ,
b111000 %
b1011 /
b11100 D
b11100 V
b101100 C
b101100 U
b1 @
b1 `
19
b1 :
b1 g
b110100 &
b110100 -
b110100 1
b110100 K
b110100 X
b110100 h
b110100 n
b1110000000000010110010011 .
b11100 4
b11100 7
b11100 G
b11100 M
b0 8
b0 H
b1101111 5
b1 Y
b0 ]
b0 [
b0 i
b1 \
b1 ^
b11110 $
1"
#18000
0"
#18300
b0 D
b0 V
1+
b11 m
b0 A
b0 W
b110000 @
b110000 `
b110000 :
b110000 g
b1001000 (
b1001000 0
b1001000 =
b1001000 f
1'
b10100000000000011000010011 )
b10100000000000011000010011 o
b0 C
b0 U
b101000 !
b101000 ,
b111100 %
b0 /
b0 b
b1110 P
1O
b1 N
b1001000 Y
b11100 \
b101 ^
b1011 8
b1011 H
b10011 5
b111000 &
b111000 -
b111000 1
b111000 K
b111000 X
b111000 h
b111000 n
b1011000000001100111 .
b11111 $
1"
#18600
0"
#18900
b10000000000101000001010010011 )
b10000000000101000001010010011 o
b101100 !
b101100 ,
b1001100 %
b1100 /
b11100 <
b11100 R
0'
09
b0 :
b0 g
b1001000 &
b1001000 -
b1001000 1
b1001000 K
b1001000 X
b1001000 h
b1001000 n
b10100000000000011000010011 .
b0 4
b0 7
b0 G
b0 M
b1011 6
b1011 F
b1011 L
b0 8
b0 H
b1100111 5
b0 P
b110000 N
b0 Y
b0 ^
b10 m
b100000 $
1"
#19200
0"
#19500
b111 ;
b111 Q
b0 <
b0 R
bx )
bx o
b110000 !
b110000 ,
b1010000 %
b101 /
b1011 P
0O
b0 N
b0 \
b101000 4
b1000 7
b1000 G
b1000 M
b0 6
b0 F
b0 L
b1100 8
b1100 H
b1 3
b10011 5
b1001100 &
b1001100 -
b1001100 1
b1001100 K
b1001100 X
b1001100 h
b1001100 n
b10000000000101000001010010011 .
b1 m
b100001 $
1"
#19800
0"
#20100
b101 C
b101 U
b110100 !
b110100 ,
b1010100 %
bx /
b0 ;
b0 Q
b101 <
b101 R
b1010000 &
b1010000 -
b1010000 1
b1010000 K
b1010000 X
b1010000 h
b1010000 n
bx .
b100000000 4
b0 7
b0 G
b0 M
b101 6
b101 F
b101 L
b101 8
b101 H
b1000 3
b0 P
b111 ]
b101000 \
b100000101 A
b100000101 W
b100000000 D
b100000000 V
0+
b0 m
b100010 $
1"
#20400
0"
#20700
bx ;
bx Q
bx <
bx R
b100000101 @
b100000101 `
19
b100000101 :
b100000101 g
b111000 !
b111000 ,
b1011000 %
b111 b
b1100 P
b100000101 Y
b0 ]
b100000000 \
b1 ^
bz 4
bx 7
bx G
bx M
bx 6
bx F
bx L
bx 8
bx H
bx 3
bx 2
bx 5
b1010100 &
b1010100 -
b1010100 1
b1010100 K
b1010100 X
b1010100 h
b1010100 n
b100011 $
1"
#21000
0"
#21300
b1001000 !
b1001000 ,
b1011100 %
09
b0 :
b0 g
b1011000 &
b1011000 -
b1011000 1
b1011000 K
b1011000 X
b1011000 h
b1011000 n
b101 P
1O
b100000101 N
bx ]
bx [
bx i
bz \
b0 ^
b0 b
b100100 $
1"
#21600
0"
#21900
b1001100 !
b1001100 ,
b1100000 %
bx b
bx P
0O
b0 N
b1011100 &
b1011100 -
b1011100 1
b1011100 K
b1011100 X
b1011100 h
b1011100 n
b100101 $
1"
#22200
0"
#22500
b1010000 !
b1010000 ,
b1100100 %
b1100000 &
b1100000 -
b1100000 1
b1100000 K
b1100000 X
b1100000 h
b1100000 n
b100110 $
1"
#22800
0"
#23100
b1010100 !
b1010100 ,
b1101000 %
b1100100 &
b1100100 -
b1100100 1
b1100100 K
b1100100 X
b1100100 h
b1100100 n
b100111 $
1"
#23400
0"
#23700
b1011000 !
b1011000 ,
b1101100 %
b1101000 &
b1101000 -
b1101000 1
b1101000 K
b1101000 X
b1101000 h
b1101000 n
b101000 $
1"
#24000
0"
#24300
b1011100 !
b1011100 ,
b1110000 %
b1101100 &
b1101100 -
b1101100 1
b1101100 K
b1101100 X
b1101100 h
b1101100 n
b101001 $
1"
#24600
0"
#24900
b1100000 !
b1100000 ,
b1110100 %
b1110000 &
b1110000 -
b1110000 1
b1110000 K
b1110000 X
b1110000 h
b1110000 n
b101010 $
1"
#25200
0"
#25500
b1100100 !
b1100100 ,
b1111000 %
b1110100 &
b1110100 -
b1110100 1
b1110100 K
b1110100 X
b1110100 h
b1110100 n
b101011 $
1"
#25800
0"
#26100
b1101000 !
b1101000 ,
b1111100 %
b1111000 &
b1111000 -
b1111000 1
b1111000 K
b1111000 X
b1111000 h
b1111000 n
b101100 $
1"
#26400
0"
#26700
b1101100 !
b1101100 ,
b10000000 %
b1111100 &
b1111100 -
b1111100 1
b1111100 K
b1111100 X
b1111100 h
b1111100 n
b101101 $
1"
#27000
0"
#27300
b1110000 !
b1110000 ,
b10000100 %
b10000000 &
b10000000 -
b10000000 1
b10000000 K
b10000000 X
b10000000 h
b10000000 n
b101110 $
1"
#27600
0"
#27900
b1110100 !
b1110100 ,
b10001000 %
b10000100 &
b10000100 -
b10000100 1
b10000100 K
b10000100 X
b10000100 h
b10000100 n
b101111 $
1"
#28200
0"
#28500
b1111000 !
b1111000 ,
b10001100 %
b10001000 &
b10001000 -
b10001000 1
b10001000 K
b10001000 X
b10001000 h
b10001000 n
b110000 $
1"
#28800
0"
#29100
b1111100 !
b1111100 ,
b10010000 %
b10001100 &
b10001100 -
b10001100 1
b10001100 K
b10001100 X
b10001100 h
b10001100 n
b110001 $
1"
#29400
0"
#29700
b10000000 !
b10000000 ,
b10010100 %
b10010000 &
b10010000 -
b10010000 1
b10010000 K
b10010000 X
b10010000 h
b10010000 n
b110010 $
1"
#30000
0"
#30300
b10000100 !
b10000100 ,
b10011000 %
b10010100 &
b10010100 -
b10010100 1
b10010100 K
b10010100 X
b10010100 h
b10010100 n
b110011 $
1"
#30600
0"
#30900
b10001000 !
b10001000 ,
b10011100 %
b10011000 &
b10011000 -
b10011000 1
b10011000 K
b10011000 X
b10011000 h
b10011000 n
b110100 $
1"
#31200
0"
#31500
b10001100 !
b10001100 ,
b10100000 %
b10011100 &
b10011100 -
b10011100 1
b10011100 K
b10011100 X
b10011100 h
b10011100 n
b110101 $
1"
#31800
0"
#32100
b10010000 !
b10010000 ,
b10100100 %
b10100000 &
b10100000 -
b10100000 1
b10100000 K
b10100000 X
b10100000 h
b10100000 n
b110110 $
1"
#32400
0"
#32700
b10010100 !
b10010100 ,
b10101000 %
b10100100 &
b10100100 -
b10100100 1
b10100100 K
b10100100 X
b10100100 h
b10100100 n
b110111 $
1"
#33000
0"
#33300
b10011000 !
b10011000 ,
b10101100 %
b10101000 &
b10101000 -
b10101000 1
b10101000 K
b10101000 X
b10101000 h
b10101000 n
b111000 $
1"
#33600
0"
#33900
b10011100 !
b10011100 ,
b10110000 %
b10101100 &
b10101100 -
b10101100 1
b10101100 K
b10101100 X
b10101100 h
b10101100 n
b111001 $
1"
#34200
0"
#34500
b10100000 !
b10100000 ,
b10110100 %
b10110000 &
b10110000 -
b10110000 1
b10110000 K
b10110000 X
b10110000 h
b10110000 n
b111010 $
1"
#34800
0"
#35100
b10100100 !
b10100100 ,
b10111000 %
b10110100 &
b10110100 -
b10110100 1
b10110100 K
b10110100 X
b10110100 h
b10110100 n
b111011 $
1"
#35400
0"
#35700
b10101000 !
b10101000 ,
b10111100 %
b10111000 &
b10111000 -
b10111000 1
b10111000 K
b10111000 X
b10111000 h
b10111000 n
b111100 $
1"
#36000
0"
#36300
b10101100 !
b10101100 ,
b11000000 %
b10111100 &
b10111100 -
b10111100 1
b10111100 K
b10111100 X
b10111100 h
b10111100 n
b111101 $
1"
#36600
0"
#36900
b10110000 !
b10110000 ,
b11000100 %
b11000000 &
b11000000 -
b11000000 1
b11000000 K
b11000000 X
b11000000 h
b11000000 n
b111110 $
1"
#37200
0"
#37500
b10110100 !
b10110100 ,
b11001000 %
b11000100 &
b11000100 -
b11000100 1
b11000100 K
b11000100 X
b11000100 h
b11000100 n
b111111 $
1"
#37800
0"
#38100
b10111000 !
b10111000 ,
b11001100 %
b11001000 &
b11001000 -
b11001000 1
b11001000 K
b11001000 X
b11001000 h
b11001000 n
b1000000 $
1"
#38400
0"
#38700
b10111100 !
b10111100 ,
b11010000 %
b11001100 &
b11001100 -
b11001100 1
b11001100 K
b11001100 X
b11001100 h
b11001100 n
b1000001 $
1"
#39000
0"
#39300
b11000000 !
b11000000 ,
b11010100 %
b11010000 &
b11010000 -
b11010000 1
b11010000 K
b11010000 X
b11010000 h
b11010000 n
b1000010 $
1"
#39600
0"
#39900
b11000100 !
b11000100 ,
b11011000 %
b11010100 &
b11010100 -
b11010100 1
b11010100 K
b11010100 X
b11010100 h
b11010100 n
b1000011 $
1"
#40200
0"
#40500
b11001000 !
b11001000 ,
b11011100 %
b11011000 &
b11011000 -
b11011000 1
b11011000 K
b11011000 X
b11011000 h
b11011000 n
b1000100 $
1"
#40800
0"
#41100
b11001100 !
b11001100 ,
b11100000 %
b11011100 &
b11011100 -
b11011100 1
b11011100 K
b11011100 X
b11011100 h
b11011100 n
b1000101 $
1"
#41400
0"
#41700
b11010000 !
b11010000 ,
b11100100 %
b11100000 &
b11100000 -
b11100000 1
b11100000 K
b11100000 X
b11100000 h
b11100000 n
b1000110 $
1"
#42000
0"
#42300
b11010100 !
b11010100 ,
b11101000 %
b11100100 &
b11100100 -
b11100100 1
b11100100 K
b11100100 X
b11100100 h
b11100100 n
b1000111 $
1"
#42600
0"
#42900
b11011000 !
b11011000 ,
b11101100 %
b11101000 &
b11101000 -
b11101000 1
b11101000 K
b11101000 X
b11101000 h
b11101000 n
b1001000 $
1"
#43200
0"
#43500
b11011100 !
b11011100 ,
b11110000 %
b11101100 &
b11101100 -
b11101100 1
b11101100 K
b11101100 X
b11101100 h
b11101100 n
b1001001 $
1"
#43800
0"
#44100
b11100000 !
b11100000 ,
b11110100 %
b11110000 &
b11110000 -
b11110000 1
b11110000 K
b11110000 X
b11110000 h
b11110000 n
b1001010 $
1"
#44400
0"
