pipelinecpu/build/test.vcd
$date
	Sat May 11 17:29:43 2024
$end
$version
	Icarus Verilog
$end
$timescale
	1ns
$end
$scope module CPU_tb $end
$var wire 32 ! pc [31:0] $end
$var reg 1 " clk $end
$var reg 1 # reset $end
$var integer 32 $ counter [31:0] $end
$scope module cpu $end
$var wire 1 " clk $end
$var wire 1 # reset $end
$var wire 1 % pcWriteEnable $end
$var wire 32 & pcWriteData [31:0] $end
$var wire 32 ' instr [31:0] $end
$var wire 1 ( hazard $end
$var wire 1 ) flush $end
$var reg 32 * PC [31:0] $end
$scope module ID $end
$var wire 32 + PC [31:0] $end
$var wire 1 " clk $end
$var wire 32 , instr [31:0] $end
$var wire 1 # reset $end
$var wire 1 % pcWriteEnable $end
$var wire 32 - pcWriteData [31:0] $end
$var wire 1 . memReadEnable $end
$var wire 1 ( hazard $end
$var wire 1 ) flush $end
$scope module EX $end
$var wire 32 / PC [31:0] $end
$var wire 1 " clk $end
$var wire 3 0 func3 [2:0] $end
$var wire 7 1 func7 [6:0] $end
$var wire 32 2 imm [31:0] $end
$var wire 7 3 opcode [6:0] $end
$var wire 5 4 regNum0 [4:0] $end
$var wire 5 5 regNum1 [4:0] $end
$var wire 5 6 regWriteNum [4:0] $end
$var wire 1 # reset $end
$var wire 1 7 regWriteEnable $end
$var wire 32 8 regWriteData [31:0] $end
$var wire 32 9 regReadData1 [31:0] $end
$var wire 32 : regReadData0 [31:0] $end
$var wire 1 % pcWriteEnable $end
$var wire 32 ; pcWriteData [31:0] $end
$var wire 1 ( hazard $end
$var wire 2 < forwardB [1:0] $end
$var wire 2 = forwardA [1:0] $end
$var wire 1 ) flush $end
$var wire 32 > data [31:0] $end
$var wire 32 ? aluO [31:0] $end
$var reg 4 @ aluOp [3:0] $end
$var reg 32 A aluX [31:0] $end
$var reg 32 B aluY [31:0] $end
$var reg 1 . memReadEnable $end
$scope module Forwarding $end
$var wire 1 " clk $end
$var wire 5 C regReadNum0 [4:0] $end
$var wire 5 D regReadNum1 [4:0] $end
$var wire 5 E regWriteNum [4:0] $end
$var wire 1 ) flush $end
$var reg 2 F forwardA [1:0] $end
$var reg 2 G forwardB [1:0] $end
$upscope $end
$scope module RF $end
$var wire 32 H PC [31:0] $end
$var wire 1 " clk $end
$var wire 5 I regNum0 [4:0] $end
$var wire 5 J regNum1 [4:0] $end
$var wire 32 K regWriteData [31:0] $end
$var wire 1 L regWriteEnable $end
$var wire 5 M regWriteNum [4:0] $end
$var wire 1 # reset $end
$var wire 32 N regReadData1 [31:0] $end
$var wire 32 O regReadData0 [31:0] $end
$var integer 32 P i [31:0] $end
$upscope $end
$scope module alu $end
$var wire 4 Q aluOp [3:0] $end
$var wire 32 R aluX [31:0] $end
$var wire 32 S aluY [31:0] $end
$var reg 32 T aluO [31:0] $end
$upscope $end
$scope module control $end
$var wire 32 U PC [31:0] $end
$var wire 32 V aluO [31:0] $end
$var wire 1 " clk $end
$var wire 2 W forwordB [1:0] $end
$var wire 3 X func3 [2:0] $end
$var wire 32 Y imm [31:0] $end
$var wire 32 Z regReadData1 [31:0] $end
$var wire 1 # reset $end
$var wire 3 [ state [2:0] $end
$var wire 32 \ memReadData [31:0] $end
$var reg 32 ] data [31:0] $end
$var reg 32 ^ memAddr [31:0] $end
$var reg 32 _ memWriteData [31:0] $end
$var reg 1 ` memWriteEnable $end
$var reg 32 a pcWriteData [31:0] $end
$var reg 1 % pcWriteEnable $end
$var reg 32 b regWriteData [31:0] $end
$var reg 1 7 regWriteEnable $end
$scope module mem $end
$var wire 32 c PC [31:0] $end
$var wire 1 " clk $end
$var wire 3 d func3 [2:0] $end
$var wire 32 e memAddr [31:0] $end
$var wire 32 f memWriteData [31:0] $end
$var wire 1 ` memWriteEnable $end
$var reg 32 g memReadData [31:0] $end
$upscope $end
$upscope $end
$upscope $end
$scope module Hazarding $end
$var wire 1 " clk $end
$var wire 1 . memReadEnable $end
$var wire 5 h regNum0 [4:0] $end
$var wire 5 i regNum1 [4:0] $end
$var wire 5 j regWriteNum [4:0] $end
$var wire 1 # reset $end
$var reg 1 ( hazard $end
$var integer 32 k i [31:0] $end
$upscope $end
$upscope $end
$scope module flushing $end
$var wire 1 " clk $end
$var wire 1 % pcWriteEnable $end
$var wire 1 ) flush $end
$var integer 32 l i [31:0] $end
$upscope $end
$scope module instrMem $end
$var wire 32 m instrAddr [31:0] $end
$var wire 32 n instrData [31:0] $end
$upscope $end
$upscope $end
$upscope $end
$enddefinitions $end
$comment Show the parameter values. $end
$dumpall
$end
#0
$dumpvars
bx n
b11111111111111111111111111111100 m
b0 l
b0x k
bx j
bx i
bx h
bx g
bx f
bx e
bx d
b11111111111111111111111111111100 c
bx b
b0 a
x`
bx _
bx ^
bx ]
bx \
bx [
bx Z
bx Y
bx X
b0 W
bx V
b11111111111111111111111111111100 U
bx T
bx S
bx R
bx Q
b100000 P
bx O
bx N
bx M
xL
bx K
bx J
bx I
b11111111111111111111111111111100 H
b0 G
b0 F
bx E
bx D
bx C
bx B
bx A
bx @
bx ?
bx >
b0 =
b0 <
b0 ;
bx :
bx 9
bx 8
x7
bx 6
bx 5
bx 4
bx 3
bx 2
bx 1
bx 0
b11111111111111111111111111111100 /
x.
b0 -
bx ,
b11111111111111111111111111111100 +
b11111111111111111111111111101100 *
0)
x(
bx '
b0 &
0%
b0 $
x#
0"
b11111111111111111111111111101100 !
$end
#300
b0 B
b0 S
b0 A
b0 R
b0 _
b0 f
0`
07
b0 8
b0 b
0(
b0 9
b0 N
b0 :
b0 O
0.
b0 [
b0 k
b0 6
b0 E
b0 j
b0 5
b0 D
b0 J
b0 4
b0 C
b0 I
b110011 3
b1 $
1"
#600
0"
#900
b10100000000001010010011 '
b10100000000001010010011 n
b11111111111111111111111111110000 !
b11111111111111111111111111110000 *
bx 9
bx N
bx :
bx O
17
bx 8
bx b
b0 +
b0 /
b0 H
b0 U
b0 c
b0 m
bx 6
bx E
bx j
bx 5
bx D
bx J
bx 4
bx C
bx I
bx 3
b1 [
b0 Z
0L
b0 K
b10 $
1"
#1200
0"
#1500
07
b0 8
b0 b
b10100000010000000100011 '
b10100000010000000100011 n
b11111111111111111111111111110100 !
b11111111111111111111111111110100 *
b101 i
b0 h
b0 [
bx Z
b0 M
1L
bx K
b100 +
b100 /
b100 H
b100 U
b100 c
b100 m
b10100000000001010010011 ,
b11 $
1"
#1800
0"
#2100
b101 ?
b101 T
b10001100000011 '
b10001100000011 n
b11111111111111111111111111111000 !
b11111111111111111111111111111000 *
b110 9
b110 N
b0 :
b0 O
b101 B
b101 S
b0 A
b0 R
b0 @
b0 Q
b1000 +
b1000 /
b1000 H
b1000 U
b1000 c
b1000 m
b10100000010000000100011 ,
b101 6
b101 E
b101 j
b101 5
b101 D
b101 J
b0 4
b0 C
b0 I
b10011 3
b101 2
b0 1
b0 0
bx M
0L
b0 K
b100 $
1"
#2400
0"
#2700
b0 ?
b0 T
b10 <
b10 G
b10 W
b101 >
b101 ]
17
b101 8
b101 b
b1000110000001110010011 '
b1000110000001110010011 n
b0 B
b0 S
b11111111111111111111111111111100 !
b11111111111111111111111111111100 *
b0 i
b1 [
b110 Z
b101 Y
b0 X
b0 d
b101 V
b0 6
b0 E
b0 j
b100011 3
b0 2
b10 0
b1100 +
b1100 /
b1100 H
b1100 U
b1100 c
b1100 m
b10001100000011 ,
b101 $
1"
#3000
0"
#3300
1(
b1 k
1.
b11100000000010000010011 '
b11100000000010000010011 n
b0 !
b0 *
b10 i
b110 h
b0 9
b0 N
b101 \
b101 g
b0 <
b0 G
b0 W
07
b0 8
b0 b
1`
b101 _
b101 f
b0 ^
b0 e
b10000 +
b10000 /
b10000 H
b10000 U
b10000 c
b10000 m
b1000110000001110010011 ,
b110 6
b110 E
b110 j
b0 5
b0 D
b0 J
b11 3
b11 [
b101 Z
b101 M
1L
b101 K
b0 Y
b10 X
b10 d
b0 V
b110 $
1"
#3600
0"
#3900
0.
b0 _
b0 f
0`
17
b101 8
b101 b
0(
b110 @
b110 Q
b10 [
b0 Z
b0 M
0L
b0 K
b0 k
b0 6
b0 E
b0 j
b110011 3
b111 $
1"
#4200
0"
#4500
b111 ?
b111 T
b100000111000111001100011 '
b100000111000111001100011 n
b100 !
b100 *
b111 i
b0 h
b11 9
b11 N
b111 :
b111 O
b10 B
b10 S
b101 A
b101 R
b0 @
b0 Q
b1 =
b1 F
b0 >
b0 ]
b0 8
b0 b
b10100 +
b10100 /
b10100 H
b10100 U
b10100 c
b10100 m
b11100000000010000010011 ,
b111 6
b111 E
b111 j
b10 5
b10 D
b10 J
b110 4
b110 C
b110 I
b10011 3
b10 2
b0 0
b1 [
b110 M
1L
b101 K
b1000 $
1"
#4800
b101 :
b101 O
0"
#5100
b1000 9
b1000 N
b10 <
b10 G
b10 W
b0 =
b0 F
b0 :
b0 O
b111 >
b111 ]
b111 8
b111 b
b101000000000010100010011 '
b101000000000010100010011 n
b111 B
b111 S
b0 A
b0 R
b1000 !
b1000 *
b1000 i
b111 h
b11 Z
b0 M
b0 K
b10 Y
b0 X
b0 d
b111 V
b1000 6
b1000 E
b1000 j
b111 5
b111 D
b111 J
b0 4
b0 C
b0 I
b111 2
b11000 +
b11000 /
b11000 H
b11000 U
b11000 c
b11000 m
b100000111000111001100011 ,
b1001 $
1"
#5400
0"
#5700
b1 ?
b1 T
b10001110000011 '
b10001110000011 n
b1100 !
b1100 *
b1010 i
b0 h
b1001 9
b1001 N
b1000 :
b1000 O
b111 A
b111 R
b1101 @
b1101 Q
b1 =
b1 F
b11100 +
b11100 /
b11100 H
b11100 U
b11100 c
b11100 m
b101000000000010100010011 ,
b11100 6
b11100 E
b11100 j
b1000 5
b1000 D
b1000 J
b111 4
b111 C
b111 I
b1100011 3
b11100 2
b111 Z
b111 M
b111 K
b111 Y
b1010 $
1"
#6000
b111 :
b111 O
0"
#6300
b0 A
b0 R
1)
b11 l
b0 ?
b0 T
b1011 9
b1011 N
b0 <
b0 G
b0 W
b0 =
b0 F
b0 :
b0 O
07
b0 8
b0 b
b110000 &
b110000 -
b110000 ;
b110000 a
1%
b11100101000110001100011 '
b11100101000110001100011 n
b0 B
b0 S
b0 @
b0 Q
b10000 !
b10000 *
b0 i
b100 [
b1000 M
b11100 Y
b1 V
b1010 6
b1010 E
b1010 j
b1010 5
b1010 D
b1010 J
b0 4
b0 C
b0 I
b10011 3
b1010 2
b100000 +
b100000 /
b100000 H
b100000 U
b100000 c
b100000 m
b10001110000011 ,
b1011 $
1"
#6600
0"
#6900
b1110000000000010110010011 '
b1110000000000010110010011 n
b100000 !
b100000 *
b111 i
b101 h
b0 9
b0 N
0%
b110000 +
b110000 /
b110000 H
b110000 U
b110000 c
b110000 m
b11100101000110001100011 ,
b111 6
b111 E
b111 j
b0 5
b0 D
b0 J
b11 3
b0 2
b10 0
b0 [
b1011 Z
b11100 M
0L
b0 K
b1010 Y
b0 V
b10 l
b1100 $
1"
#7200
0"
#7500
b111 9
b111 N
b101 :
b101 O
b1011000000001100111 '
b1011000000001100111 n
b100100 !
b100100 *
b11100 i
b0 h
b0 Z
b1010 M
b0 Y
b10 X
b10 d
b11000 6
b11000 E
b11000 j
b111 5
b111 D
b111 J
b101 4
b101 C
b101 I
b1100011 3
b11000 2
b0 0
b110100 +
b110100 /
b110100 H
b110100 U
b110100 c
b110100 m
b1110000000000010110010011 ,
b1 l
b1101 $
1"
#7800
0"
#8100
b11100 ?
b11100 T
b10100000000000011000010011 '
b10100000000000011000010011 n
b101000 !
b101000 *
b0 i
b1011 h
b11101 9
b11101 N
b0 :
b0 O
b111000 +
b111000 /
b111000 H
b111000 U
b111000 c
b111000 m
b1011000000001100111 ,
b1011 6
b1011 E
b1011 j
b11100 5
b11100 D
b11100 J
b0 4
b0 C
b0 I
b10011 3
b11100 2
b111 Z
b111 M
b11000 Y
b0 X
b0 d
b11100 B
b11100 S
b0 A
b0 R
b0 @
b0 Q
0)
b0 l
b1110 $
1"
#8400
0"
#8700
b11100 A
b11100 R
b11100 ?
b11100 T
b0 9
b0 N
b10 =
b10 F
b1100 :
b1100 O
b11100 >
b11100 ]
17
b11100 8
b11100 b
b110000000010010000100011 '
b110000000010010000100011 n
b0 B
b0 S
b101100 !
b101100 *
b1000 i
b0 h
b1 [
b11101 Z
b11000 M
b11100 Y
b11100 V
b0 6
b0 E
b0 j
b0 5
b0 D
b0 J
b1011 4
b1011 C
b1011 I
b1100111 3
b0 2
b111100 +
b111100 /
b111100 H
b111100 U
b111100 c
b111100 m
b10100000000000011000010011 ,
b1111 $
1"
#9000
0"
#9300
b0 ?
b0 T
1)
b11 l
b100000000010011010000011 '
b100000000010011010000011 n
b110000 !
b110000 *
b1100 i
b111 9
b111 N
b0 :
b0 O
b0 B
b0 S
b0 A
b0 R
b0 =
b0 F
b111000 >
b111000 ]
b111000 8
b111000 b
b11100 &
b11100 -
b11100 ;
b11100 a
1%
b1000000 +
b1000000 /
b1000000 H
b1000000 U
b1000000 c
b1000000 m
b110000000010010000100011 ,
b1100 6
b1100 E
b1100 j
b1000 5
b1000 D
b1000 J
b0 4
b0 C
b0 I
b10011 3
b101000 2
b1 1
b101 [
b0 Z
b1011 M
1L
b11100 K
b0 Y
b10000 $
1"
#9600
0"
#9900
b1101 9
b1101 N
0%
07
b0 8
b0 b
b10001110000011 '
b10001110000011 n
b1100 !
b1100 *
b1000 i
b0 [
b111 Z
b0 M
b111000 K
b101000 Y
b0 V
b1000 6
b1000 E
b1000 j
b1100 5
b1100 D
b1100 J
b100011 3
b1000 2
b0 1
b10 0
b11100 +
b11100 /
b11100 H
b11100 U
b11100 c
b11100 m
b100000000010011010000011 ,
b10 l
b10001 $
1"
#10200
0"
#10500
b11100101000110001100011 '
b11100101000110001100011 n
b10000 !
b10000 *
b0 i
b111 9
b111 N
b100000 +
b100000 /
b100000 H
b100000 U
b100000 c
b100000 m
b10001110000011 ,
b1101 6
b1101 E
b1101 j
b1000 5
b1000 D
b1000 J
b11 3
b1101 Z
b1100 M
0L
b0 K
b1000 Y
b10 X
b10 d
b1 l
b10010 $
1"
#10800
0"
#11100
1(
b1 k
b0 9
b0 N
b101000000000010100010011 '
b101000000000010100010011 n
b10100 !
b10100 *
b111 i
b101 h
b111 Z
b1000 M
b111 6
b111 E
b111 j
b0 5
b0 D
b0 J
b0 2
b100100 +
b100100 /
b100100 H
b100100 U
b100100 c
b100100 m
b11100101000110001100011 ,
1.
b0 ?
b0 T
b0 B
b0 S
0)
b0 l
b10011 $
1"
#11400
0"
#11700
0(
b110 @
b110 Q
b101 >
b101 ]
17
b101 8
b101 b
b0 6
b0 E
b0 j
b110011 3
b0 k
b10 [
b0 Z
b1101 M
b0 Y
b10100 $
1"
#12000
0.
0"
#12300
b101 B
b101 S
b101 A
b101 R
b1 ?
b1 T
b111 9
b111 N
b1 <
b1 G
b1 W
b101 :
b101 O
b0 >
b0 ]
b0 8
b0 b
b100000000011100010011 '
b100000000011100010011 n
b1101 @
b1101 Q
b11000 !
b11000 *
b1010 i
b0 h
b1 [
b111 M
1L
b101 K
b11000 6
b11000 E
b11000 j
b111 5
b111 D
b111 J
b101 4
b101 C
b101 I
b1100011 3
b11000 2
b0 0
b101000 +
b101000 /
b101000 H
b101000 U
b101000 c
b101000 m
b101000000000010100010011 ,
b10101 $
1"
#12600
b101 9
b101 N
0"
#12900
b0 A
b0 R
b0 ?
b0 T
1)
b11 l
b1110000000000000001101111 '
b1110000000000000001101111 n
b11100 !
b11100 *
b1 i
b1011 9
b1011 N
b0 :
b0 O
b0 B
b0 S
b0 @
b0 Q
b0 <
b0 G
b0 W
07
b111000 &
b111000 -
b111000 ;
b111000 a
1%
b101100 +
b101100 /
b101100 H
b101100 U
b101100 c
b101100 m
b100000000011100010011 ,
b1010 6
b1010 E
b1010 j
b1010 5
b1010 D
b1010 J
b0 4
b0 C
b0 I
b10011 3
b1010 2
b100 [
b101 Z
b0 M
b0 K
b11000 Y
b0 X
b0 d
b1 V
b10110 $
1"
#13200
0"
#13500
b10 9
b10 N
0%
b10100000000000011000010011 '
b10100000000000011000010011 n
b101000 !
b101000 *
b11100 i
b0 [
b1011 Z
b11000 M
0L
b1010 Y
b0 V
b1110 6
b1110 E
b1110 j
b1 5
b1 D
b1 J
b1 2
b111000 +
b111000 /
b111000 H
b111000 U
b111000 c
b111000 m
b1110000000000000001101111 ,
b10 l
b10111 $
1"
#13800
0"
#14100
b110000000010010000100011 '
b110000000010010000100011 n
b101100 !
b101100 *
b1000 i
b11101 9
b11101 N
b111100 +
b111100 /
b111100 H
b111100 U
b111100 c
b111100 m
b10100000000000011000010011 ,
b0 6
b0 E
b0 j
b11100 5
b11100 D
b11100 J
b1101111 3
b11100 2
b10 Z
b1010 M
b1 Y
b1 l
b11000 $
1"
#14400
0"
#14700
b111 9
b111 N
b100000000010011010000011 '
b100000000010011010000011 n
b110000 !
b110000 *
b1100 i
b11101 Z
b1110 M
b11100 Y
b1100 6
b1100 E
b1100 j
b1000 5
b1000 D
b1000 J
b10011 3
b101000 2
b1 1
b1000000 +
b1000000 /
b1000000 H
b1000000 U
b1000000 c
b1000000 m
b110000000010010000100011 ,
b101000 ?
b101000 T
b101000 B
b101000 S
b0 A
b0 R
0)
b0 l
b11001 $
1"
#15000
0"
#15300
b1000 ?
b1000 T
b1101000000001100111 '
b1101000000001100111 n
b110100 !
b110100 *
b1000 i
b1101 9
b1101 N
b1000 B
b1000 S
b10 <
b10 G
b10 W
b101000 >
b101000 ]
17
b101000 8
b101000 b
b1000100 +
b1000100 /
b1000100 H
b1000100 U
b1000100 c
b1000100 m
b100000000010011010000011 ,
b1000 6
b1000 E
b1000 j
b1100 5
b1100 D
b1100 J
b100011 3
b1000 2
b0 1
b10 0
b1 [
b111 Z
b0 M
b101000 Y
b101000 V
b11010 $
1"
#15600
0"
#15900
1(
b1 k
1.
b101000 \
b101000 g
b111 9
b111 N
07
b0 8
b0 b
1`
b101000 _
b101000 f
b1000 ^
b1000 e
b10000000000101000001010010011 '
b10000000000101000001010010011 n
b111000 !
b111000 *
b0 i
b1101 h
b11 [
b101000 Z
b1100 M
1L
b101000 K
b1000 Y
b10 X
b10 d
b1000 V
b1101 6
b1101 E
b1101 j
b1000 5
b1000 D
b1000 J
b11 3
b1001000 +
b1001000 /
b1001000 H
b1001000 U
b1001000 c
b1001000 m
b1101000000001100111 ,
b11011 $
1"
#16200
0"
#16500
0.
b0 ?
b0 T
b0 9
b0 N
0(
b0 B
b0 S
b110 @
b110 Q
b0 <
b0 G
b0 W
b0 _
b0 f
0`
17
b101000 8
b101000 b
b0 6
b0 E
b0 j
b0 5
b0 D
b0 J
b110011 3
b0 k
b10 [
b1000 M
0L
b0 K
b11100 $
1"
#16800
0"
#17100
b101000 ?
b101000 T
b101000 A
b101000 R
b1 =
b1 F
b1110 :
b1110 O
b0 >
b0 ]
b0 8
b0 b
bx '
bx n
b0 @
b0 Q
b111100 !
b111100 *
b101 h
b1 [
b0 Z
b1101 M
1L
b101000 K
b0 V
b1101 4
b1101 C
b1101 I
b1100111 3
b0 2
b0 0
b1001100 +
b1001100 /
b1001100 H
b1001100 U
b1001100 c
b1001100 m
b10000000000101000001010010011 ,
b11101 $
1"
#17400
b101000 :
b101000 O
0"
#17700
b0 A
b0 R
b0 ?
b0 T
1)
b11 l
b1000000 !
b1000000 *
bx i
bx h
b101 :
b101 O
b0 B
b0 S
b0 =
b0 F
b1001000 >
b1001000 ]
b1001000 8
b1001000 b
b101000 &
b101000 -
b101000 ;
b101000 a
1%
b1010000 +
b1010000 /
b1010000 H
b1010000 U
b1010000 c
b1010000 m
bx ,
b101 6
b101 E
b101 j
b101 4
b101 C
b101 I
b10011 3
b100000000 2
b1000 1
b101 [
b0 M
b0 K
b0 Y
b0 X
b0 d
b101000 V
b11110 $
1"
#18000
0"
#18300
bx 9
bx N
bx :
bx O
0%
07
b0 8
b0 b
b100000000011100010011 '
b100000000011100010011 n
b11000 !
b11000 *
b0 [
b1001000 K
b100000000 Y
b0 V
bx 6
bx E
bx j
bx 5
bx D
bx J
bx 4
bx C
bx I
bx 3
bz 2
bx 1
bx 0
b101000 +
b101000 /
b101000 H
b101000 U
b101000 c
b101000 m
b10 l
b11111 $
1"
#18600
0"
#18900
b1110000000000000001101111 '
b1110000000000000001101111 n
b11100 !
b11100 *
b1 i
b0 h
b101100 +
b101100 /
b101100 H
b101100 U
b101100 c
b101100 m
b100000000011100010011 ,
bx Z
b101 M
0L
b0 K
bz Y
bx X
bx d
b1 l
b100000 $
1"
#19200
0"
#19500
b1 ?
b1 T
b10 9
b10 N
b0 :
b0 O
b1110000000000010110010011 '
b1110000000000010110010011 n
b1 B
b1 S
b0 A
b0 R
b100000 !
b100000 *
b11100 i
bx M
b1110 6
b1110 E
b1110 j
b1 5
b1 D
b1 J
b0 4
b0 C
b0 I
b10011 3
b1 2
b0 1
b0 0
b110000 +
b110000 /
b110000 H
b110000 U
b110000 c
b110000 m
b1110000000000000001101111 ,
0)
b0 l
b100001 $
1"
#19800
0"
#20100
b1001000 ?
b1001000 T
b1011000000001100111 '
b1011000000001100111 n
b100100 !
b100100 *
b11101 9
b11101 N
b11100 B
b11100 S
b101100 A
b101100 R
b1 >
b1 ]
17
b1 8
b1 b
b110100 +
b110100 /
b110100 H
b110100 U
b110100 c
b110100 m
b1110000000000010110010011 ,
b0 6
b0 E
b0 j
b11100 5
b11100 D
b11100 J
b1101111 3
b11100 2
b1 [
b10 Z
b1 Y
b0 X
b0 d
b1 V
b100010 $
1"
#20400
0"
#20700
b0 B
b0 S
1)
b11 l
b0 ?
b0 T
b110000 >
b110000 ]
b110000 8
b110000 b
b1001000 &
b1001000 -
b1001000 ;
b1001000 a
1%
b10100000000000011000010011 '
b10100000000000011000010011 n
b0 A
b0 R
b101000 !
b101000 *
b0 i
b1011 h
b101 [
b11101 Z
b1110 M
1L
b1 K
b11100 Y
b1001000 V
b1011 6
b1011 E
b1011 j
b10011 3
b111000 +
b111000 /
b111000 H
b111000 U
b111000 c
b111000 m
b1011000000001100111 ,
b100011 $
1"
#21000
0"
#21300
b10000000000101000001010010011 '
b10000000000101000001010010011 n
b111000 !
b111000 *
b1000 i
b0 h
b0 9
b0 N
b11100 :
b11100 O
0%
07
b0 8
b0 b
b1001000 +
b1001000 /
b1001000 H
b1001000 U
b1001000 c
b1001000 m
b10100000000000011000010011 ,
b0 6
b0 E
b0 j
b0 5
b0 D
b0 J
b1011 4
b1011 C
b1011 I
b1100111 3
b0 2
b0 [
b0 M
b110000 K
b0 V
b10 l
b100100 $
1"
#21600
0"
#21900
b111 9
b111 N
b0 :
b0 O
bx '
bx n
b111100 !
b111100 *
b0 i
b101 h
b0 Z
b1011 M
0L
b0 K
b0 Y
b1100 6
b1100 E
b1100 j
b1000 5
b1000 D
b1000 J
b0 4
b0 C
b0 I
b10011 3
b101000 2
b1 1
b1001100 +
b1001100 /
b1001100 H
b1001100 U
b1001100 c
b1001100 m
b10000000000101000001010010011 ,
b1 l
b100101 $
1"
#22200
0"
#22500
b101 A
b101 R
b1000000 !
b1000000 *
bx i
bx h
b0 9
b0 N
b101 :
b101 O
b1010000 +
b1010000 /
b1010000 H
b1010000 U
b1010000 c
b1010000 m
bx ,
b101 6
b101 E
b101 j
b0 5
b0 D
b0 J
b101 4
b101 C
b101 I
b100000000 2
b1000 1
b111 Z
b0 M
b101000 Y
b100000101 ?
b100000101 T
b100000000 B
b100000000 S
0)
b0 l
b100110 $
1"
#22800
0"
#23100
bx 9
bx N
bx :
bx O
b100000101 >
b100000101 ]
17
b100000101 8
b100000101 b
b1000100 !
b1000100 *
b1 [
b0 Z
b1100 M
b100000000 Y
b100000101 V
bx 6
bx E
bx j
bx 5
bx D
bx J
bx 4
bx C
bx I
bx 3
bz 2
bx 1
bx 0
b1010100 +
b1010100 /
b1010100 H
b1010100 U
b1010100 c
b1010100 m
b100111 $
1"
#23400
0"
#23700
b1001000 !
b1001000 *
07
b0 8
b0 b
b1011000 +
b1011000 /
b1011000 H
b1011000 U
b1011000 c
b1011000 m
b0 [
bx Z
b101 M
1L
b100000101 K
bz Y
bx X
bx d
b101000 $
1"
#24000
0"
#24300
b1001100 !
b1001100 *
bx M
0L
b0 K
b1011100 +
b1011100 /
b1011100 H
b1011100 U
b1011100 c
b1011100 m
b101001 $
1"
#24600
0"
#24900
b1010000 !
b1010000 *
b1100000 +
b1100000 /
b1100000 H
b1100000 U
b1100000 c
b1100000 m
b101010 $
1"
#25200
0"
#25500
b1010100 !
b1010100 *
b1100100 +
b1100100 /
b1100100 H
b1100100 U
b1100100 c
b1100100 m
b101011 $
1"
#25800
0"
#26100
b1011000 !
b1011000 *
b1101000 +
b1101000 /
b1101000 H
b1101000 U
b1101000 c
b1101000 m
b101100 $
1"
#26400
0"
#26700
b1011100 !
b1011100 *
b1101100 +
b1101100 /
b1101100 H
b1101100 U
b1101100 c
b1101100 m
b101101 $
1"
#27000
0"
#27300
b1100000 !
b1100000 *
b1110000 +
b1110000 /
b1110000 H
b1110000 U
b1110000 c
b1110000 m
b101110 $
1"
#27600
0"
#27900
b1100100 !
b1100100 *
b1110100 +
b1110100 /
b1110100 H
b1110100 U
b1110100 c
b1110100 m
b101111 $
1"
#28200
0"
#28500
b1101000 !
b1101000 *
b1111000 +
b1111000 /
b1111000 H
b1111000 U
b1111000 c
b1111000 m
b110000 $
1"
#28800
0"
#29100
b1101100 !
b1101100 *
b1111100 +
b1111100 /
b1111100 H
b1111100 U
b1111100 c
b1111100 m
b110001 $
1"
#29400
0"
#29700
b1110000 !
b1110000 *
b10000000 +
b10000000 /
b10000000 H
b10000000 U
b10000000 c
b10000000 m
b110010 $
1"
#30000
0"
#30300
b1110100 !
b1110100 *
b10000100 +
b10000100 /
b10000100 H
b10000100 U
b10000100 c
b10000100 m
b110011 $
1"
#30600
0"
#30900
b1111000 !
b1111000 *
b10001000 +
b10001000 /
b10001000 H
b10001000 U
b10001000 c
b10001000 m
b110100 $
1"
#31200
0"
#31500
b1111100 !
b1111100 *
b10001100 +
b10001100 /
b10001100 H
b10001100 U
b10001100 c
b10001100 m
b110101 $
1"
#31800
0"
#32100
b10000000 !
b10000000 *
b10010000 +
b10010000 /
b10010000 H
b10010000 U
b10010000 c
b10010000 m
b110110 $
1"
#32400
0"
#32700
b10000100 !
b10000100 *
b10010100 +
b10010100 /
b10010100 H
b10010100 U
b10010100 c
b10010100 m
b110111 $
1"
#33000
0"
#33300
b10001000 !
b10001000 *
b10011000 +
b10011000 /
b10011000 H
b10011000 U
b10011000 c
b10011000 m
b111000 $
1"
#33600
0"
#33900
b10001100 !
b10001100 *
b10011100 +
b10011100 /
b10011100 H
b10011100 U
b10011100 c
b10011100 m
b111001 $
1"
#34200
0"
#34500
b10010000 !
b10010000 *
b10100000 +
b10100000 /
b10100000 H
b10100000 U
b10100000 c
b10100000 m
b111010 $
1"
#34800
0"
#35100
b10010100 !
b10010100 *
b10100100 +
b10100100 /
b10100100 H
b10100100 U
b10100100 c
b10100100 m
b111011 $
1"
#35400
0"
#35700
b10011000 !
b10011000 *
b10101000 +
b10101000 /
b10101000 H
b10101000 U
b10101000 c
b10101000 m
b111100 $
1"
#36000
0"
#36300
b10011100 !
b10011100 *
b10101100 +
b10101100 /
b10101100 H
b10101100 U
b10101100 c
b10101100 m
b111101 $
1"
#36600
0"
#36900
b10100000 !
b10100000 *
b10110000 +
b10110000 /
b10110000 H
b10110000 U
b10110000 c
b10110000 m
b111110 $
1"
#37200
0"
#37500
b10100100 !
b10100100 *
b10110100 +
b10110100 /
b10110100 H
b10110100 U
b10110100 c
b10110100 m
b111111 $
1"
#37800
0"
#38100
b10101000 !
b10101000 *
b10111000 +
b10111000 /
b10111000 H
b10111000 U
b10111000 c
b10111000 m
b1000000 $
1"
#38400
0"
#38700
b10101100 !
b10101100 *
b10111100 +
b10111100 /
b10111100 H
b10111100 U
b10111100 c
b10111100 m
b1000001 $
1"
#39000
0"
#39300
b10110000 !
b10110000 *
b11000000 +
b11000000 /
b11000000 H
b11000000 U
b11000000 c
b11000000 m
b1000010 $
1"
#39600
0"
#39900
b10110100 !
b10110100 *
b11000100 +
b11000100 /
b11000100 H
b11000100 U
b11000100 c
b11000100 m
b1000011 $
1"
#40200
0"
#40500
b10111000 !
b10111000 *
b11001000 +
b11001000 /
b11001000 H
b11001000 U
b11001000 c
b11001000 m
b1000100 $
1"
#40800
0"
#41100
b10111100 !
b10111100 *
b11001100 +
b11001100 /
b11001100 H
b11001100 U
b11001100 c
b11001100 m
b1000101 $
1"
#41400
0"
#41700
b11000000 !
b11000000 *
b11010000 +
b11010000 /
b11010000 H
b11010000 U
b11010000 c
b11010000 m
b1000110 $
1"
#42000
0"
#42300
b11000100 !
b11000100 *
b11010100 +
b11010100 /
b11010100 H
b11010100 U
b11010100 c
b11010100 m
b1000111 $
1"
#42600
0"
#42900
b11001000 !
b11001000 *
b11011000 +
b11011000 /
b11011000 H
b11011000 U
b11011000 c
b11011000 m
b1001000 $
1"
#43200
0"
#43500
b11001100 !
b11001100 *
b11011100 +
b11011100 /
b11011100 H
b11011100 U
b11011100 c
b11011100 m
b1001001 $
1"
#43800
0"
#44100
b11010000 !
b11010000 *
b11100000 +
b11100000 /
b11100000 H
b11100000 U
b11100000 c
b11100000 m
b1001010 $
1"
#44400
0"
#44700
b11010100 !
b11010100 *
b11100100 +
b11100100 /
b11100100 H
b11100100 U
b11100100 c
b11100100 m
b1001011 $
1"
#45000
0"
#45300
b11011000 !
b11011000 *
b11101000 +
b11101000 /
b11101000 H
b11101000 U
b11101000 c
b11101000 m
b1001100 $
1"
#45600
0"
