pipelinecpu/build/test.vcd
$date
	Mon May  6 02:45:15 2024
$end
$version
	Icarus Verilog
$end
$timescale
	1ns
$end
$scope module CPU_tb $end
$var wire 32 ! pc [31:0] $end
$var reg 1 " clk $end
$var reg 1 # reset $end
$var integer 32 $ counter [31:0] $end
$scope module cpu $end
$var wire 1 " clk $end
$var wire 1 # reset $end
$var wire 1 % pcWriteEnable $end
$var wire 32 & pcWriteData [31:0] $end
$var wire 32 ' instr [31:0] $end
$var wire 1 ( hazard $end
$var wire 1 ) flush $end
$var reg 32 * PC [31:0] $end
$scope module ID $end
$var wire 32 + PC [31:0] $end
$var wire 1 " clk $end
$var wire 32 , instr [31:0] $end
$var wire 1 # reset $end
$var wire 1 % pcWriteEnable $end
$var wire 32 - pcWriteData [31:0] $end
$var wire 1 ( hazard $end
$var wire 1 ) flush $end
$scope module EX $end
$var wire 32 . PC [31:0] $end
$var wire 1 " clk $end
$var wire 3 / func3 [2:0] $end
$var wire 7 0 func7 [6:0] $end
$var wire 32 1 imm [31:0] $end
$var wire 7 2 opcode [6:0] $end
$var wire 5 3 regNum0 [4:0] $end
$var wire 5 4 regNum1 [4:0] $end
$var wire 5 5 regWriteNum [4:0] $end
$var wire 1 # reset $end
$var wire 1 6 regWriteEnable $end
$var wire 32 7 regWriteData [31:0] $end
$var wire 32 8 regReadData1 [31:0] $end
$var wire 32 9 regReadData0 [31:0] $end
$var wire 1 % pcWriteEnable $end
$var wire 32 : pcWriteData [31:0] $end
$var wire 2 ; forwardB [1:0] $end
$var wire 2 < forwardA [1:0] $end
$var wire 1 ) flush $end
$var wire 32 = data [31:0] $end
$var wire 32 > aluO [31:0] $end
$var reg 4 ? aluOp [3:0] $end
$var reg 32 @ aluX [31:0] $end
$var reg 32 A aluY [31:0] $end
$var reg 1 ( hazard $end
$var reg 1 B waithazard $end
$scope module Forwarding $end
$var wire 1 " clk $end
$var wire 5 C regReadNum0 [4:0] $end
$var wire 5 D regReadNum1 [4:0] $end
$var wire 5 E regWriteNum [4:0] $end
$var wire 1 ) flush $end
$var reg 2 F forwardA [1:0] $end
$var reg 2 G forwardB [1:0] $end
$upscope $end
$scope module RF $end
$var wire 32 H PC [31:0] $end
$var wire 1 " clk $end
$var wire 5 I regNum0 [4:0] $end
$var wire 5 J regNum1 [4:0] $end
$var wire 32 K regWriteData [31:0] $end
$var wire 1 L regWriteEnable $end
$var wire 5 M regWriteNum [4:0] $end
$var wire 1 # reset $end
$var wire 32 N regReadData1 [31:0] $end
$var wire 32 O regReadData0 [31:0] $end
$var integer 32 P i [31:0] $end
$upscope $end
$scope module alu $end
$var wire 4 Q aluOp [3:0] $end
$var wire 32 R aluX [31:0] $end
$var wire 32 S aluY [31:0] $end
$var reg 32 T aluO [31:0] $end
$upscope $end
$scope module control $end
$var wire 32 U PC [31:0] $end
$var wire 32 V aluO [31:0] $end
$var wire 1 " clk $end
$var wire 2 W forwordB [1:0] $end
$var wire 3 X func3 [2:0] $end
$var wire 32 Y imm [31:0] $end
$var wire 32 Z regReadData1 [31:0] $end
$var wire 1 # reset $end
$var wire 3 [ state [2:0] $end
$var wire 32 \ memReadData [31:0] $end
$var reg 32 ] data [31:0] $end
$var reg 32 ^ data1 [31:0] $end
$var reg 32 _ data2 [31:0] $end
$var reg 32 ` memAddr [31:0] $end
$var reg 32 a memWriteData [31:0] $end
$var reg 1 b memWriteEnable $end
$var reg 32 c pcWriteData [31:0] $end
$var reg 1 % pcWriteEnable $end
$var reg 32 d regWriteData [31:0] $end
$var reg 1 6 regWriteEnable $end
$scope module mem $end
$var wire 32 e PC [31:0] $end
$var wire 1 " clk $end
$var wire 3 f func3 [2:0] $end
$var wire 32 g memAddr [31:0] $end
$var wire 32 h memWriteData [31:0] $end
$var wire 1 b memWriteEnable $end
$var reg 32 i memReadData [31:0] $end
$upscope $end
$upscope $end
$upscope $end
$upscope $end
$scope module flushing $end
$var wire 1 " clk $end
$var wire 1 % pcWriteEnable $end
$var wire 1 ) flush $end
$var integer 32 j i [31:0] $end
$upscope $end
$scope module instrMem $end
$var wire 32 k instrAddr [31:0] $end
$var wire 32 l instrData [31:0] $end
$upscope $end
$upscope $end
$upscope $end
$enddefinitions $end
$comment Show the parameter values. $end
$dumpall
$end
#0
$dumpvars
bx l
b11111111111111111111111111111100 k
b0 j
bx i
bx h
bx g
bx f
b11111111111111111111111111111100 e
bx d
b0 c
xb
bx a
bx `
bx _
bx ^
bx ]
bx \
bx [
bx Z
bx Y
bx X
b0 W
bx V
b11111111111111111111111111111100 U
bx T
bx S
bx R
bx Q
b100000 P
bx O
bx N
bx M
xL
bx K
bx J
bx I
b11111111111111111111111111111100 H
b0 G
b0 F
bx E
bx D
bx C
0B
bx A
bx @
bx ?
bx >
bx =
b0 <
b0 ;
b0 :
bx 9
bx 8
bx 7
x6
bx 5
bx 4
bx 3
bx 2
bx 1
bx 0
bx /
b11111111111111111111111111111100 .
b0 -
bx ,
b11111111111111111111111111111100 +
bx *
0)
0(
bx '
b0 &
0%
b0 $
x#
0"
bx !
$end
#300
b0 a
b0 h
0b
06
b0 7
b0 d
b10100000000001010010011 '
b10100000000001010010011 l
b0 [
b0 +
b0 .
b0 H
b0 U
b0 e
b0 k
b1 $
1"
#600
0"
#900
b10100000010000000100011 '
b10100000010000000100011 l
b100 +
b100 .
b100 H
b100 U
b100 e
b100 k
b10100000000001010010011 ,
0L
b0 K
b10 $
1"
#1200
0"
#1500
b101 >
b101 T
b0 @
b0 R
b0 8
b0 N
b0 9
b0 O
b10001100000011 '
b10001100000011 l
b101 A
b101 S
b0 ?
b0 Q
b101 1
b101 4
b101 D
b101 J
b0 3
b0 C
b0 I
b101 5
b101 E
b0 0
b0 /
b10011 2
b1000 +
b1000 .
b1000 H
b1000 U
b1000 e
b1000 k
b10100000010000000100011 ,
b11 $
1"
#1800
0"
#2100
b0 >
b0 T
b1000110000001110010011 '
b1000110000001110010011 l
b11111111111111111111111111111100 !
b11111111111111111111111111111100 *
b0 A
b0 S
b10 ;
b10 G
b10 W
16
b101 7
b101 d
b0 =
b0 ]
b1100 +
b1100 .
b1100 H
b1100 U
b1100 e
b1100 k
b10001100000011 ,
b0 1
b0 5
b0 E
b10 /
b100011 2
b101 V
b0 Z
b0 X
b0 f
b101 Y
b1 [
b100 $
1"
#2400
0"
#2700
b0 \
b0 i
b0 ;
b0 G
b0 W
06
b0 7
b0 d
1b
b0 `
b0 g
b11100000000010000010011 '
b11100000000010000010011 l
b0 !
b0 *
b0 _
b0 ^
b101 M
1L
b101 K
b0 V
b10 X
b10 f
b0 Y
b11 [
b0 4
b0 D
b0 J
b110 5
b110 E
b11 2
b10000 +
b10000 .
b10000 H
b10000 U
b10000 e
b10000 k
b1000110000001110010011 ,
b101 $
1"
#3000
0"
#3300
b10 >
b10 T
b100000111000111001100011 '
b100000111000111001100011 l
b100 !
b100 *
b10 A
b10 S
b10 <
b10 F
0b
16
b10100 +
b10100 .
b10100 H
b10100 U
b10100 e
b10100 k
b11100000000010000010011 ,
b10 1
b10 4
b10 D
b10 J
b110 3
b110 C
b110 I
b111 5
b111 E
b0 /
b10011 2
b0 M
0L
b0 K
b10 [
b110 $
1"
#3600
0"
#3900
b111 >
b111 T
b10 ;
b10 G
b10 W
b0 <
b0 F
b10 7
b10 d
b101000000000010100010011 '
b101000000000010100010011 l
b111 A
b111 S
b1000 !
b1000 *
b110 M
1L
b10 V
b0 X
b0 f
b10 Y
b1 [
b111 1
b111 4
b111 D
b111 J
b0 3
b0 C
b0 I
b1000 5
b1000 E
b11000 +
b11000 .
b11000 H
b11000 U
b11000 e
b11000 k
b100000111000111001100011 ,
b111 $
1"
#4200
0"
#4500
b1 >
b1 T
b10001110000011 '
b10001110000011 l
b1100 !
b1100 *
b10 A
b10 S
b10 @
b10 R
b1101 ?
b1101 Q
b1 <
b1 F
b111 7
b111 d
b10 =
b10 ]
b11100 +
b11100 .
b11100 H
b11100 U
b11100 e
b11100 k
b101000000000010100010011 ,
b11100 1
b1000 4
b1000 D
b1000 J
b111 3
b111 C
b111 I
b11100 5
b11100 E
b1100011 2
b111 M
b10 K
b111 V
b111 Y
b1000 $
1"
#4800
b10 9
b10 O
0"
#5100
1)
b11 j
b0 >
b0 T
b0 9
b0 O
b0 ;
b0 G
b0 W
b0 <
b0 F
06
b0 7
b0 d
b110000 &
b110000 -
b110000 :
b110000 c
1%
b11100101000110001100011 '
b11100101000110001100011 l
b0 A
b0 S
b0 @
b0 R
b0 ?
b0 Q
b10000 !
b10000 *
b10 _
b10 ^
b1000 M
b111 K
b1 V
b10 Z
b11100 Y
b100 [
b1010 1
b1010 4
b1010 D
b1010 J
b0 3
b0 C
b0 I
b1010 5
b1010 E
b10011 2
b100000 +
b100000 .
b100000 H
b100000 U
b100000 e
b100000 k
b10001110000011 ,
b1001 $
1"
#5400
0"
#5700
b1110000000000010110010011 '
b1110000000000010110010011 l
b10100 !
b10100 *
0%
b110000 +
b110000 .
b110000 H
b110000 U
b110000 e
b110000 k
b11100101000110001100011 ,
b0 1
b0 4
b0 D
b0 J
b111 5
b111 E
b10 /
b11 2
b11100 M
0L
b0 K
b0 V
b0 Z
b1010 Y
b0 [
b0 ^
b10 j
b1010 $
1"
#6000
0"
#6300
b10 8
b10 N
b101 9
b101 O
b1011000000001100111 '
b1011000000001100111 l
b11000 !
b11000 *
b0 _
b1010 M
b10 X
b10 f
b0 Y
b11000 1
b111 4
b111 D
b111 J
b101 3
b101 C
b101 I
b11000 5
b11000 E
b0 /
b1100011 2
b110100 +
b110100 .
b110100 H
b110100 U
b110100 e
b110100 k
b1110000000000010110010011 ,
b1 j
b1011 $
1"
#6600
0"
#6900
b11100 >
b11100 T
b10100000000000011000010011 '
b10100000000000011000010011 l
b11100 !
b11100 *
b0 8
b0 N
b0 9
b0 O
b111000 +
b111000 .
b111000 H
b111000 U
b111000 e
b111000 k
b1011000000001100111 ,
b11100 1
b11100 4
b11100 D
b11100 J
b0 3
b0 C
b0 I
b1011 5
b1011 E
b10011 2
b111 M
b10 Z
b0 X
b0 f
b11000 Y
b11100 A
b11100 S
b0 @
b0 R
b0 ?
b0 Q
0)
b0 j
b1100 $
1"
#7200
0"
#7500
b0 >
b0 T
b10 <
b10 F
16
b11100 7
b11100 d
b0 =
b0 ]
b110000000010010000100011 '
b110000000010010000100011 l
b0 A
b0 S
b100000 !
b100000 *
b10 _
b11000 M
b11100 V
b0 Z
b11100 Y
b1 [
b0 1
b0 4
b0 D
b0 J
b1011 3
b1011 C
b1011 I
b0 5
b0 E
b1100111 2
b111100 +
b111100 .
b111100 H
b111100 U
b111100 e
b111100 k
b10100000000000011000010011 ,
b1101 $
1"
#7800
0"
#8100
b0 >
b0 T
1)
b11 j
b100000000010011010000011 '
b100000000010011010000011 l
b110000 !
b110000 *
b111 8
b111 N
b0 A
b0 S
b0 <
b0 F
b111000 7
b111000 d
b0 &
b0 -
b0 :
b0 c
1%
b11100 =
b11100 ]
b1000000 +
b1000000 .
b1000000 H
b1000000 U
b1000000 e
b1000000 k
b110000000010010000100011 ,
b101000 1
b1000 4
b1000 D
b1000 J
b0 3
b0 C
b0 I
b1100 5
b1100 E
b1 0
b10011 2
b1011 M
1L
b11100 K
b0 V
b0 Y
b101 [
b0 _
b1110 $
1"
#8400
0"
#8700
b0 8
b0 N
0%
06
b0 7
b0 d
b10100000000001010010011 '
b10100000000001010010011 l
b110100 !
b110100 *
b0 M
b111000 K
b111 Z
b101000 Y
b0 [
b1000 1
b1100 4
b1100 D
b1100 J
b1000 5
b1000 E
b0 0
b10 /
b100011 2
b0 +
b0 .
b0 H
b0 U
b0 e
b0 k
b100000000010011010000011 ,
b10 j
b1111 $
1"
#9000
0"
#9300
b10100000010000000100011 '
b10100000010000000100011 l
b111000 !
b111000 *
b111 8
b111 N
b100 +
b100 .
b100 H
b100 U
b100 e
b100 k
b10100000000001010010011 ,
b1000 4
b1000 D
b1000 J
b1101 5
b1101 E
b11 2
b1100 M
0L
b0 K
b0 Z
b10 X
b10 f
b1000 Y
b111 _
b1 j
b10000 $
1"
#9600
0"
#9900
b101 8
b101 N
b10001100000011 '
b10001100000011 l
b111100 !
b111100 *
b0 _
b1000 M
b111 Z
b101 1
b101 4
b101 D
b101 J
b101 5
b101 E
b0 /
b10011 2
b1000 +
b1000 .
b1000 H
b1000 U
b1000 e
b1000 k
b10100000010000000100011 ,
b101 >
b101 T
b101 A
b101 S
0)
b0 j
b10001 $
1"
#10200
0"
#10500
b0 >
b0 T
b1000110000001110010011 '
b1000110000001110010011 l
b1000000 !
b1000000 *
b0 A
b0 S
b10 ;
b10 G
b10 W
16
b101 7
b101 d
b0 =
b0 ]
b1100 +
b1100 .
b1100 H
b1100 U
b1100 e
b1100 k
b10001100000011 ,
b0 1
b0 5
b0 E
b10 /
b100011 2
b1101 M
b101 V
b101 Z
b0 X
b0 f
b101 Y
b1 [
b111 _
b10010 $
1"
#10800
0"
#11100
b0 8
b0 N
b0 ;
b0 G
b0 W
06
b0 7
b0 d
1b
b11100000000010000010011 '
b11100000000010000010011 l
b0 !
b0 *
b0 _
b101 M
1L
b101 K
b0 V
b0 Z
b10 X
b10 f
b0 Y
b11 [
b0 4
b0 D
b0 J
b110 5
b110 E
b11 2
b10000 +
b10000 .
b10000 H
b10000 U
b10000 e
b10000 k
b1000110000001110010011 ,
b10011 $
1"
#11400
0"
#11700
b10 >
b10 T
b100000111000111001100011 '
b100000111000111001100011 l
b100 !
b100 *
b10 A
b10 S
b10 <
b10 F
0b
16
b10100 +
b10100 .
b10100 H
b10100 U
b10100 e
b10100 k
b11100000000010000010011 ,
b10 1
b10 4
b10 D
b10 J
b110 3
b110 C
b110 I
b111 5
b111 E
b0 /
b10011 2
b0 M
0L
b0 K
b10 [
b10100 $
1"
#12000
0"
#12300
b111 >
b111 T
b10 8
b10 N
b10 ;
b10 G
b10 W
b0 <
b0 F
b10 7
b10 d
b101000000000010100010011 '
b101000000000010100010011 l
b111 A
b111 S
b1000 !
b1000 *
b110 M
1L
b10 V
b0 X
b0 f
b10 Y
b1 [
b111 1
b111 4
b111 D
b111 J
b0 3
b0 C
b0 I
b1000 5
b1000 E
b11000 +
b11000 .
b11000 H
b11000 U
b11000 e
b11000 k
b100000111000111001100011 ,
b10101 $
1"
#12600
0"
#12900
b1 >
b1 T
b10001110000011 '
b10001110000011 l
b1100 !
b1100 *
b111 8
b111 N
b10 9
b10 O
b10 A
b10 S
b10 @
b10 R
b1101 ?
b1101 Q
b1 <
b1 F
b111 7
b111 d
b10 =
b10 ]
b11100 +
b11100 .
b11100 H
b11100 U
b11100 e
b11100 k
b101000000000010100010011 ,
b11100 1
b1000 4
b1000 D
b1000 J
b111 3
b111 C
b111 I
b11100 5
b11100 E
b1100011 2
b111 M
b10 K
b111 V
b111 Y
b10110 $
1"
#13200
0"
#13500
1)
b11 j
b0 >
b0 T
b0 8
b0 N
b0 9
b0 O
b0 ;
b0 G
b0 W
b0 <
b0 F
06
b0 7
b0 d
b110000 &
b110000 -
b110000 :
b110000 c
1%
b11100101000110001100011 '
b11100101000110001100011 l
b0 A
b0 S
b0 @
b0 R
b0 ?
b0 Q
b10000 !
b10000 *
b10 _
b10 ^
b1000 M
b111 K
b1 V
b10 Z
b11100 Y
b100 [
b1010 1
b1010 4
b1010 D
b1010 J
b0 3
b0 C
b0 I
b1010 5
b1010 E
b10011 2
b100000 +
b100000 .
b100000 H
b100000 U
b100000 e
b100000 k
b10001110000011 ,
b10111 $
1"
#13800
0"
#14100
b1110000000000010110010011 '
b1110000000000010110010011 l
b10100 !
b10100 *
0%
b110000 +
b110000 .
b110000 H
b110000 U
b110000 e
b110000 k
b11100101000110001100011 ,
b0 1
b0 4
b0 D
b0 J
b111 5
b111 E
b10 /
b11 2
b11100 M
0L
b0 K
b0 V
b0 Z
b1010 Y
b0 [
b0 ^
b10 j
b11000 $
1"
#14400
0"
#14700
b10 8
b10 N
b101 9
b101 O
b1011000000001100111 '
b1011000000001100111 l
b11000 !
b11000 *
b0 _
b1010 M
b10 X
b10 f
b0 Y
b11000 1
b111 4
b111 D
b111 J
b101 3
b101 C
b101 I
b11000 5
b11000 E
b0 /
b1100011 2
b110100 +
b110100 .
b110100 H
b110100 U
b110100 e
b110100 k
b1110000000000010110010011 ,
b1 j
b11001 $
1"
#15000
0"
#15300
b11100 >
b11100 T
b10100000000000011000010011 '
b10100000000000011000010011 l
b11100 !
b11100 *
b0 8
b0 N
b0 9
b0 O
b111000 +
b111000 .
b111000 H
b111000 U
b111000 e
b111000 k
b1011000000001100111 ,
b11100 1
b11100 4
b11100 D
b11100 J
b0 3
b0 C
b0 I
b1011 5
b1011 E
b10011 2
b111 M
b10 Z
b0 X
b0 f
b11000 Y
b11100 A
b11100 S
b0 @
b0 R
b0 ?
b0 Q
0)
b0 j
b11010 $
1"
#15600
0"
#15900
b0 >
b0 T
b11100 9
b11100 O
b10 <
b10 F
16
b11100 7
b11100 d
b0 =
b0 ]
b110000000010010000100011 '
b110000000010010000100011 l
b0 A
b0 S
b100000 !
b100000 *
b10 _
b11000 M
b11100 V
b0 Z
b11100 Y
b1 [
b0 1
b0 4
b0 D
b0 J
b1011 3
b1011 C
b1011 I
b0 5
b0 E
b1100111 2
b111100 +
b111100 .
b111100 H
b111100 U
b111100 e
b111100 k
b10100000000000011000010011 ,
b11011 $
1"
#16200
0"
#16500
b0 >
b0 T
1)
b11 j
b100000000010011010000011 '
b100000000010011010000011 l
b110000 !
b110000 *
b111 8
b111 N
b0 9
b0 O
b0 A
b0 S
b0 @
b0 R
b0 <
b0 F
b111000 7
b111000 d
b0 &
b0 -
b0 :
b0 c
1%
b11100 =
b11100 ]
b1000000 +
b1000000 .
b1000000 H
b1000000 U
b1000000 e
b1000000 k
b110000000010010000100011 ,
b101000 1
b1000 4
b1000 D
b1000 J
b0 3
b0 C
b0 I
b1100 5
b1100 E
b1 0
b10011 2
b1011 M
1L
b11100 K
b0 V
b0 Y
b101 [
b0 _
b11100 $
1"
#16800
0"
#17100
b0 8
b0 N
0%
06
b0 7
b0 d
b10100000000001010010011 '
b10100000000001010010011 l
b110100 !
b110100 *
b0 M
b111000 K
b111 Z
b101000 Y
b0 [
b1000 1
b1100 4
b1100 D
b1100 J
b1000 5
b1000 E
b0 0
b10 /
b100011 2
b0 +
b0 .
b0 H
b0 U
b0 e
b0 k
b100000000010011010000011 ,
b10 j
b11101 $
1"
#17400
0"
#17700
b10100000010000000100011 '
b10100000010000000100011 l
b111000 !
b111000 *
b111 8
b111 N
b100 +
b100 .
b100 H
b100 U
b100 e
b100 k
b10100000000001010010011 ,
b1000 4
b1000 D
b1000 J
b1101 5
b1101 E
b11 2
b1100 M
0L
b0 K
b0 Z
b10 X
b10 f
b1000 Y
b111 _
b1 j
b11110 $
1"
#18000
0"
#18300
b101 8
b101 N
b10001100000011 '
b10001100000011 l
b111100 !
b111100 *
b0 _
b1000 M
b111 Z
b101 1
b101 4
b101 D
b101 J
b101 5
b101 E
b0 /
b10011 2
b1000 +
b1000 .
b1000 H
b1000 U
b1000 e
b1000 k
b10100000010000000100011 ,
b101 >
b101 T
b101 A
b101 S
0)
b0 j
b11111 $
1"
#18600
0"
#18900
b0 >
b0 T
b1000110000001110010011 '
b1000110000001110010011 l
b1000000 !
b1000000 *
b0 A
b0 S
b10 ;
b10 G
b10 W
16
b101 7
b101 d
b0 =
b0 ]
b1100 +
b1100 .
b1100 H
b1100 U
b1100 e
b1100 k
b10001100000011 ,
b0 1
b0 5
b0 E
b10 /
b100011 2
b1101 M
b101 V
b101 Z
b0 X
b0 f
b101 Y
b1 [
b111 _
b100000 $
1"
#19200
0"
#19500
b0 8
b0 N
b0 ;
b0 G
b0 W
06
b0 7
b0 d
1b
b11100000000010000010011 '
b11100000000010000010011 l
b0 !
b0 *
b0 _
b101 M
1L
b101 K
b0 V
b0 Z
b10 X
b10 f
b0 Y
b11 [
b0 4
b0 D
b0 J
b110 5
b110 E
b11 2
b10000 +
b10000 .
b10000 H
b10000 U
b10000 e
b10000 k
b1000110000001110010011 ,
b100001 $
1"
#19800
0"
#20100
b10 >
b10 T
b100000111000111001100011 '
b100000111000111001100011 l
b100 !
b100 *
b10 A
b10 S
b10 <
b10 F
0b
16
b10100 +
b10100 .
b10100 H
b10100 U
b10100 e
b10100 k
b11100000000010000010011 ,
b10 1
b10 4
b10 D
b10 J
b110 3
b110 C
b110 I
b111 5
b111 E
b0 /
b10011 2
b0 M
0L
b0 K
b10 [
b100010 $
1"
#20400
0"
#20700
b111 >
b111 T
b10 8
b10 N
b10 ;
b10 G
b10 W
b0 <
b0 F
b10 7
b10 d
b101000000000010100010011 '
b101000000000010100010011 l
b111 A
b111 S
b1000 !
b1000 *
b110 M
1L
b10 V
b0 X
b0 f
b10 Y
b1 [
b111 1
b111 4
b111 D
b111 J
b0 3
b0 C
b0 I
b1000 5
b1000 E
b11000 +
b11000 .
b11000 H
b11000 U
b11000 e
b11000 k
b100000111000111001100011 ,
b100011 $
1"
#21000
0"
#21300
b1 >
b1 T
b10001110000011 '
b10001110000011 l
b1100 !
b1100 *
b111 8
b111 N
b10 9
b10 O
b10 A
b10 S
b10 @
b10 R
b1101 ?
b1101 Q
b1 <
b1 F
b111 7
b111 d
b10 =
b10 ]
b11100 +
b11100 .
b11100 H
b11100 U
b11100 e
b11100 k
b101000000000010100010011 ,
b11100 1
b1000 4
b1000 D
b1000 J
b111 3
b111 C
b111 I
b11100 5
b11100 E
b1100011 2
b111 M
b10 K
b111 V
b111 Y
b100100 $
1"
#21600
0"
#21900
1)
b11 j
b0 >
b0 T
b0 8
b0 N
b0 9
b0 O
b0 ;
b0 G
b0 W
b0 <
b0 F
06
b0 7
b0 d
b110000 &
b110000 -
b110000 :
b110000 c
1%
b11100101000110001100011 '
b11100101000110001100011 l
b0 A
b0 S
b0 @
b0 R
b0 ?
b0 Q
b10000 !
b10000 *
b10 _
b10 ^
b1000 M
b111 K
b1 V
b10 Z
b11100 Y
b100 [
b1010 1
b1010 4
b1010 D
b1010 J
b0 3
b0 C
b0 I
b1010 5
b1010 E
b10011 2
b100000 +
b100000 .
b100000 H
b100000 U
b100000 e
b100000 k
b10001110000011 ,
b100101 $
1"
#22200
0"
#22500
b1110000000000010110010011 '
b1110000000000010110010011 l
b10100 !
b10100 *
0%
b110000 +
b110000 .
b110000 H
b110000 U
b110000 e
b110000 k
b11100101000110001100011 ,
b0 1
b0 4
b0 D
b0 J
b111 5
b111 E
b10 /
b11 2
b11100 M
0L
b0 K
b0 V
b0 Z
b1010 Y
b0 [
b0 ^
b10 j
b100110 $
1"
#22800
0"
#23100
b10 8
b10 N
b101 9
b101 O
b1011000000001100111 '
b1011000000001100111 l
b11000 !
b11000 *
b0 _
b1010 M
b10 X
b10 f
b0 Y
b11000 1
b111 4
b111 D
b111 J
b101 3
b101 C
b101 I
b11000 5
b11000 E
b0 /
b1100011 2
b110100 +
b110100 .
b110100 H
b110100 U
b110100 e
b110100 k
b1110000000000010110010011 ,
b1 j
b100111 $
1"
#23400
0"
#23700
b11100 >
b11100 T
b10100000000000011000010011 '
b10100000000000011000010011 l
b11100 !
b11100 *
b0 8
b0 N
b0 9
b0 O
b111000 +
b111000 .
b111000 H
b111000 U
b111000 e
b111000 k
b1011000000001100111 ,
b11100 1
b11100 4
b11100 D
b11100 J
b0 3
b0 C
b0 I
b1011 5
b1011 E
b10011 2
b111 M
b10 Z
b0 X
b0 f
b11000 Y
b11100 A
b11100 S
b0 @
b0 R
b0 ?
b0 Q
0)
b0 j
b101000 $
1"
#24000
0"
#24300
b0 >
b0 T
b11100 9
b11100 O
b10 <
b10 F
16
b11100 7
b11100 d
b0 =
b0 ]
b110000000010010000100011 '
b110000000010010000100011 l
b0 A
b0 S
b100000 !
b100000 *
b10 _
b11000 M
b11100 V
b0 Z
b11100 Y
b1 [
b0 1
b0 4
b0 D
b0 J
b1011 3
b1011 C
b1011 I
b0 5
b0 E
b1100111 2
b111100 +
b111100 .
b111100 H
b111100 U
b111100 e
b111100 k
b10100000000000011000010011 ,
b101001 $
1"
#24600
0"
#24900
b0 >
b0 T
1)
b11 j
b100000000010011010000011 '
b100000000010011010000011 l
b110000 !
b110000 *
b111 8
b111 N
b0 9
b0 O
b0 A
b0 S
b0 @
b0 R
b0 <
b0 F
b111000 7
b111000 d
b0 &
b0 -
b0 :
b0 c
1%
b11100 =
b11100 ]
b1000000 +
b1000000 .
b1000000 H
b1000000 U
b1000000 e
b1000000 k
b110000000010010000100011 ,
b101000 1
b1000 4
b1000 D
b1000 J
b0 3
b0 C
b0 I
b1100 5
b1100 E
b1 0
b10011 2
b1011 M
1L
b11100 K
b0 V
b0 Y
b101 [
b0 _
b101010 $
1"
#25200
0"
#25500
b0 8
b0 N
0%
06
b0 7
b0 d
b10100000000001010010011 '
b10100000000001010010011 l
b110100 !
b110100 *
b0 M
b111000 K
b111 Z
b101000 Y
b0 [
b1000 1
b1100 4
b1100 D
b1100 J
b1000 5
b1000 E
b0 0
b10 /
b100011 2
b0 +
b0 .
b0 H
b0 U
b0 e
b0 k
b100000000010011010000011 ,
b10 j
b101011 $
1"
#25800
0"
#26100
b10100000010000000100011 '
b10100000010000000100011 l
b111000 !
b111000 *
b111 8
b111 N
b100 +
b100 .
b100 H
b100 U
b100 e
b100 k
b10100000000001010010011 ,
b1000 4
b1000 D
b1000 J
b1101 5
b1101 E
b11 2
b1100 M
0L
b0 K
b0 Z
b10 X
b10 f
b1000 Y
b111 _
b1 j
b101100 $
1"
#26400
0"
#26700
b101 8
b101 N
b10001100000011 '
b10001100000011 l
b111100 !
b111100 *
b0 _
b1000 M
b111 Z
b101 1
b101 4
b101 D
b101 J
b101 5
b101 E
b0 /
b10011 2
b1000 +
b1000 .
b1000 H
b1000 U
b1000 e
b1000 k
b10100000010000000100011 ,
b101 >
b101 T
b101 A
b101 S
0)
b0 j
b101101 $
1"
#27000
0"
#27300
b0 >
b0 T
b1000110000001110010011 '
b1000110000001110010011 l
b1000000 !
b1000000 *
b0 A
b0 S
b10 ;
b10 G
b10 W
16
b101 7
b101 d
b0 =
b0 ]
b1100 +
b1100 .
b1100 H
b1100 U
b1100 e
b1100 k
b10001100000011 ,
b0 1
b0 5
b0 E
b10 /
b100011 2
b1101 M
b101 V
b101 Z
b0 X
b0 f
b101 Y
b1 [
b111 _
b101110 $
1"
#27600
0"
#27900
b0 8
b0 N
b0 ;
b0 G
b0 W
06
b0 7
b0 d
1b
b11100000000010000010011 '
b11100000000010000010011 l
b0 !
b0 *
b0 _
b101 M
1L
b101 K
b0 V
b0 Z
b10 X
b10 f
b0 Y
b11 [
b0 4
b0 D
b0 J
b110 5
b110 E
b11 2
b10000 +
b10000 .
b10000 H
b10000 U
b10000 e
b10000 k
b1000110000001110010011 ,
b101111 $
1"
#28200
0"
#28500
b10 >
b10 T
b100000111000111001100011 '
b100000111000111001100011 l
b100 !
b100 *
b10 A
b10 S
b10 <
b10 F
0b
16
b10100 +
b10100 .
b10100 H
b10100 U
b10100 e
b10100 k
b11100000000010000010011 ,
b10 1
b10 4
b10 D
b10 J
b110 3
b110 C
b110 I
b111 5
b111 E
b0 /
b10011 2
b0 M
0L
b0 K
b10 [
b110000 $
1"
#28800
0"
#29100
b111 >
b111 T
b10 8
b10 N
b10 ;
b10 G
b10 W
b0 <
b0 F
b10 7
b10 d
b101000000000010100010011 '
b101000000000010100010011 l
b111 A
b111 S
b1000 !
b1000 *
b110 M
1L
b10 V
b0 X
b0 f
b10 Y
b1 [
b111 1
b111 4
b111 D
b111 J
b0 3
b0 C
b0 I
b1000 5
b1000 E
b11000 +
b11000 .
b11000 H
b11000 U
b11000 e
b11000 k
b100000111000111001100011 ,
b110001 $
1"
#29400
0"
#29700
b1 >
b1 T
b10001110000011 '
b10001110000011 l
b1100 !
b1100 *
b111 8
b111 N
b10 9
b10 O
b10 A
b10 S
b10 @
b10 R
b1101 ?
b1101 Q
b1 <
b1 F
b111 7
b111 d
b10 =
b10 ]
b11100 +
b11100 .
b11100 H
b11100 U
b11100 e
b11100 k
b101000000000010100010011 ,
b11100 1
b1000 4
b1000 D
b1000 J
b111 3
b111 C
b111 I
b11100 5
b11100 E
b1100011 2
b111 M
b10 K
b111 V
b111 Y
b110010 $
1"
#30000
0"
#30300
1)
b11 j
b0 >
b0 T
b0 8
b0 N
b0 9
b0 O
b0 ;
b0 G
b0 W
b0 <
b0 F
06
b0 7
b0 d
b110000 &
b110000 -
b110000 :
b110000 c
1%
b11100101000110001100011 '
b11100101000110001100011 l
b0 A
b0 S
b0 @
b0 R
b0 ?
b0 Q
b10000 !
b10000 *
b10 _
b10 ^
b1000 M
b111 K
b1 V
b10 Z
b11100 Y
b100 [
b1010 1
b1010 4
b1010 D
b1010 J
b0 3
b0 C
b0 I
b1010 5
b1010 E
b10011 2
b100000 +
b100000 .
b100000 H
b100000 U
b100000 e
b100000 k
b10001110000011 ,
b110011 $
1"
#30600
0"
#30900
b1110000000000010110010011 '
b1110000000000010110010011 l
b10100 !
b10100 *
0%
b110000 +
b110000 .
b110000 H
b110000 U
b110000 e
b110000 k
b11100101000110001100011 ,
b0 1
b0 4
b0 D
b0 J
b111 5
b111 E
b10 /
b11 2
b11100 M
0L
b0 K
b0 V
b0 Z
b1010 Y
b0 [
b0 ^
b10 j
b110100 $
1"
#31200
0"
