pipelinecpu-FPGA/build/test.vcd
$date
	Wed May  8 16:01:29 2024
$end
$version
	Icarus Verilog
$end
$timescale
	1ns
$end
$scope module CPU_tb $end
$var wire 8 ! disp_seg_o [7:0] $end
$var wire 8 " disp_an_o [7:0] $end
$var reg 1 # clk $end
$var reg 1 $ reset $end
$var reg 16 % switches [15:0] $end
$var integer 32 & counter [31:0] $end
$scope module cpu $end
$var wire 1 # clk $end
$var wire 32 ' instr [31:0] $end
$var wire 1 ( reset $end
$var wire 1 $ resetNeg $end
$var wire 16 ) switches [15:0] $end
$var wire 32 * regWatchData [31:0] $end
$var wire 1 + pcWriteEnable $end
$var wire 32 , pcWriteData [31:0] $end
$var wire 32 - memWatchData [31:0] $end
$var wire 1 . hazard $end
$var wire 1 / flush $end
$var wire 8 0 disp_seg_o [7:0] $end
$var wire 8 1 disp_an_o [7:0] $end
$var wire 32 2 aluWatchO [31:0] $end
$var wire 1 3 CPU_clk $end
$var reg 32 4 clkDiv [31:0] $end
$var reg 64 5 displayData [63:0] $end
$var reg 32 6 memWatchAddr [31:0] $end
$var reg 5 7 regWatchNum [4:0] $end
$scope module ID $end
$var wire 32 8 PC [31:0] $end
$var wire 1 # clk $end
$var wire 32 9 instr [31:0] $end
$var wire 32 : memWatchAddr [31:0] $end
$var wire 5 ; regWatchNum [4:0] $end
$var wire 1 ( reset $end
$var wire 32 < regWatchData [31:0] $end
$var wire 1 + pcWriteEnable $end
$var wire 32 = pcWriteData [31:0] $end
$var wire 32 > memWatchData [31:0] $end
$var wire 1 . hazard $end
$var wire 1 / flush $end
$var wire 32 ? aluWatchO [31:0] $end
$scope module EX $end
$var wire 32 @ PC [31:0] $end
$var wire 32 A aluWatchO [31:0] $end
$var wire 1 # clk $end
$var wire 3 B func3 [2:0] $end
$var wire 7 C func7 [6:0] $end
$var wire 32 D imm [31:0] $end
$var wire 32 E memWatchAddr [31:0] $end
$var wire 7 F opcode [6:0] $end
$var wire 5 G regNum0 [4:0] $end
$var wire 5 H regNum1 [4:0] $end
$var wire 5 I regWatchNum [4:0] $end
$var wire 5 J regWriteNum [4:0] $end
$var wire 1 ( reset $end
$var wire 1 K regWriteEnable $end
$var wire 32 L regWriteData [31:0] $end
$var wire 32 M regWatchData [31:0] $end
$var wire 32 N regReadData1 [31:0] $end
$var wire 32 O regReadData0 [31:0] $end
$var wire 1 + pcWriteEnable $end
$var wire 32 P pcWriteData [31:0] $end
$var wire 32 Q memWatchData [31:0] $end
$var wire 2 R forwardB [1:0] $end
$var wire 2 S forwardA [1:0] $end
$var wire 1 / flush $end
$var wire 32 T data [31:0] $end
$var wire 32 U aluO [31:0] $end
$var reg 4 V aluOp [3:0] $end
$var reg 32 W aluX [31:0] $end
$var reg 32 X aluY [31:0] $end
$var reg 1 . hazard $end
$var reg 1 Y waithazard $end
$scope module Forwarding $end
$var wire 1 # clk $end
$var wire 5 Z regReadNum0 [4:0] $end
$var wire 5 [ regReadNum1 [4:0] $end
$var wire 5 \ regWriteNum [4:0] $end
$var wire 1 / flush $end
$var reg 2 ] forwardA [1:0] $end
$var reg 2 ^ forwardB [1:0] $end
$upscope $end
$scope module RF $end
$var wire 32 _ PC [31:0] $end
$var wire 1 # clk $end
$var wire 5 ` regNum0 [4:0] $end
$var wire 5 a regNum1 [4:0] $end
$var wire 5 b regWatchNum [4:0] $end
$var wire 32 c regWriteData [31:0] $end
$var wire 1 d regWriteEnable $end
$var wire 5 e regWriteNum [4:0] $end
$var wire 1 ( reset $end
$var wire 32 f regWatchData [31:0] $end
$var wire 32 g regReadData1 [31:0] $end
$var wire 32 h regReadData0 [31:0] $end
$var integer 32 i i [31:0] $end
$upscope $end
$scope module alu $end
$var wire 4 j aluOp [3:0] $end
$var wire 32 k aluX [31:0] $end
$var wire 32 l aluY [31:0] $end
$var reg 32 m aluO [31:0] $end
$upscope $end
$scope module control $end
$var wire 32 n PC [31:0] $end
$var wire 32 o aluO [31:0] $end
$var wire 1 # clk $end
$var wire 2 p forwordB [1:0] $end
$var wire 3 q func3 [2:0] $end
$var wire 32 r imm [31:0] $end
$var wire 32 s memWatchAddr [31:0] $end
$var wire 32 t regReadData1 [31:0] $end
$var wire 1 ( reset $end
$var wire 3 u state [2:0] $end
$var wire 32 v memWatchData [31:0] $end
$var wire 32 w memReadData [31:0] $end
$var reg 32 x data [31:0] $end
$var reg 32 y memAddr [31:0] $end
$var reg 32 z memWriteData [31:0] $end
$var reg 1 { memWriteEnable $end
$var reg 32 | pcWriteData [31:0] $end
$var reg 1 + pcWriteEnable $end
$var reg 32 } regWriteData [31:0] $end
$var reg 1 K regWriteEnable $end
$scope module mem $end
$var wire 32 ~ PC [31:0] $end
$var wire 1 # clk $end
$var wire 3 !" func3 [2:0] $end
$var wire 32 "" memAddr [31:0] $end
$var wire 32 #" memWatchAddr [31:0] $end
$var wire 32 $" memWriteData [31:0] $end
$var wire 1 { memWriteEnable $end
$var reg 32 %" memReadData [31:0] $end
$var reg 32 &" memWatchData [31:0] $end
$upscope $end
$upscope $end
$upscope $end
$upscope $end
$scope module flushing $end
$var wire 1 # clk $end
$var wire 1 + pcWriteEnable $end
$var wire 1 / flush $end
$var integer 32 '" i [31:0] $end
$upscope $end
$scope module u_seg7x16 $end
$var wire 1 # clk $end
$var wire 1 (" disp_mode $end
$var wire 64 )" i_data [63:0] $end
$var wire 8 *" o_seg [7:0] $end
$var wire 8 +" o_sel [7:0] $end
$var wire 1 ( rstn $end
$var wire 1 ," seg7_clk $end
$var reg 15 -" cnt [14:0] $end
$var reg 64 ." i_data_store [63:0] $end
$var reg 8 /" o_seg_r [7:0] $end
$var reg 8 0" o_sel_r [7:0] $end
$var reg 3 1" seg7_addr [2:0] $end
$var reg 8 2" seg_data_r [7:0] $end
$upscope $end
$upscope $end
$upscope $end
$scope module InstrMem $end
$var wire 32 3" instrAddr [31:0] $end
$var wire 32 4" instrData [31:0] $end
$upscope $end
$enddefinitions $end
$comment Show the parameter values. $end
$dumpall
$end
#0
$dumpvars
bx 4"
bz 3"
bx 2"
bx 1"
bx 0"
bx /"
bx ."
bx -"
x,"
bx +"
bx *"
bx )"
x("
b0 '"
bx &"
bx %"
bx $"
bx #"
bx ""
bx !"
b11111111111111111111111111111100 ~
bx }
b0 |
x{
bx z
bx y
bx x
bx w
bx v
bx u
bx t
bx s
bx r
bx q
b0 p
bx o
b11111111111111111111111111111100 n
bx m
bx l
bx k
bx j
b100000 i
bx h
bx g
bx f
bx e
xd
bx c
bx b
bx a
bx `
b11111111111111111111111111111100 _
b0 ^
b0 ]
bx \
bx [
bx Z
xY
bx X
bx W
bx V
bx U
bx T
b0 S
b0 R
bx Q
b0 P
bx O
bx N
bx M
bx L
xK
bx J
bx I
bx H
bx G
bx F
bx E
bx D
bx C
bx B
bx A
b11111111111111111111111111111100 @
bx ?
bx >
b0 =
bx <
bx ;
bx :
bx 9
b11111111111111111111111111111100 8
bx 7
bx 6
bx 5
bx 4
x3
bx 2
bx 1
bx 0
0/
x.
bx -
b0 ,
0+
bx *
bx )
x(
bz '
b0 &
bx %
x$
0#
bx "
bx !
$end
#300
b0 z
b0 $"
0{
0K
b0 L
b0 }
0Y
b0 u
b1 &
1#
#600
0#
#900
0d
b0 c
0.
b10 &
1#
#1200
0#
#1500
b0 8
b0 @
b0 _
b0 n
b0 ~
bz 9
b11 &
1#
#1800
0#
#2100
b100 8
b100 @
b100 _
b100 n
b100 ~
bz J
bz \
bz H
bz [
bz a
bz G
bz Z
bz `
bz F
bz D
bz C
bz B
b100 &
1#
#2400
0#
#2700
bz r
bz q
bz !"
b1000 8
b1000 @
b1000 _
b1000 n
b1000 ~
b101 &
1#
#3000
0#
#3300
b1100 8
b1100 @
b1100 _
b1100 n
b1100 ~
bz e
b110 &
1#
#3600
0#
#3900
b10000 8
b10000 @
b10000 _
b10000 n
b10000 ~
b111 &
1#
#4200
0#
#4500
b10100 8
b10100 @
b10100 _
b10100 n
b10100 ~
b1000 &
1#
#4800
0#
#5100
b11000 8
b11000 @
b11000 _
b11000 n
b11000 ~
b1001 &
1#
#5400
0#
#5700
b11100 8
b11100 @
b11100 _
b11100 n
b11100 ~
b1010 &
1#
#6000
0#
#6300
b100000 8
b100000 @
b100000 _
b100000 n
b100000 ~
b1011 &
1#
#6600
0#
#6900
b100100 8
b100100 @
b100100 _
b100100 n
b100100 ~
b1100 &
1#
#7200
0#
#7500
b101000 8
b101000 @
b101000 _
b101000 n
b101000 ~
b1101 &
1#
#7800
0#
#8100
b101100 8
b101100 @
b101100 _
b101100 n
b101100 ~
b1110 &
1#
#8400
0#
#8700
b110000 8
b110000 @
b110000 _
b110000 n
b110000 ~
b1111 &
1#
#9000
0#
#9300
b110100 8
b110100 @
b110100 _
b110100 n
b110100 ~
b10000 &
1#
#9600
0#
#9900
b111000 8
b111000 @
b111000 _
b111000 n
b111000 ~
b10001 &
1#
#10200
0#
#10500
b111100 8
b111100 @
b111100 _
b111100 n
b111100 ~
b10010 &
1#
#10800
0#
#11100
b1000000 8
b1000000 @
b1000000 _
b1000000 n
b1000000 ~
b10011 &
1#
#11400
0#
#11700
b1000100 8
b1000100 @
b1000100 _
b1000100 n
b1000100 ~
b10100 &
1#
#12000
0#
#12300
b1001000 8
b1001000 @
b1001000 _
b1001000 n
b1001000 ~
b10101 &
1#
#12600
0#
#12900
b1001100 8
b1001100 @
b1001100 _
b1001100 n
b1001100 ~
b10110 &
1#
#13200
0#
#13500
b1010000 8
b1010000 @
b1010000 _
b1010000 n
b1010000 ~
b10111 &
1#
#13800
0#
#14100
b1010100 8
b1010100 @
b1010100 _
b1010100 n
b1010100 ~
b11000 &
1#
#14400
0#
#14700
b1011000 8
b1011000 @
b1011000 _
b1011000 n
b1011000 ~
b11001 &
1#
#15000
0#
#15300
b1011100 8
b1011100 @
b1011100 _
b1011100 n
b1011100 ~
b11010 &
1#
#15600
0#
#15900
b1100000 8
b1100000 @
b1100000 _
b1100000 n
b1100000 ~
b11011 &
1#
#16200
0#
#16500
b1100100 8
b1100100 @
b1100100 _
b1100100 n
b1100100 ~
b11100 &
1#
#16800
0#
#17100
b1101000 8
b1101000 @
b1101000 _
b1101000 n
b1101000 ~
b11101 &
1#
#17400
0#
#17700
b1101100 8
b1101100 @
b1101100 _
b1101100 n
b1101100 ~
b11110 &
1#
#18000
0#
#18300
b1110000 8
b1110000 @
b1110000 _
b1110000 n
b1110000 ~
b11111 &
1#
#18600
0#
#18900
b1110100 8
b1110100 @
b1110100 _
b1110100 n
b1110100 ~
b100000 &
1#
#19200
0#
#19500
b1111000 8
b1111000 @
b1111000 _
b1111000 n
b1111000 ~
b100001 &
1#
#19800
0#
#20100
b1111100 8
b1111100 @
b1111100 _
b1111100 n
b1111100 ~
b100010 &
1#
#20400
0#
#20700
b10000000 8
b10000000 @
b10000000 _
b10000000 n
b10000000 ~
b100011 &
1#
#21000
0#
#21300
b10000100 8
b10000100 @
b10000100 _
b10000100 n
b10000100 ~
b100100 &
1#
#21600
0#
#21900
b10001000 8
b10001000 @
b10001000 _
b10001000 n
b10001000 ~
b100101 &
1#
#22200
0#
#22500
b10001100 8
b10001100 @
b10001100 _
b10001100 n
b10001100 ~
b100110 &
1#
#22800
0#
#23100
b10010000 8
b10010000 @
b10010000 _
b10010000 n
b10010000 ~
b100111 &
1#
#23400
0#
#23700
b10010100 8
b10010100 @
b10010100 _
b10010100 n
b10010100 ~
b101000 &
1#
#24000
0#
#24300
b10011000 8
b10011000 @
b10011000 _
b10011000 n
b10011000 ~
b101001 &
1#
#24600
0#
#24900
b10011100 8
b10011100 @
b10011100 _
b10011100 n
b10011100 ~
b101010 &
1#
#25200
0#
#25500
b10100000 8
b10100000 @
b10100000 _
b10100000 n
b10100000 ~
b101011 &
1#
#25800
0#
#26100
b10100100 8
b10100100 @
b10100100 _
b10100100 n
b10100100 ~
b101100 &
1#
#26400
0#
#26700
b10101000 8
b10101000 @
b10101000 _
b10101000 n
b10101000 ~
b101101 &
1#
#27000
0#
#27300
b10101100 8
b10101100 @
b10101100 _
b10101100 n
b10101100 ~
b101110 &
1#
#27600
0#
#27900
b10110000 8
b10110000 @
b10110000 _
b10110000 n
b10110000 ~
b101111 &
1#
#28200
0#
#28500
b10110100 8
b10110100 @
b10110100 _
b10110100 n
b10110100 ~
b110000 &
1#
#28800
0#
#29100
b10111000 8
b10111000 @
b10111000 _
b10111000 n
b10111000 ~
b110001 &
1#
#29400
0#
#29700
b10111100 8
b10111100 @
b10111100 _
b10111100 n
b10111100 ~
b110010 &
1#
#30000
0#
#30300
b11000000 8
b11000000 @
b11000000 _
b11000000 n
b11000000 ~
b110011 &
1#
#30600
0#
#30900
b11000100 8
b11000100 @
b11000100 _
b11000100 n
b11000100 ~
b110100 &
1#
#31200
0#
#31500
b11001000 8
b11001000 @
b11001000 _
b11001000 n
b11001000 ~
b110101 &
1#
#31800
0#
#32100
b11001100 8
b11001100 @
b11001100 _
b11001100 n
b11001100 ~
b110110 &
1#
#32400
0#
#32700
b11010000 8
b11010000 @
b11010000 _
b11010000 n
b11010000 ~
b110111 &
1#
#33000
0#
#33300
b11010100 8
b11010100 @
b11010100 _
b11010100 n
b11010100 ~
b111000 &
1#
#33600
0#
#33900
b11011000 8
b11011000 @
b11011000 _
b11011000 n
b11011000 ~
b111001 &
1#
#34200
0#
#34500
b11011100 8
b11011100 @
b11011100 _
b11011100 n
b11011100 ~
b111010 &
1#
#34800
0#
#35100
b11100000 8
b11100000 @
b11100000 _
b11100000 n
b11100000 ~
b111011 &
1#
#35400
0#
#35700
b11100100 8
b11100100 @
b11100100 _
b11100100 n
b11100100 ~
b111100 &
1#
#36000
0#
#36300
b11101000 8
b11101000 @
b11101000 _
b11101000 n
b11101000 ~
b111101 &
1#
#36600
0#
#36900
b11101100 8
b11101100 @
b11101100 _
b11101100 n
b11101100 ~
b111110 &
1#
#37200
0#
#37500
b11110000 8
b11110000 @
b11110000 _
b11110000 n
b11110000 ~
b111111 &
1#
#37800
0#
#38100
b11110100 8
b11110100 @
b11110100 _
b11110100 n
b11110100 ~
b1000000 &
1#
#38400
0#
#38700
b11111000 8
b11111000 @
b11111000 _
b11111000 n
b11111000 ~
b1000001 &
1#
#39000
0#
#39300
b11111100 8
b11111100 @
b11111100 _
b11111100 n
b11111100 ~
b1000010 &
1#
#39600
0#
#39900
b100000000 8
b100000000 @
b100000000 _
b100000000 n
b100000000 ~
b1000011 &
1#
#40200
0#
#40500
b100000100 8
b100000100 @
b100000100 _
b100000100 n
b100000100 ~
b1000100 &
1#
#40800
0#
#41100
b100001000 8
b100001000 @
b100001000 _
b100001000 n
b100001000 ~
b1000101 &
1#
#41400
0#
#41700
b100001100 8
b100001100 @
b100001100 _
b100001100 n
b100001100 ~
b1000110 &
1#
#42000
0#
#42300
b100010000 8
b100010000 @
b100010000 _
b100010000 n
b100010000 ~
b1000111 &
1#
#42600
0#
#42900
b100010100 8
b100010100 @
b100010100 _
b100010100 n
b100010100 ~
b1001000 &
1#
#43200
0#
#43500
b100011000 8
b100011000 @
b100011000 _
b100011000 n
b100011000 ~
b1001001 &
1#
#43800
0#
#44100
b100011100 8
b100011100 @
b100011100 _
b100011100 n
b100011100 ~
b1001010 &
1#
#44400
0#
#44700
b100100000 8
b100100000 @
b100100000 _
b100100000 n
b100100000 ~
b1001011 &
1#
#45000
0#
#45300
b100100100 8
b100100100 @
b100100100 _
b100100100 n
b100100100 ~
b1001100 &
1#
#45600
0#
#45900
b100101000 8
b100101000 @
b100101000 _
b100101000 n
b100101000 ~
b1001101 &
1#
#46200
0#
#46500
b100101100 8
b100101100 @
b100101100 _
b100101100 n
b100101100 ~
b1001110 &
1#
#46800
0#
#47100
b100110000 8
b100110000 @
b100110000 _
b100110000 n
b100110000 ~
b1001111 &
1#
#47400
0#
#47700
b100110100 8
b100110100 @
b100110100 _
b100110100 n
b100110100 ~
b1010000 &
1#
#48000
0#
#48300
b100111000 8
b100111000 @
b100111000 _
b100111000 n
b100111000 ~
b1010001 &
1#
#48600
0#
#48900
b100111100 8
b100111100 @
b100111100 _
b100111100 n
b100111100 ~
b1010010 &
1#
#49200
0#
#49500
b101000000 8
b101000000 @
b101000000 _
b101000000 n
b101000000 ~
b1010011 &
1#
#49800
0#
#50100
b101000100 8
b101000100 @
b101000100 _
b101000100 n
b101000100 ~
b1010100 &
1#
#50400
0#
#50700
b101001000 8
b101001000 @
b101001000 _
b101001000 n
b101001000 ~
b1010101 &
1#
#51000
0#
#51300
b101001100 8
b101001100 @
b101001100 _
b101001100 n
b101001100 ~
b1010110 &
1#
#51600
0#
#51900
b101010000 8
b101010000 @
b101010000 _
b101010000 n
b101010000 ~
b1010111 &
1#
#52200
0#
#52500
b101010100 8
b101010100 @
b101010100 _
b101010100 n
b101010100 ~
b1011000 &
1#
#52800
0#
#53100
b101011000 8
b101011000 @
b101011000 _
b101011000 n
b101011000 ~
b1011001 &
1#
#53400
0#
#53700
b101011100 8
b101011100 @
b101011100 _
b101011100 n
b101011100 ~
b1011010 &
1#
#54000
0#
#54300
b101100000 8
b101100000 @
b101100000 _
b101100000 n
b101100000 ~
b1011011 &
1#
#54600
0#
#54900
b101100100 8
b101100100 @
b101100100 _
b101100100 n
b101100100 ~
b1011100 &
1#
#55200
0#
#55500
b101101000 8
b101101000 @
b101101000 _
b101101000 n
b101101000 ~
b1011101 &
1#
#55800
0#
#56100
b101101100 8
b101101100 @
b101101100 _
b101101100 n
b101101100 ~
b1011110 &
1#
#56400
0#
#56700
b101110000 8
b101110000 @
b101110000 _
b101110000 n
b101110000 ~
b1011111 &
1#
#57000
0#
#57300
b101110100 8
b101110100 @
b101110100 _
b101110100 n
b101110100 ~
b1100000 &
1#
#57600
0#
#57900
b101111000 8
b101111000 @
b101111000 _
b101111000 n
b101111000 ~
b1100001 &
1#
#58200
0#
#58500
b101111100 8
b101111100 @
b101111100 _
b101111100 n
b101111100 ~
b1100010 &
1#
#58800
0#
#59100
b110000000 8
b110000000 @
b110000000 _
b110000000 n
b110000000 ~
b1100011 &
1#
#59400
0#
#59700
b110000100 8
b110000100 @
b110000100 _
b110000100 n
b110000100 ~
b1100100 &
1#
#60000
0#
#60300
b110001000 8
b110001000 @
b110001000 _
b110001000 n
b110001000 ~
b1100101 &
1#
#60600
0#
#60900
b110001100 8
b110001100 @
b110001100 _
b110001100 n
b110001100 ~
b1100110 &
1#
#61200
0#
#61500
b110010000 8
b110010000 @
b110010000 _
b110010000 n
b110010000 ~
b1100111 &
1#
#61800
0#
#62100
b110010100 8
b110010100 @
b110010100 _
b110010100 n
b110010100 ~
b1101000 &
1#
#62400
0#
#62700
b110011000 8
b110011000 @
b110011000 _
b110011000 n
b110011000 ~
b1101001 &
1#
#63000
0#
#63300
b110011100 8
b110011100 @
b110011100 _
b110011100 n
b110011100 ~
b1101010 &
1#
#63600
0#
#63900
b110100000 8
b110100000 @
b110100000 _
b110100000 n
b110100000 ~
b1101011 &
1#
#64200
0#
#64500
b110100100 8
b110100100 @
b110100100 _
b110100100 n
b110100100 ~
b1101100 &
1#
#64800
0#
#65100
b110101000 8
b110101000 @
b110101000 _
b110101000 n
b110101000 ~
b1101101 &
1#
#65400
0#
#65700
b110101100 8
b110101100 @
b110101100 _
b110101100 n
b110101100 ~
b1101110 &
1#
#66000
0#
#66300
b110110000 8
b110110000 @
b110110000 _
b110110000 n
b110110000 ~
b1101111 &
1#
#66600
0#
#66900
b110110100 8
b110110100 @
b110110100 _
b110110100 n
b110110100 ~
b1110000 &
1#
#67200
0#
#67500
b110111000 8
b110111000 @
b110111000 _
b110111000 n
b110111000 ~
b1110001 &
1#
#67800
0#
#68100
b110111100 8
b110111100 @
b110111100 _
b110111100 n
b110111100 ~
b1110010 &
1#
#68400
0#
#68700
b111000000 8
b111000000 @
b111000000 _
b111000000 n
b111000000 ~
b1110011 &
1#
#69000
0#
#69300
b111000100 8
b111000100 @
b111000100 _
b111000100 n
b111000100 ~
b1110100 &
1#
#69600
0#
#69900
b111001000 8
b111001000 @
b111001000 _
b111001000 n
b111001000 ~
b1110101 &
1#
#70200
0#
#70500
b111001100 8
b111001100 @
b111001100 _
b111001100 n
b111001100 ~
b1110110 &
1#
#70800
0#
#71100
b111010000 8
b111010000 @
b111010000 _
b111010000 n
b111010000 ~
b1110111 &
1#
#71400
0#
#71700
b111010100 8
b111010100 @
b111010100 _
b111010100 n
b111010100 ~
b1111000 &
1#
#72000
0#
#72300
b111011000 8
b111011000 @
b111011000 _
b111011000 n
b111011000 ~
b1111001 &
1#
#72600
0#
#72900
b111011100 8
b111011100 @
b111011100 _
b111011100 n
b111011100 ~
b1111010 &
1#
#73200
0#
#73500
b111100000 8
b111100000 @
b111100000 _
b111100000 n
b111100000 ~
b1111011 &
1#
#73800
0#
#74100
b111100100 8
b111100100 @
b111100100 _
b111100100 n
b111100100 ~
b1111100 &
1#
#74400
0#
#74700
b111101000 8
b111101000 @
b111101000 _
b111101000 n
b111101000 ~
b1111101 &
1#
#75000
0#
#75300
b111101100 8
b111101100 @
b111101100 _
b111101100 n
b111101100 ~
b1111110 &
1#
#75600
0#
#75900
b111110000 8
b111110000 @
b111110000 _
b111110000 n
b111110000 ~
b1111111 &
1#
#76200
0#
#76500
b111110100 8
b111110100 @
b111110100 _
b111110100 n
b111110100 ~
b10000000 &
1#
#76800
0#
#77100
b111111000 8
b111111000 @
b111111000 _
b111111000 n
b111111000 ~
b10000001 &
1#
#77400
0#
#77700
b111111100 8
b111111100 @
b111111100 _
b111111100 n
b111111100 ~
b10000010 &
1#
#78000
0#
#78300
b1000000000 8
b1000000000 @
b1000000000 _
b1000000000 n
b1000000000 ~
b10000011 &
1#
#78600
0#
#78900
b1000000100 8
b1000000100 @
b1000000100 _
b1000000100 n
b1000000100 ~
b10000100 &
1#
#79200
0#
#79500
b1000001000 8
b1000001000 @
b1000001000 _
b1000001000 n
b1000001000 ~
b10000101 &
1#
#79800
0#
#80100
b1000001100 8
b1000001100 @
b1000001100 _
b1000001100 n
b1000001100 ~
b10000110 &
1#
#80400
0#
#80700
b1000010000 8
b1000010000 @
b1000010000 _
b1000010000 n
b1000010000 ~
b10000111 &
1#
#81000
0#
#81300
b1000010100 8
b1000010100 @
b1000010100 _
b1000010100 n
b1000010100 ~
b10001000 &
1#
#81600
0#
#81900
b1000011000 8
b1000011000 @
b1000011000 _
b1000011000 n
b1000011000 ~
b10001001 &
1#
#82200
0#
#82500
b1000011100 8
b1000011100 @
b1000011100 _
b1000011100 n
b1000011100 ~
b10001010 &
1#
#82800
0#
#83100
b1000100000 8
b1000100000 @
b1000100000 _
b1000100000 n
b1000100000 ~
b10001011 &
1#
#83400
0#
#83700
b1000100100 8
b1000100100 @
b1000100100 _
b1000100100 n
b1000100100 ~
b10001100 &
1#
#84000
0#
#84300
b1000101000 8
b1000101000 @
b1000101000 _
b1000101000 n
b1000101000 ~
b10001101 &
1#
#84600
0#
#84900
b1000101100 8
b1000101100 @
b1000101100 _
b1000101100 n
b1000101100 ~
b10001110 &
1#
#85200
0#
#85500
b1000110000 8
b1000110000 @
b1000110000 _
b1000110000 n
b1000110000 ~
b10001111 &
1#
#85800
0#
#86100
b1000110100 8
b1000110100 @
b1000110100 _
b1000110100 n
b1000110100 ~
b10010000 &
1#
#86400
0#
#86700
b1000111000 8
b1000111000 @
b1000111000 _
b1000111000 n
b1000111000 ~
b10010001 &
1#
#87000
0#
#87300
b1000111100 8
b1000111100 @
b1000111100 _
b1000111100 n
b1000111100 ~
b10010010 &
1#
#87600
0#
#87900
b1001000000 8
b1001000000 @
b1001000000 _
b1001000000 n
b1001000000 ~
b10010011 &
1#
#88200
0#
#88500
b1001000100 8
b1001000100 @
b1001000100 _
b1001000100 n
b1001000100 ~
b10010100 &
1#
#88800
0#
#89100
b1001001000 8
b1001001000 @
b1001001000 _
b1001001000 n
b1001001000 ~
b10010101 &
1#
#89400
0#
#89700
b1001001100 8
b1001001100 @
b1001001100 _
b1001001100 n
b1001001100 ~
b10010110 &
1#
#90000
0#
#90300
b1001010000 8
b1001010000 @
b1001010000 _
b1001010000 n
b1001010000 ~
b10010111 &
1#
#90600
0#
#90900
b1001010100 8
b1001010100 @
b1001010100 _
b1001010100 n
b1001010100 ~
b10011000 &
1#
#91200
0#
#91500
b1001011000 8
b1001011000 @
b1001011000 _
b1001011000 n
b1001011000 ~
b10011001 &
1#
#91800
0#
#92100
b1001011100 8
b1001011100 @
b1001011100 _
b1001011100 n
b1001011100 ~
b10011010 &
1#
#92400
0#
#92700
b1001100000 8
b1001100000 @
b1001100000 _
b1001100000 n
b1001100000 ~
b10011011 &
1#
#93000
0#
#93300
b1001100100 8
b1001100100 @
b1001100100 _
b1001100100 n
b1001100100 ~
b10011100 &
1#
#93600
0#
#93900
b1001101000 8
b1001101000 @
b1001101000 _
b1001101000 n
b1001101000 ~
b10011101 &
1#
#94200
0#
#94500
b1001101100 8
b1001101100 @
b1001101100 _
b1001101100 n
b1001101100 ~
b10011110 &
1#
#94800
0#
#95100
b1001110000 8
b1001110000 @
b1001110000 _
b1001110000 n
b1001110000 ~
b10011111 &
1#
#95400
0#
#95700
b1001110100 8
b1001110100 @
b1001110100 _
b1001110100 n
b1001110100 ~
b10100000 &
1#
#96000
0#
#96300
b1001111000 8
b1001111000 @
b1001111000 _
b1001111000 n
b1001111000 ~
b10100001 &
1#
#96600
0#
#96900
b1001111100 8
b1001111100 @
b1001111100 _
b1001111100 n
b1001111100 ~
b10100010 &
1#
#97200
0#
#97500
b1010000000 8
b1010000000 @
b1010000000 _
b1010000000 n
b1010000000 ~
b10100011 &
1#
#97800
0#
#98100
b1010000100 8
b1010000100 @
b1010000100 _
b1010000100 n
b1010000100 ~
b10100100 &
1#
#98400
0#
#98700
b1010001000 8
b1010001000 @
b1010001000 _
b1010001000 n
b1010001000 ~
b10100101 &
1#
#99000
0#
#99300
b1010001100 8
b1010001100 @
b1010001100 _
b1010001100 n
b1010001100 ~
b10100110 &
1#
#99600
0#
#99900
b1010010000 8
b1010010000 @
b1010010000 _
b1010010000 n
b1010010000 ~
b10100111 &
1#
#100200
0#
#100500
b1010010100 8
b1010010100 @
b1010010100 _
b1010010100 n
b1010010100 ~
b10101000 &
1#
#100800
0#
#101100
b1010011000 8
b1010011000 @
b1010011000 _
b1010011000 n
b1010011000 ~
b10101001 &
1#
#101400
0#
#101700
b1010011100 8
b1010011100 @
b1010011100 _
b1010011100 n
b1010011100 ~
b10101010 &
1#
#102000
0#
#102300
b1010100000 8
b1010100000 @
b1010100000 _
b1010100000 n
b1010100000 ~
b10101011 &
1#
#102600
0#
#102900
b1010100100 8
b1010100100 @
b1010100100 _
b1010100100 n
b1010100100 ~
b10101100 &
1#
#103200
0#
#103500
b1010101000 8
b1010101000 @
b1010101000 _
b1010101000 n
b1010101000 ~
b10101101 &
1#
#103800
0#
#104100
b1010101100 8
b1010101100 @
b1010101100 _
b1010101100 n
b1010101100 ~
b10101110 &
1#
#104400
0#
#104700
b1010110000 8
b1010110000 @
b1010110000 _
b1010110000 n
b1010110000 ~
b10101111 &
1#
#105000
0#
#105300
b1010110100 8
b1010110100 @
b1010110100 _
b1010110100 n
b1010110100 ~
b10110000 &
1#
#105600
0#
#105900
b1010111000 8
b1010111000 @
b1010111000 _
b1010111000 n
b1010111000 ~
b10110001 &
1#
#106200
0#
#106500
b1010111100 8
b1010111100 @
b1010111100 _
b1010111100 n
b1010111100 ~
b10110010 &
1#
#106800
0#
#107100
b1011000000 8
b1011000000 @
b1011000000 _
b1011000000 n
b1011000000 ~
b10110011 &
1#
#107400
0#
#107700
b1011000100 8
b1011000100 @
b1011000100 _
b1011000100 n
b1011000100 ~
b10110100 &
1#
#108000
0#
#108300
b1011001000 8
b1011001000 @
b1011001000 _
b1011001000 n
b1011001000 ~
b10110101 &
1#
#108600
0#
#108900
b1011001100 8
b1011001100 @
b1011001100 _
b1011001100 n
b1011001100 ~
b10110110 &
1#
#109200
0#
#109500
b1011010000 8
b1011010000 @
b1011010000 _
b1011010000 n
b1011010000 ~
b10110111 &
1#
#109800
0#
#110100
b1011010100 8
b1011010100 @
b1011010100 _
b1011010100 n
b1011010100 ~
b10111000 &
1#
#110400
0#
#110700
b1011011000 8
b1011011000 @
b1011011000 _
b1011011000 n
b1011011000 ~
b10111001 &
1#
#111000
0#
#111300
b1011011100 8
b1011011100 @
b1011011100 _
b1011011100 n
b1011011100 ~
b10111010 &
1#
#111600
0#
#111900
b1011100000 8
b1011100000 @
b1011100000 _
b1011100000 n
b1011100000 ~
b10111011 &
1#
#112200
0#
#112500
b1011100100 8
b1011100100 @
b1011100100 _
b1011100100 n
b1011100100 ~
b10111100 &
1#
#112800
0#
#113100
b1011101000 8
b1011101000 @
b1011101000 _
b1011101000 n
b1011101000 ~
b10111101 &
1#
#113400
0#
#113700
b1011101100 8
b1011101100 @
b1011101100 _
b1011101100 n
b1011101100 ~
b10111110 &
1#
#114000
0#
#114300
b1011110000 8
b1011110000 @
b1011110000 _
b1011110000 n
b1011110000 ~
b10111111 &
1#
#114600
0#
#114900
b1011110100 8
b1011110100 @
b1011110100 _
b1011110100 n
b1011110100 ~
b11000000 &
1#
#115200
0#
#115500
b1011111000 8
b1011111000 @
b1011111000 _
b1011111000 n
b1011111000 ~
b11000001 &
1#
#115800
0#
#116100
b1011111100 8
b1011111100 @
b1011111100 _
b1011111100 n
b1011111100 ~
b11000010 &
1#
#116400
0#
#116700
b1100000000 8
b1100000000 @
b1100000000 _
b1100000000 n
b1100000000 ~
b11000011 &
1#
#117000
0#
#117300
b1100000100 8
b1100000100 @
b1100000100 _
b1100000100 n
b1100000100 ~
b11000100 &
1#
#117600
0#
